<?xml version="1.0" encoding="UTF-8" standalone="no"?>
<!-- Created with matplotlib (https://matplotlib.org/) -->

<svg
   xmlns:dc="http://purl.org/dc/elements/1.1/"
   xmlns:cc="http://creativecommons.org/ns#"
   xmlns:rdf="http://www.w3.org/1999/02/22-rdf-syntax-ns#"
   xmlns:svg="http://www.w3.org/2000/svg"
   xmlns="http://www.w3.org/2000/svg"
   xmlns:sodipodi="http://sodipodi.sourceforge.net/DTD/sodipodi-0.dtd"
   xmlns:inkscape="http://www.inkscape.org/namespaces/inkscape"
   height="92.461945mm"
   version="1.1"
   viewBox="0 0 537.63506 262.09686"
   width="189.6657mm"
   id="svg419"
   sodipodi:docname="paretolibtool_detailed.svg"
   inkscape:version="0.92.3 (2405546, 2018-03-11)"
   inkscape:export-filename="/home/requenoj/Desktop/paretolibtool_detailed.png"
   inkscape:export-xdpi="600"
   inkscape:export-ydpi="600">
  <sodipodi:namedview
     pagecolor="#ffffff"
     bordercolor="#666666"
     borderopacity="1"
     objecttolerance="10"
     gridtolerance="10"
     guidetolerance="10"
     inkscape:pageopacity="0"
     inkscape:pageshadow="2"
     inkscape:window-width="1920"
     inkscape:window-height="1052"
     id="namedview421"
     showgrid="true"
     fit-margin-top="0"
     fit-margin-left="0"
     fit-margin-right="0"
     fit-margin-bottom="0"
     inkscape:zoom="2.1735956"
     inkscape:cx="433.26646"
     inkscape:cy="245.62002"
     inkscape:window-x="1920"
     inkscape:window-y="0"
     inkscape:window-maximized="1"
     inkscape:current-layer="svg419"
     showguides="false"
     units="mm">
    <inkscape:grid
       originy="-162.37894"
       originx="9.8197995"
       id="grid992"
       type="xygrid" />
  </sodipodi:namedview>
  <metadata
     id="metadata423">
    <rdf:RDF>
      <cc:Work
         rdf:about="">
        <dc:format>image/svg+xml</dc:format>
        <dc:type
           rdf:resource="http://purl.org/dc/dcmitype/StillImage" />
        <dc:title />
      </cc:Work>
    </rdf:RDF>
  </metadata>
  <defs
     style="stroke-linecap:butt;stroke-linejoin:round"
     id="defs4">
    <marker
       inkscape:stockid="Arrow1Lend"
       orient="auto"
       refY="0"
       refX="0"
       id="marker4081"
       style="overflow:visible;stroke-linecap:butt;stroke-linejoin:round"
       inkscape:isstock="true">
      <path
         id="path4079"
         d="M 0,0 5,-5 -12.5,0 5,5 Z"
         style="fill:#000000;fill-opacity:1;fill-rule:evenodd;stroke:#000000;stroke-width:1.00000003pt;stroke-linecap:butt;stroke-linejoin:round;stroke-opacity:1"
         transform="matrix(-0.8,0,0,-0.8,-10,0)"
         inkscape:connector-curvature="0" />
    </marker>
    <marker
       inkscape:stockid="Arrow1Lend"
       orient="auto"
       refY="0"
       refX="0"
       id="marker1715"
       style="overflow:visible;stroke-linecap:butt;stroke-linejoin:round"
       inkscape:isstock="true">
      <path
         id="path1713"
         d="M 0,0 5,-5 -12.5,0 5,5 Z"
         style="fill:#000000;fill-opacity:1;fill-rule:evenodd;stroke:#000000;stroke-width:1.00000003pt;stroke-linecap:butt;stroke-linejoin:round;stroke-opacity:1"
         transform="matrix(-0.8,0,0,-0.8,-10,0)"
         inkscape:connector-curvature="0" />
    </marker>
    <marker
       inkscape:isstock="true"
       style="overflow:visible;stroke-linecap:butt;stroke-linejoin:round"
       id="Arrow1Lstart"
       refX="0"
       refY="0"
       orient="auto"
       inkscape:stockid="Arrow1Lstart">
      <path
         inkscape:connector-curvature="0"
         transform="matrix(0.8,0,0,0.8,10,0)"
         style="fill:#000000;fill-opacity:1;fill-rule:evenodd;stroke:#000000;stroke-width:1.00000003pt;stroke-linecap:butt;stroke-linejoin:round;stroke-opacity:1"
         d="M 0,0 5,-5 -12.5,0 5,5 Z"
         id="path998" />
    </marker>
    <style
       id="style2"
       type="text/css">
*{stroke-linecap:butt;stroke-linejoin:round;}
  </style>
    <defs
       id="defs88">
      <path
         d="M 40.4375,6.390625 Q 35.546875,2.25 31.03125,0.53125 q -4.515625,-1.703125 -9.6875,-1.703125 -8.546875,0 -13.140625,4.171875 -4.59375,4.171875 -4.59375,10.671875 0,3.8125 1.734375,6.953125 1.734375,3.15625 4.546875,5.0625 2.8125,1.90625 6.328125,2.875 2.578125,0.6875 7.8125,1.328125 10.640625,1.265625 15.671875,3.015625 0.04687,1.8125 0.04687,2.296875 0,5.375 -2.5,7.578125 -3.359375,2.96875 -10,2.96875 -6.203125,0 -9.15625,-2.171875 -2.953125,-2.171875 -4.375,-7.6875 L 5.125,37.0625 q 1.171875,5.515625 3.859375,8.90625 2.6875,3.390625 7.765625,5.21875 5.078125,1.84375 11.765625,1.84375 6.640625,0 10.78125,-1.5625 4.15625,-1.5625 6.109375,-3.9375 1.953125,-2.359375 2.734375,-5.984375 0.4375,-2.234375 0.4375,-8.09375 v -11.71875 q 0,-12.265625 0.5625,-15.515625 Q 49.703125,2.984375 51.375,0 h -9.1875 q -1.359375,2.734375 -1.75,6.390625 z M 39.703125,26.03125 Q 34.90625,24.078125 25.34375,22.703125 19.921875,21.921875 17.671875,20.9375 15.4375,19.96875 14.203125,18.09375 q -1.21875,-1.875 -1.21875,-4.171875 0,-3.515625 2.65625,-5.859375 2.671875,-2.34375 7.796875,-2.34375 5.078125,0 9.03125,2.21875 3.953125,2.21875 5.8125,6.078125 1.421875,2.984375 1.421875,8.78125 z"
         id="ArialMT-97"
         inkscape:connector-curvature="0"
         style="stroke-linecap:butt;stroke-linejoin:round" />
      <path
         d="M 6.390625,0 V 71.578125 H 15.1875 V 0 Z"
         id="ArialMT-108"
         inkscape:connector-curvature="0"
         style="stroke-linecap:butt;stroke-linejoin:round" />
      <path
         d="m 6.59375,-19.875 v 71.734375 h 8 V 45.125 Q 17.4375,49.078125 21,51.046875 q 3.5625,1.984375 8.640625,1.984375 6.640625,0 11.71875,-3.421875 5.078125,-3.421875 7.65625,-9.65625 2.59375,-6.21875 2.59375,-13.640625 0,-7.953125 -2.859375,-14.328125 Q 45.90625,5.609375 40.453125,2.21875 35.015625,-1.171875 29,-1.171875 q -4.390625,0 -7.890625,1.859375 Q 17.625,2.546875 15.375,5.375 v -25.25 z m 7.953125,45.515625 q 0,-10.015625 4.046875,-14.796875 4.0625,-4.78125 9.828125,-4.78125 5.859375,0 10.03125,4.953125 Q 42.625,15.96875 42.625,26.375 q 0,9.90625 -4.078125,14.828125 -4.078125,4.9375 -9.734375,4.9375 -5.625,0 -9.953125,-5.25 -4.3125,-5.25 -4.3125,-15.25 z"
         id="ArialMT-112"
         inkscape:connector-curvature="0"
         style="stroke-linecap:butt;stroke-linejoin:round" />
      <path
         d="M 6.59375,0 V 71.578125 H 15.375 V 45.90625 q 6.15625,7.125 15.53125,7.125 5.765625,0 10.015625,-2.28125 4.25,-2.265625 6.078125,-6.265625 1.828125,-4 1.828125,-11.625 V 0 h -8.78125 v 32.859375 q 0,6.59375 -2.859375,9.59375 -2.859375,3 -8.078125,3 -3.90625,0 -7.359375,-2.03125 Q 18.3125,41.40625 16.84375,37.9375 15.375,34.46875 15.375,28.375 V 0 Z"
         id="ArialMT-104"
         inkscape:connector-curvature="0"
         style="stroke-linecap:butt;stroke-linejoin:round" />
    </defs>
    <defs
       id="defs248">
      <path
         d="M 4.984375,-4.296875 13.53125,-5.5625 q 0.53125,-3.953125 2.96875,-5.765625 3.28125,-2.4375 8.9375,-2.4375 6.109375,0 9.421875,2.4375 3.328125,2.4375 4.5,6.828125 0.6875,2.6875 0.625,11.28125 Q 34.234375,0 25.640625,0 14.9375,0 9.078125,7.71875 q -5.859375,7.71875 -5.859375,18.5 0,7.421875 2.6875,13.6875 2.6875,6.28125 7.78125,9.703125 5.109375,3.421875 12,3.421875 9.171875,0 15.140625,-7.421875 v 6.25 h 8.09375 V 7.03125 q 0,-12.109375 -2.46875,-17.15625 -2.453125,-5.0625 -7.8125,-7.984375 -5.34375,-2.9375 -13.15625,-2.9375 -9.265625,0 -14.984375,4.171875 -5.71875,4.171875 -5.515625,12.578125 z M 12.25,26.859375 q 0,-10.203125 4.046875,-14.890625 4.0625,-4.6875 10.171875,-4.6875 6.046875,0 10.140625,4.65625 4.109375,4.671875 4.109375,14.625 0,9.515625 -4.21875,14.34375 Q 32.28125,45.75 26.3125,45.75 q -5.859375,0 -9.96875,-4.765625 -4.09375,-4.75 -4.09375,-14.125 z"
         id="ArialMT-103"
         inkscape:connector-curvature="0"
         style="stroke-linecap:butt;stroke-linejoin:round" />
      <path
         d="m 6.59375,0 v 51.859375 h 7.859375 v -7.28125 q 2.4375,3.8125 6.484375,6.125 4.0625,2.328125 9.234375,2.328125 5.765625,0 9.453125,-2.390625 3.6875,-2.390625 5.203125,-6.6875 6.15625,9.078125 16.015625,9.078125 7.71875,0 11.859375,-4.28125 4.15625,-4.265625 4.15625,-13.15625 V 0 h -8.75 v 32.671875 q 0,5.265625 -0.859375,7.578125 -0.84375,2.328125 -3.09375,3.734375 -2.234375,1.421875 -5.265625,1.421875 -5.46875,0 -9.09375,-3.640625 Q 46.1875,38.140625 46.1875,30.125 V 0 h -8.78125 v 33.6875 q 0,5.859375 -2.15625,8.78125 -2.140625,2.9375 -7.03125,2.9375 -3.703125,0 -6.859375,-1.953125 Q 18.21875,41.5 16.796875,37.734375 15.375,33.984375 15.375,26.90625 V 0 Z"
         id="ArialMT-109"
         inkscape:connector-curvature="0"
         style="stroke-linecap:butt;stroke-linejoin:round" />
    </defs>
    <marker
       inkscape:isstock="true"
       style="overflow:visible;stroke-linecap:butt;stroke-linejoin:round"
       id="Arrow1Lstart-3"
       refX="0"
       refY="0"
       orient="auto"
       inkscape:stockid="Arrow1Lstart">
      <path
         transform="matrix(0.8,0,0,0.8,10,0)"
         style="fill:#000000;fill-opacity:1;fill-rule:evenodd;stroke:#000000;stroke-width:1.00000003pt;stroke-linecap:butt;stroke-linejoin:round;stroke-opacity:1"
         d="M 0,0 5,-5 -12.5,0 5,5 Z"
         id="path998-5"
         inkscape:connector-curvature="0" />
    </marker>
    <marker
       inkscape:isstock="true"
       style="overflow:visible;stroke-linecap:butt;stroke-linejoin:round"
       id="Arrow1Lend-6"
       refX="0"
       refY="0"
       orient="auto"
       inkscape:stockid="Arrow1Lend">
      <path
         transform="matrix(-0.8,0,0,-0.8,-10,0)"
         style="fill:#000000;fill-opacity:1;fill-rule:evenodd;stroke:#000000;stroke-width:1.00000003pt;stroke-linecap:butt;stroke-linejoin:round;stroke-opacity:1"
         d="M 0,0 5,-5 -12.5,0 5,5 Z"
         id="path1001-2"
         inkscape:connector-curvature="0" />
    </marker>
    <marker
       inkscape:isstock="true"
       style="overflow:visible;stroke-linecap:butt;stroke-linejoin:round"
       id="Arrow1Lend-2"
       refX="0"
       refY="0"
       orient="auto"
       inkscape:stockid="Arrow1Lend">
      <path
         transform="matrix(-0.8,0,0,-0.8,-10,0)"
         style="fill:#000000;fill-opacity:1;fill-rule:evenodd;stroke:#000000;stroke-width:1.00000003pt;stroke-linecap:butt;stroke-linejoin:round;stroke-opacity:1"
         d="M 0,0 5,-5 -12.5,0 5,5 Z"
         id="path1001-7"
         inkscape:connector-curvature="0" />
    </marker>
    <marker
       inkscape:isstock="true"
       style="overflow:visible;stroke-linecap:butt;stroke-linejoin:round"
       id="Arrow1Lend-6-9"
       refX="0"
       refY="0"
       orient="auto"
       inkscape:stockid="Arrow1Lend">
      <path
         transform="matrix(-0.8,0,0,-0.8,-10,0)"
         style="fill:#000000;fill-opacity:1;fill-rule:evenodd;stroke:#000000;stroke-width:1.00000003pt;stroke-linecap:butt;stroke-linejoin:round;stroke-opacity:1"
         d="M 0,0 5,-5 -12.5,0 5,5 Z"
         id="path1001-2-3"
         inkscape:connector-curvature="0" />
    </marker>
    <marker
       inkscape:isstock="true"
       style="overflow:visible;stroke-linecap:butt;stroke-linejoin:round"
       id="Arrow1Lstart-36"
       refX="0"
       refY="0"
       orient="auto"
       inkscape:stockid="Arrow1Lstart">
      <path
         inkscape:connector-curvature="0"
         transform="matrix(0.8,0,0,0.8,10,0)"
         style="fill:#000000;fill-opacity:1;fill-rule:evenodd;stroke:#000000;stroke-width:1.00000003pt;stroke-linecap:butt;stroke-linejoin:round;stroke-opacity:1"
         d="M 0,0 5,-5 -12.5,0 5,5 Z"
         id="path998-7" />
    </marker>
    <marker
       inkscape:stockid="Arrow1Lend"
       orient="auto"
       refY="0"
       refX="0"
       id="Arrow1Lend-2-5"
       style="overflow:visible;stroke-linecap:butt;stroke-linejoin:round"
       inkscape:isstock="true">
      <path
         inkscape:connector-curvature="0"
         id="path1001-7-3"
         d="M 0,0 5,-5 -12.5,0 5,5 Z"
         style="fill:#000000;fill-opacity:1;fill-rule:evenodd;stroke:#000000;stroke-width:1.00000003pt;stroke-linecap:butt;stroke-linejoin:round;stroke-opacity:1"
         transform="matrix(-0.8,0,0,-0.8,-10,0)" />
    </marker>
    <marker
       inkscape:stockid="Arrow1Lend"
       orient="auto"
       refY="0"
       refX="0"
       id="Arrow1Lend-5"
       style="overflow:visible;stroke-linecap:butt;stroke-linejoin:round"
       inkscape:isstock="true">
      <path
         id="path1001-6"
         d="M 0,0 5,-5 -12.5,0 5,5 Z"
         style="fill:#000000;fill-opacity:1;fill-rule:evenodd;stroke:#000000;stroke-width:1.00000003pt;stroke-linecap:butt;stroke-linejoin:round;stroke-opacity:1"
         transform="matrix(-0.8,0,0,-0.8,-10,0)"
         inkscape:connector-curvature="0" />
    </marker>
    <marker
       inkscape:stockid="Arrow1Lstart"
       orient="auto"
       refY="0"
       refX="0"
       id="Arrow1Lstart-2"
       style="overflow:visible;stroke-linecap:butt;stroke-linejoin:round"
       inkscape:isstock="true">
      <path
         id="path998-9"
         d="M 0,0 5,-5 -12.5,0 5,5 Z"
         style="fill:#000000;fill-opacity:1;fill-rule:evenodd;stroke:#000000;stroke-width:1.00000003pt;stroke-linecap:butt;stroke-linejoin:round;stroke-opacity:1"
         transform="matrix(0.8,0,0,0.8,10,0)"
         inkscape:connector-curvature="0" />
    </marker>
    <marker
       inkscape:stockid="Arrow1Lstart"
       orient="auto"
       refY="0"
       refX="0"
       id="Arrow1Lstart-36-1"
       style="overflow:visible;stroke-linecap:butt;stroke-linejoin:round"
       inkscape:isstock="true">
      <path
         id="path998-7-2"
         d="M 0,0 5,-5 -12.5,0 5,5 Z"
         style="fill:#000000;fill-opacity:1;fill-rule:evenodd;stroke:#000000;stroke-width:1.00000003pt;stroke-linecap:butt;stroke-linejoin:round;stroke-opacity:1"
         transform="matrix(0.8,0,0,0.8,10,0)"
         inkscape:connector-curvature="0" />
    </marker>
    <marker
       inkscape:stockid="Arrow1Lend"
       orient="auto"
       refY="0"
       refX="0"
       id="Arrow1Lend-2-5-7"
       style="overflow:visible;stroke-linecap:butt;stroke-linejoin:round"
       inkscape:isstock="true">
      <path
         inkscape:connector-curvature="0"
         id="path1001-7-3-5"
         d="M 0,0 5,-5 -12.5,0 5,5 Z"
         style="fill:#000000;fill-opacity:1;fill-rule:evenodd;stroke:#000000;stroke-width:1.00000003pt;stroke-linecap:butt;stroke-linejoin:round;stroke-opacity:1"
         transform="matrix(-0.8,0,0,-0.8,-10,0)" />
    </marker>
    <marker
       inkscape:stockid="Arrow1Lstart"
       orient="auto"
       refY="0"
       refX="0"
       id="Arrow1Lstart-36-1-9"
       style="overflow:visible;stroke-linecap:butt;stroke-linejoin:round"
       inkscape:isstock="true">
      <path
         id="path998-7-2-2"
         d="M 0,0 5,-5 -12.5,0 5,5 Z"
         style="fill:#000000;fill-opacity:1;fill-rule:evenodd;stroke:#000000;stroke-width:1.00000003pt;stroke-linecap:butt;stroke-linejoin:round;stroke-opacity:1"
         transform="matrix(0.8,0,0,0.8,10,0)"
         inkscape:connector-curvature="0" />
    </marker>
    <marker
       inkscape:stockid="Arrow1Lend"
       orient="auto"
       refY="0"
       refX="0"
       id="Arrow1Lend-2-5-7-1"
       style="overflow:visible;stroke-linecap:butt;stroke-linejoin:round"
       inkscape:isstock="true">
      <path
         inkscape:connector-curvature="0"
         id="path1001-7-3-5-8"
         d="M 0,0 5,-5 -12.5,0 5,5 Z"
         style="fill:#000000;fill-opacity:1;fill-rule:evenodd;stroke:#000000;stroke-width:1.00000003pt;stroke-linecap:butt;stroke-linejoin:round;stroke-opacity:1"
         transform="matrix(-0.8,0,0,-0.8,-10,0)" />
    </marker>
    <marker
       inkscape:stockid="Arrow1Lend"
       orient="auto"
       refY="0"
       refX="0"
       id="Arrow1Lend-2-5-7-9"
       style="overflow:visible;stroke-linecap:butt;stroke-linejoin:round"
       inkscape:isstock="true">
      <path
         inkscape:connector-curvature="0"
         id="path1001-7-3-5-7"
         d="M 0,0 5,-5 -12.5,0 5,5 Z"
         style="fill:#000000;fill-opacity:1;fill-rule:evenodd;stroke:#000000;stroke-width:1.00000003pt;stroke-linecap:butt;stroke-linejoin:round;stroke-opacity:1"
         transform="matrix(-0.8,0,0,-0.8,-10,0)" />
    </marker>
    <marker
       inkscape:stockid="Arrow1Lend"
       orient="auto"
       refY="0"
       refX="0"
       id="Arrow1Lend-2-5-7-6"
       style="overflow:visible;stroke-linecap:butt;stroke-linejoin:round"
       inkscape:isstock="true">
      <path
         inkscape:connector-curvature="0"
         id="path1001-7-3-5-1"
         d="M 0,0 5,-5 -12.5,0 5,5 Z"
         style="fill:#000000;fill-opacity:1;fill-rule:evenodd;stroke:#000000;stroke-width:1.00000003pt;stroke-linecap:butt;stroke-linejoin:round;stroke-opacity:1"
         transform="matrix(-0.8,0,0,-0.8,-10,0)" />
    </marker>
    <marker
       inkscape:stockid="Arrow1Lend"
       orient="auto"
       refY="0"
       refX="0"
       id="marker4081-4"
       style="overflow:visible;stroke-linecap:butt;stroke-linejoin:round"
       inkscape:isstock="true">
      <path
         id="path4079-7"
         d="M 0,0 5,-5 -12.5,0 5,5 Z"
         style="fill:#000000;fill-opacity:1;fill-rule:evenodd;stroke:#000000;stroke-width:1.00000003pt;stroke-linecap:butt;stroke-linejoin:round;stroke-opacity:1"
         transform="matrix(-0.8,0,0,-0.8,-10,0)"
         inkscape:connector-curvature="0" />
    </marker>
    <marker
       inkscape:stockid="Arrow1Lend"
       orient="auto"
       refY="0"
       refX="0"
       id="Arrow1Lend-2-5-7-4"
       style="overflow:visible;stroke-linecap:butt;stroke-linejoin:round"
       inkscape:isstock="true">
      <path
         inkscape:connector-curvature="0"
         id="path1001-7-3-5-3"
         d="M 0,0 5,-5 -12.5,0 5,5 Z"
         style="fill:#000000;fill-opacity:1;fill-rule:evenodd;stroke:#000000;stroke-width:1.00000003pt;stroke-linecap:butt;stroke-linejoin:round;stroke-opacity:1"
         transform="matrix(-0.8,0,0,-0.8,-10,0)" />
    </marker>
    <clipPath
       id="pcdba28b099"
       style="stroke-linecap:butt;stroke-linejoin:round">
      <rect
         height="276.76001"
         width="392.82999"
         x="47.720001"
         y="26.879999"
         id="rect391"
         style="stroke-linecap:butt;stroke-linejoin:round" />
    </clipPath>
    <clipPath
       id="clipPath959"
       style="stroke-linecap:butt;stroke-linejoin:round">
      <rect
         height="276.76001"
         width="392.82999"
         x="47.720001"
         y="26.879999"
         id="rect957"
         style="stroke-linecap:butt;stroke-linejoin:round" />
    </clipPath>
    <clipPath
       id="clipPath963"
       style="stroke-linecap:butt;stroke-linejoin:round">
      <rect
         height="276.76001"
         width="392.82999"
         x="47.720001"
         y="26.879999"
         id="rect961"
         style="stroke-linecap:butt;stroke-linejoin:round" />
    </clipPath>
    <clipPath
       id="clipPath967"
       style="stroke-linecap:butt;stroke-linejoin:round">
      <rect
         height="276.76001"
         width="392.82999"
         x="47.720001"
         y="26.879999"
         id="rect965"
         style="stroke-linecap:butt;stroke-linejoin:round" />
    </clipPath>
    <clipPath
       id="clipPath971"
       style="stroke-linecap:butt;stroke-linejoin:round">
      <rect
         height="276.76001"
         width="392.82999"
         x="47.720001"
         y="26.879999"
         id="rect969"
         style="stroke-linecap:butt;stroke-linejoin:round" />
    </clipPath>
    <clipPath
       id="clipPath975"
       style="stroke-linecap:butt;stroke-linejoin:round">
      <rect
         height="276.76001"
         width="392.82999"
         x="47.720001"
         y="26.879999"
         id="rect973"
         style="stroke-linecap:butt;stroke-linejoin:round" />
    </clipPath>
    <clipPath
       id="clipPath979"
       style="stroke-linecap:butt;stroke-linejoin:round">
      <rect
         height="276.76001"
         width="392.82999"
         x="47.720001"
         y="26.879999"
         id="rect977"
         style="stroke-linecap:butt;stroke-linejoin:round" />
    </clipPath>
    <clipPath
       id="clipPath983"
       style="stroke-linecap:butt;stroke-linejoin:round">
      <rect
         height="276.76001"
         width="392.82999"
         x="47.720001"
         y="26.879999"
         id="rect981"
         style="stroke-linecap:butt;stroke-linejoin:round" />
    </clipPath>
    <clipPath
       id="clipPath987"
       style="stroke-linecap:butt;stroke-linejoin:round">
      <rect
         height="276.76001"
         width="392.82999"
         x="47.720001"
         y="26.879999"
         id="rect985"
         style="stroke-linecap:butt;stroke-linejoin:round" />
    </clipPath>
    <clipPath
       id="clipPath991"
       style="stroke-linecap:butt;stroke-linejoin:round">
      <rect
         height="276.76001"
         width="392.82999"
         x="47.720001"
         y="26.879999"
         id="rect989"
         style="stroke-linecap:butt;stroke-linejoin:round" />
    </clipPath>
    <clipPath
       id="clipPath995"
       style="stroke-linecap:butt;stroke-linejoin:round">
      <rect
         height="276.76001"
         width="392.82999"
         x="47.720001"
         y="26.879999"
         id="rect993"
         style="stroke-linecap:butt;stroke-linejoin:round" />
    </clipPath>
  </defs>
  <defs
     id="defs417">
    <clipPath
       style="stroke-linecap:butt;stroke-linejoin:round"
       id="pef850149f7">
      <rect
         style="stroke-linecap:butt;stroke-linejoin:round"
         id="rect414"
         y="61.578999"
         x="193.59"
         width="1136.97"
         height="502.70224" />
    </clipPath>
  </defs>
  <rect
     style="opacity:0.5;fill:#ffffff;fill-opacity:1;stroke:#000000;stroke-width:2.21963954;stroke-linecap:butt;stroke-linejoin:round;stroke-miterlimit:4;stroke-dasharray:none;stroke-dashoffset:0;stroke-opacity:1"
     id="rect262"
     width="225.00783"
     height="182.47403"
     x="131.45074"
     y="45.725803"
     ry="5.90308" />
  <text
     xml:space="preserve"
     style="font-style:normal;font-variant:normal;font-weight:normal;font-stretch:normal;font-size:4px;line-height:1.25;font-family:cmr;-inkscape-font-specification:cmr;letter-spacing:0px;word-spacing:0px;fill:#000000;fill-opacity:1;stroke:none;stroke-width:0.75;stroke-linecap:butt;stroke-linejoin:round"
     x="143.55914"
     y="212.96211"
     id="text1071"><tspan
       sodipodi:role="line"
       id="tspan1069"
       style="font-size:18px;line-height:2.25;stroke-width:0.75;stroke-linecap:butt;stroke-linejoin:round"
       x="143.55914"
       y="212.96211">ParetoLib</tspan></text>
  <g
     style="stroke-linecap:butt;stroke-linejoin:round"
     transform="translate(-2.9999995,16.227978)"
     id="g3953">
    <rect
       ry="7.6873527"
       y="168.0907"
       x="247.15895"
       height="43.865978"
       width="94.22979"
       id="rect1073-3"
       style="opacity:0.5;fill:#ffffff;fill-opacity:1;stroke:#000000;stroke-width:2.25;stroke-linecap:butt;stroke-linejoin:round;stroke-miterlimit:4;stroke-dasharray:none;stroke-dashoffset:0;stroke-opacity:1" />
    <text
       id="text1081"
       y="196.73413"
       x="263.49893"
       style="font-style:normal;font-variant:normal;font-weight:normal;font-stretch:normal;font-size:4px;line-height:1.25;font-family:cmr;-inkscape-font-specification:cmr;letter-spacing:0px;word-spacing:0px;fill:#000000;fill-opacity:1;stroke:none;stroke-width:0.75;stroke-linecap:butt;stroke-linejoin:round"
       xml:space="preserve"><tspan
         y="196.73413"
         x="263.49893"
         style="font-size:18px;stroke-width:0.75;stroke-linecap:butt;stroke-linejoin:round"
         id="tspan1079"
         sodipodi:role="line">Search</tspan></text>
  </g>
  <rect
     style="opacity:0.5;fill:#ffffff;fill-opacity:1;stroke:#000000;stroke-width:2.25000006;stroke-linecap:butt;stroke-linejoin:round;stroke-miterlimit:4;stroke-dasharray:none;stroke-dashoffset:0;stroke-opacity:1"
     id="rect1073"
     width="198.75"
     height="71.250008"
     x="144.81981"
     y="45.740997"
     ry="12.486305" />
  <text
     xml:space="preserve"
     style="font-style:normal;font-variant:normal;font-weight:normal;font-stretch:normal;font-size:4px;line-height:1.25;font-family:cmr;-inkscape-font-specification:cmr;letter-spacing:0px;word-spacing:0px;fill:#000000;fill-opacity:1;stroke:none;stroke-width:0.75;stroke-linecap:butt;stroke-linejoin:round"
     x="174.54149"
     y="64.601578"
     id="text1077"><tspan
       sodipodi:role="line"
       id="tspan1075"
       style="font-size:18px;stroke-width:0.75;stroke-linecap:butt;stroke-linejoin:round"
       x="174.54149"
       y="64.601578">OracleInterface</tspan></text>
  <g
     id="g1420"
     transform="translate(128.24496,38.089998)"
     style="stroke-linecap:butt;stroke-linejoin:round">
    <rect
       ry="3.0952914"
       y="33.488483"
       x="22.405622"
       height="17.662512"
       width="70.42688"
       id="rect1073-36"
       style="opacity:0.5;fill:#ffffff;fill-opacity:1;stroke:#000000;stroke-width:1.50000012;stroke-linecap:butt;stroke-linejoin:round;stroke-miterlimit:4;stroke-dasharray:none;stroke-dashoffset:0;stroke-opacity:1" />
    <text
       id="text1077-5"
       y="46.882843"
       x="26.346701"
       style="font-style:normal;font-variant:normal;font-weight:normal;font-stretch:normal;font-size:2.72000003px;line-height:1.25;font-family:cmr;-inkscape-font-specification:cmr;letter-spacing:0px;word-spacing:0px;fill:#000000;fill-opacity:1;stroke:none;stroke-width:0.51000005;stroke-linecap:butt;stroke-linejoin:round"
       xml:space="preserve"><tspan
         y="46.882843"
         x="26.346701"
         style="font-size:12.23999977px;stroke-width:0.51000005;stroke-linecap:butt;stroke-linejoin:round"
         sodipodi:role="line"
         id="tspan1659">OracleSTL</tspan></text>
  </g>
  <rect
     style="opacity:0.5;fill:#ffffff;fill-opacity:1;stroke:#000000;stroke-width:1.50000012;stroke-linecap:butt;stroke-linejoin:round;stroke-miterlimit:4;stroke-dasharray:none;stroke-dashoffset:0;stroke-opacity:1"
     id="rect1073-7"
     width="77.14502"
     height="17.662516"
     x="260.59402"
     y="71.578484"
     ry="3.0952923" />
  <text
     xml:space="preserve"
     style="font-style:normal;font-variant:normal;font-weight:normal;font-stretch:normal;font-size:2.72000003px;line-height:1.25;font-family:cmr;-inkscape-font-specification:cmr;letter-spacing:0px;word-spacing:0px;fill:#000000;fill-opacity:1;stroke:none;stroke-width:0.51000005;stroke-linecap:butt;stroke-linejoin:round"
     x="263.84207"
     y="84.972847"
     id="text1077-5-5"><tspan
       id="tspan1659-2"
       sodipodi:role="line"
       style="font-size:12.23999977px;stroke-width:0.51000005;stroke-linecap:butt;stroke-linejoin:round"
       x="263.84207"
       y="84.972847">OraclePoint</tspan></text>
  <g
     id="g1437"
     transform="translate(132.60197,143.09)"
     style="stroke-linecap:butt;stroke-linejoin:round">
    <rect
       ry="3.0952914"
       y="-50.099007"
       x="59.494064"
       height="17.662514"
       width="100.83846"
       id="rect1073-36-3"
       style="opacity:0.5;fill:#ffffff;fill-opacity:1;stroke:#000000;stroke-width:1.50000012;stroke-linecap:butt;stroke-linejoin:round;stroke-miterlimit:4;stroke-dasharray:none;stroke-dashoffset:0;stroke-opacity:1" />
    <text
       id="text1077-5-6"
       y="-36.704643"
       x="64.111908"
       style="font-style:normal;font-variant:normal;font-weight:normal;font-stretch:normal;font-size:2.72000003px;line-height:1.25;font-family:cmr;-inkscape-font-specification:cmr;letter-spacing:0px;word-spacing:0px;fill:#000000;fill-opacity:1;stroke:none;stroke-width:1.50000012;stroke-linecap:butt;stroke-linejoin:round;stroke-miterlimit:4;stroke-dasharray:none"
       xml:space="preserve"><tspan
         y="-36.704643"
         x="64.111908"
         style="font-size:12.24000072px;stroke-width:1.50000012;stroke-linecap:butt;stroke-linejoin:round;stroke-miterlimit:4;stroke-dasharray:none"
         sodipodi:role="line"
         id="tspan1659-7">OracleFunction</tspan></text>
  </g>
  <rect
     ry="7.6873536"
     y="1.1249956"
     x="196.84001"
     height="43.865978"
     width="94.229797"
     id="rect1073-367"
     style="opacity:0.5;fill:#ffffff;fill-opacity:1;stroke:#000000;stroke-width:2.25;stroke-linecap:butt;stroke-linejoin:round;stroke-miterlimit:4;stroke-dasharray:none;stroke-dashoffset:0;stroke-opacity:1" />
  <text
     id="text1077-53"
     y="29.768429"
     x="214.62582"
     style="font-style:normal;font-variant:normal;font-weight:normal;font-stretch:normal;font-size:4px;line-height:1.25;font-family:cmr;-inkscape-font-specification:cmr;letter-spacing:0px;word-spacing:0px;fill:#000000;fill-opacity:1;stroke:none;stroke-width:0.75;stroke-linecap:butt;stroke-linejoin:round"
     xml:space="preserve"><tspan
       y="29.768429"
       x="214.62582"
       style="font-size:18px;stroke-width:0.75;stroke-linecap:butt;stroke-linejoin:round"
       id="tspan1075-5"
       sodipodi:role="line">Oracle</tspan></text>
  <g
     style="stroke-linecap:butt;stroke-linejoin:round"
     transform="translate(-34.645251,-123.37374)"
     id="g1024-22" />
  <path
     style="fill:none;stroke:#000000;stroke-width:0.75px;stroke-linecap:butt;stroke-linejoin:miter;stroke-opacity:1;marker-end:url(#Arrow1Lend-2-5-7)"
     d="m 81.202017,134.44772 c 16.241283,0 32.482553,0 48.723833,0"
     id="path994-0-0"
     inkscape:connector-curvature="0"
     sodipodi:nodetypes="cc" />
  <path
     style="font-style:normal;font-variant:normal;font-weight:normal;font-stretch:normal;letter-spacing:normal;word-spacing:normal;text-anchor:start;fill:#4d4d4d;fill-opacity:1;fill-rule:evenodd;stroke:#000000;stroke-width:0;stroke-linecap:butt;stroke-linejoin:round;stroke-miterlimit:10.43299961;stroke-dasharray:none;stroke-dashoffset:0;stroke-opacity:1"
     inkscape:connector-curvature="0"
     id="path6"
     d="m 61.942653,136.46721 v 2.80694 q 0,0.61402 -0.39472,1.00875 -0.39473,0.39472 -1.00875,0.39472 H 29.662834 q -0.61402,0 -1.00875,-0.39472 -0.39472,-0.39473 -0.39472,-1.00875 v -2.80694 q 0,-0.61402 0.39472,-1.00874 0.39473,-0.39473 1.00875,-0.39473 h 30.876349 q 0.614021,0 1.00875,0.39473 0.39472,0.39472 0.39472,1.00874 z m 0,-11.22776 v 2.80694 q 0,0.61402 -0.39472,1.00874 -0.39473,0.39473 -1.00875,0.39473 H 29.662834 q -0.61402,0 -1.00875,-0.39473 -0.39472,-0.39472 -0.39472,-1.00874 v -2.80694 q 0,-0.61402 0.39472,-1.00875 0.39473,-0.39472 1.00875,-0.39472 h 30.876349 q 0.614021,0 1.00875,0.39472 0.39472,0.39473 0.39472,1.00875 z m -39.297179,26.66593 h 44.91107 v -33.68329 h -18.24512 q -1.754339,0 -2.982379,-1.22803 -1.22804,-1.22804 -1.22804,-2.98238 V 95.766566 h -22.45553 z m 28.06942,-39.29717 H 63.828573 L 50.714894,99.494535 Z m 22.455529,5.61388 v 35.08676 q 0,1.75434 -1.228039,2.98238 -1.22803,1.22803 -2.98237,1.22803 h -47.71801 q -1.75434,0 -2.98237,-1.22803 -1.22804,-1.22804 -1.22804,-2.98238 V 94.363095 q 0,-1.754338 1.22804,-2.982375 1.22803,-1.228037 2.98237,-1.228037 h 23.859001 q 1.754339,0 3.859549,0.87717 2.1052,0.877169 3.333241,2.105206 l 17.894249,17.894251 q 1.22804,1.22803 2.10521,3.33324 0.87717,2.1052 0.877169,3.85954 z" />
  <g
     style="stroke-linecap:butt;stroke-linejoin:round"
     transform="translate(5e-7,1.5000088)"
     id="g5292">
    <path
       d="m 4.207129,178.56048 v -0.007 -0.0109 -0.004 -0.007 l -0.0036,-0.004 v -0.007 l -0.0036,-0.004 v -0.007 l -0.0036,-0.007 -0.0036,-0.007 -0.0036,-0.007 -0.0073,-0.0109 -0.0036,-0.007 -0.0073,-0.0109 -0.0073,-0.0109 -0.01094,-0.0109 -0.0073,-0.0109 -0.01094,-0.0146 -0.0073,-0.007 -0.0073,-0.007 -0.0036,-0.007 -0.0073,-0.007 -0.0073,-0.007 -0.0073,-0.0109 -0.0073,-0.007 -0.0073,-0.007 -0.01094,-0.0109 -0.0073,-0.007 -0.01094,-0.0109 -0.0073,-0.0109 -0.01094,-0.0109 -0.0073,-0.0109 -0.01094,-0.0109 -0.01094,-0.0109 -0.01094,-0.0109 -0.01458,-0.0109 -0.01094,-0.0146 -0.01094,-0.0109 -0.01458,-0.0146 -0.01458,-0.0109 -0.01094,-0.0146 -0.01458,-0.0146 c -2.267724,-2.2896 -2.847416,-5.72035 -2.847416,-8.4985 0,-3.16096 0.689067,-6.32557 2.920333,-8.58964 0.233335,-0.2224 0.233335,-0.25886 0.233335,-0.31355 0,-0.1276 -0.06927,-0.17865 -0.175001,-0.17865 -0.182293,0 -1.819284,1.23231 -2.887521,3.53649 C 0.215105,166.12501 0,168.14117 0,169.66878 c 0,1.41824 0.196876,3.6094 1.195841,5.66567 1.086467,2.23491 2.654186,3.41252 2.836479,3.41252 0.10573,0 0.175001,-0.051 0.175001,-0.18229 z"
       id="path5399"
       inkscape:connector-curvature="0"
       style="font-style:normal;font-variant:normal;font-weight:normal;font-stretch:normal;letter-spacing:normal;word-spacing:normal;text-anchor:start;fill:#000000;fill-opacity:1;fill-rule:evenodd;stroke:#000000;stroke-width:0;stroke-linecap:butt;stroke-linejoin:round;stroke-miterlimit:10.43299961;stroke-dasharray:none;stroke-dashoffset:0;stroke-opacity:1" />
    <path
       d="m 6.05558,176.42036 -0.01458,0.0547 -0.01094,0.0547 -0.01458,0.0511 -0.01094,0.0474 -0.01094,0.0474 -0.01458,0.0401 -0.01094,0.0437 -0.01458,0.0365 -0.01094,0.0365 -0.01458,0.0328 -0.01823,0.0328 -0.01458,0.0292 -0.01823,0.0255 -0.02188,0.0255 -0.01823,0.0255 -0.02552,0.0219 -0.02188,0.0182 -0.02917,0.0182 -0.02917,0.0146 -0.02917,0.0146 -0.03646,0.0146 -0.03646,0.0109 -0.0401,0.0109 -0.0401,0.007 -0.0474,0.007 -0.02552,0.004 -0.02552,0.004 -0.02552,0.004 -0.02552,0.004 H 5.37015 l -0.02917,0.004 H 5.31181 l -0.02917,0.004 H 5.24983 5.21702 5.18421 5.14775 l -0.03646,0.004 H 5.07483 c -0.215106,0 -0.415628,0 -0.415628,0.33906 0,0.14948 0.09115,0.2224 0.233335,0.2224 0.495837,0 1.02084,-0.0547 1.527615,-0.0547 0.597921,0 1.217717,0.0547 1.801054,0.0547 0.09115,0 0.324482,0 0.324482,-0.36458 0,-0.19688 -0.182293,-0.19688 -0.433857,-0.19688 -0.911465,0 -0.911465,-0.13125 -0.911465,-0.29167 0,-0.2224 0.761984,-3.17919 0.893235,-3.63492 0.233335,0.525 0.74011,1.16303 1.669804,1.16303 l -0.01823,-0.40105 c -1.199488,0 -1.432823,-1.50938 -1.432823,-1.61511 0,-0.0365 0,-0.0766 0.05104,-0.29167 l 0.893235,-3.56201 c 0.12396,-0.48854 0.616151,-0.99532 0.940632,-1.26876 0.638025,-0.5651 1.166675,-0.68906 1.476573,-0.68906 0.72188,0 1.159383,0.63073 1.159383,1.70991 0,1.06823 -0.597921,3.15366 -0.929694,3.85002 -0.612504,1.26876 -1.483865,1.86668 -2.158348,1.86668 l 0.01823,0.40105 c 2.107306,0 4.375031,-2.65054 4.375031,-5.32296 0,-1.70626 -1.031778,-2.9021 -2.417205,-2.9021 -0.904173,0 -1.775533,0.64896 -2.373454,1.3599 -0.182293,-0.98073 -0.962507,-1.3599 -1.636991,-1.3599 -0.834902,0 -1.184904,0.70365 -1.341676,1.02813 -0.331773,0.62344 -0.565108,1.70991 -0.565108,1.76824 0,0.1823 0.182293,0.1823 0.218751,0.1823 0.182293,0 0.196877,-0.0255 0.306252,-0.42292 0.313544,-1.28699 0.670838,-2.15835 1.327093,-2.15835 0.306252,0 0.565108,0.14219 0.565108,0.83125 0,0.42292 -0.05833,0.6198 -0.127605,0.9297 z"
       id="path5401"
       inkscape:connector-curvature="0"
       style="font-style:normal;font-variant:normal;font-weight:normal;font-stretch:normal;letter-spacing:normal;word-spacing:normal;text-anchor:start;fill:#000000;fill-opacity:1;fill-rule:evenodd;stroke:#000000;stroke-width:0;stroke-linecap:butt;stroke-linejoin:round;stroke-miterlimit:10.43299961;stroke-dasharray:none;stroke-dashoffset:0;stroke-opacity:1" />
    <path
       d="m 18.641086,168.83697 v -0.0146 -0.0146 -0.0182 -0.0146 -0.0109 -0.0146 -0.0146 -0.0109 -0.0146 l -0.0036,-0.0109 v -0.0109 -0.0109 -0.0109 l -0.0036,-0.0109 v -0.0109 -0.007 l -0.0036,-0.0109 v -0.007 l -0.0036,-0.0109 v -0.007 l -0.0036,-0.0146 -0.0073,-0.0146 -0.0073,-0.0109 -0.0073,-0.0109 -0.0073,-0.0109 -0.0073,-0.0109 -0.01094,-0.007 -0.01094,-0.007 -0.01094,-0.007 -0.01458,-0.004 -0.01458,-0.004 -0.01823,-0.007 h -0.0073 -0.0073 l -0.01094,-0.004 h -0.01094 l -0.0073,-0.004 h -0.01094 -0.01094 -0.01094 -0.01094 l -0.01458,-0.004 h -0.01094 -0.01458 -0.01094 -0.01458 -0.01458 -0.01458 -0.01458 -0.01823 -0.01458 -0.01823 c -0.813027,0.80209 -1.961472,0.81302 -2.486476,0.81302 v 0.45574 c 0.306252,0 1.1448,0 1.837513,-0.35365 v 6.47869 c 0,0.42292 0,0.58698 -1.268759,0.58698 h -0.477608 v 0.45573 c 0.226044,-0.0109 1.786471,-0.051 2.260433,-0.051 0.393753,0 1.994285,0.0401 2.275016,0.051 v -0.45573 h -0.484899 c -1.272405,0 -1.272405,-0.16406 -1.272405,-0.58698 z"
       id="path5403"
       inkscape:connector-curvature="0"
       style="font-style:normal;font-variant:normal;font-weight:normal;font-stretch:normal;letter-spacing:normal;word-spacing:normal;text-anchor:start;fill:#000000;fill-opacity:1;fill-rule:evenodd;stroke:#000000;stroke-width:0;stroke-linecap:butt;stroke-linejoin:round;stroke-miterlimit:10.43299961;stroke-dasharray:none;stroke-dashoffset:0;stroke-opacity:1" />
    <path
       d="m 26.20989,174.18545 v -0.10573 l -0.0036,-0.10573 -0.0073,-0.10209 -0.0073,-0.10208 -0.01458,-0.0948 -0.01094,-0.0948 -0.01823,-0.0911 -0.01823,-0.0911 -0.01823,-0.0839 -0.02552,-0.0839 -0.02552,-0.0802 -0.02552,-0.0766 -0.02917,-0.0766 -0.03281,-0.0693 -0.03281,-0.0656 -0.03646,-0.0656 -0.0401,-0.0583 -0.0401,-0.0583 -0.04375,-0.0547 -0.04375,-0.0474 -0.0474,-0.0474 -0.0474,-0.0438 -0.05104,-0.0365 -0.05469,-0.0365 -0.05469,-0.0328 -0.05469,-0.0255 -0.05833,-0.0219 -0.06198,-0.0219 -0.06198,-0.0146 -0.06198,-0.0109 -0.06563,-0.004 -0.06927,-0.004 c -0.630734,0 -0.962507,0.48855 -0.962507,0.96251 0,0.47396 0.306252,0.96251 0.962507,0.96251 0.291669,0 0.506774,-0.10938 0.689067,-0.25521 l 0.0401,-0.0365 c 0.01823,0 0.03646,0.0182 0.03646,0.27344 0,1.16303 -0.51042,2.26772 -1.305217,3.1245 -0.116668,0.10573 -0.131251,0.13125 -0.131251,0.19687 0,0.13125 0.09115,0.20053 0.182293,0.20053 0.215106,0 1.651574,-1.43647 1.651574,-3.5219 z"
       id="path5405"
       inkscape:connector-curvature="0"
       style="font-style:normal;font-variant:normal;font-weight:normal;font-stretch:normal;letter-spacing:normal;word-spacing:normal;text-anchor:start;fill:#000000;fill-opacity:1;fill-rule:evenodd;stroke:#000000;stroke-width:0;stroke-linecap:butt;stroke-linejoin:round;stroke-miterlimit:10.43299961;stroke-dasharray:none;stroke-dashoffset:0;stroke-opacity:1" />
    <path
       d="m 37.121947,173.24117 v -0.0474 l -0.0036,-0.051 -0.0073,-0.0474 -0.0073,-0.0474 -0.01094,-0.0437 -0.01458,-0.0474 -0.01458,-0.0437 -0.01823,-0.0438 -0.01823,-0.0438 -0.02188,-0.0401 -0.02188,-0.0401 -0.02552,-0.0401 -0.02917,-0.0365 -0.02552,-0.0365 -0.03281,-0.0365 -0.03281,-0.0328 -0.03281,-0.0328 -0.03281,-0.0292 -0.03646,-0.0292 -0.0401,-0.0255 -0.03646,-0.0255 -0.0401,-0.0255 -0.04375,-0.0219 -0.04375,-0.0182 -0.04375,-0.0182 -0.04375,-0.0146 -0.04375,-0.0146 -0.0474,-0.0109 -0.0474,-0.007 -0.0474,-0.007 -0.05104,-0.004 h -0.0474 c -0.525004,0 -0.962507,0.4375 -0.962507,0.96251 0,0.525 0.437503,0.96251 0.962507,0.96251 0.52865,0 0.962507,-0.43751 0.962507,-0.96251 z"
       id="path5407"
       inkscape:connector-curvature="0"
       style="font-style:normal;font-variant:normal;font-weight:normal;font-stretch:normal;letter-spacing:normal;word-spacing:normal;text-anchor:start;fill:#000000;fill-opacity:1;fill-rule:evenodd;stroke:#000000;stroke-width:0;stroke-linecap:butt;stroke-linejoin:round;stroke-miterlimit:10.43299961;stroke-dasharray:none;stroke-dashoffset:0;stroke-opacity:1" />
    <path
       d="m 45.172004,173.24117 -0.0036,-0.0474 -0.0036,-0.051 -0.0036,-0.0474 -0.01094,-0.0474 -0.01094,-0.0437 -0.01094,-0.0474 -0.01458,-0.0437 -0.01823,-0.0438 -0.01823,-0.0438 -0.02188,-0.0401 -0.02552,-0.0401 -0.02187,-0.0401 -0.02917,-0.0365 -0.02917,-0.0365 -0.02917,-0.0365 -0.03281,-0.0328 -0.03281,-0.0328 -0.03646,-0.0292 -0.03646,-0.0292 -0.03646,-0.0255 -0.04011,-0.0255 -0.0401,-0.0255 -0.0401,-0.0219 -0.04375,-0.0182 -0.04375,-0.0182 -0.04375,-0.0146 -0.04375,-0.0146 -0.0474,-0.0109 -0.0474,-0.007 -0.0474,-0.007 -0.05104,-0.004 h -0.0474 c -0.525003,0 -0.962506,0.4375 -0.962506,0.96251 0,0.525 0.437503,0.96251 0.962506,0.96251 0.52865,0 0.962507,-0.43751 0.962507,-0.96251 z"
       id="path5409"
       inkscape:connector-curvature="0"
       style="font-style:normal;font-variant:normal;font-weight:normal;font-stretch:normal;letter-spacing:normal;word-spacing:normal;text-anchor:start;fill:#000000;fill-opacity:1;fill-rule:evenodd;stroke:#000000;stroke-width:0;stroke-linecap:butt;stroke-linejoin:round;stroke-miterlimit:10.43299961;stroke-dasharray:none;stroke-dashoffset:0;stroke-opacity:1" />
    <path
       d="m 53.218416,173.24117 v -0.0474 l -0.0036,-0.051 -0.0073,-0.0474 -0.0073,-0.0474 -0.01094,-0.0437 -0.01458,-0.0474 -0.01458,-0.0437 -0.01823,-0.0438 -0.01823,-0.0438 -0.02187,-0.0401 -0.02187,-0.0401 -0.02552,-0.0401 -0.02552,-0.0365 -0.02917,-0.0365 -0.03281,-0.0365 -0.02917,-0.0328 -0.03646,-0.0328 -0.03281,-0.0292 -0.03646,-0.0292 -0.03646,-0.0255 -0.0401,-0.0255 -0.0401,-0.0255 -0.04375,-0.0219 -0.0401,-0.0182 -0.04375,-0.0182 -0.0474,-0.0146 -0.04375,-0.0146 -0.0474,-0.0109 -0.0474,-0.007 -0.0474,-0.007 -0.0474,-0.004 h -0.05104 c -0.525004,0 -0.962507,0.4375 -0.962507,0.96251 0,0.525 0.437503,0.96251 0.962507,0.96251 0.52865,0 0.962507,-0.43751 0.962507,-0.96251 z"
       id="path5411"
       inkscape:connector-curvature="0"
       style="font-style:normal;font-variant:normal;font-weight:normal;font-stretch:normal;letter-spacing:normal;word-spacing:normal;text-anchor:start;fill:#000000;fill-opacity:1;fill-rule:evenodd;stroke:#000000;stroke-width:0;stroke-linecap:butt;stroke-linejoin:round;stroke-miterlimit:10.43299961;stroke-dasharray:none;stroke-dashoffset:0;stroke-opacity:1" />
    <path
       d="m 58.493977,174.18545 -0.004,-0.10573 -0.004,-0.10573 -0.004,-0.10209 -0.0109,-0.10208 -0.0109,-0.0948 -0.0146,-0.0948 -0.0146,-0.0911 -0.0182,-0.0911 -0.0219,-0.0839 -0.0219,-0.0839 -0.0255,-0.0802 -0.0255,-0.0766 -0.0328,-0.0766 -0.0292,-0.0693 -0.0365,-0.0656 -0.0365,-0.0656 -0.0365,-0.0583 -0.0401,-0.0583 -0.0438,-0.0547 -0.0438,-0.0474 -0.0474,-0.0474 -0.051,-0.0438 -0.0474,-0.0365 -0.0547,-0.0365 -0.0547,-0.0328 -0.0547,-0.0255 -0.0583,-0.0219 -0.062,-0.0219 -0.062,-0.0146 -0.0656,-0.0109 -0.0656,-0.004 -0.0656,-0.004 c -0.63074,0 -0.96251,0.48855 -0.96251,0.96251 0,0.47396 0.30625,0.96251 0.96251,0.96251 0.29167,0 0.50677,-0.10938 0.68907,-0.25521 l 0.0401,-0.0365 c 0.0182,0 0.0328,0.0182 0.0328,0.27344 0,1.16303 -0.50677,2.26772 -1.30157,3.1245 -0.11667,0.10573 -0.1349,0.13125 -0.1349,0.19687 0,0.13125 0.0911,0.20053 0.1823,0.20053 0.21875,0 1.65522,-1.43647 1.65522,-3.5219 z"
       id="path5413"
       inkscape:connector-curvature="0"
       style="font-style:normal;font-variant:normal;font-weight:normal;font-stretch:normal;letter-spacing:normal;word-spacing:normal;text-anchor:start;fill:#000000;fill-opacity:1;fill-rule:evenodd;stroke:#000000;stroke-width:0;stroke-linecap:butt;stroke-linejoin:round;stroke-miterlimit:10.43299961;stroke-dasharray:none;stroke-dashoffset:0;stroke-opacity:1" />
    <g
       id="g1186"
       style="font-style:normal;font-variant:normal;font-weight:normal;font-stretch:normal;letter-spacing:normal;word-spacing:normal;text-anchor:start;fill:none;fill-opacity:1;fill-rule:evenodd;stroke:#000000;stroke-linecap:butt;stroke-linejoin:round;stroke-miterlimit:10.43299961;stroke-dasharray:none;stroke-dashoffset:0;stroke-opacity:1"
       transform="matrix(0.36458593,0,0,-0.36458593,-206.24645,322.29848)">
      <path
         style="fill:#000000;stroke-width:0;stroke-linecap:butt;stroke-linejoin:round"
         inkscape:connector-curvature="0"
         id="path5415"
         d="m 748.74,400.12 -0.04,-0.15 -0.03,-0.15 -0.04,-0.14 -0.03,-0.13 -0.03,-0.13 -0.04,-0.11 -0.03,-0.12 -0.04,-0.1 -0.03,-0.1 -0.04,-0.09 -0.05,-0.09 -0.04,-0.08 -0.05,-0.07 -0.06,-0.07 -0.05,-0.07 -0.07,-0.06 -0.06,-0.05 -0.08,-0.05 -0.08,-0.04 -0.08,-0.04 -0.1,-0.04 -0.1,-0.03 -0.11,-0.03 -0.11,-0.02 -0.13,-0.02 -0.07,-0.01 -0.07,-0.01 -0.07,-0.01 -0.07,-0.01 h -0.08 l -0.08,-0.01 h -0.08 l -0.08,-0.01 h -0.09 -0.09 -0.09 -0.1 l -0.1,-0.01 h -0.1 c -0.59,0 -1.14,0 -1.14,-0.93 0,-0.41 0.25,-0.61 0.64,-0.61 1.36,0 2.8,0.15 4.19,0.15 1.64,0 3.34,-0.15 4.94,-0.15 0.25,0 0.89,0 0.89,1 0,0.54 -0.5,0.54 -1.19,0.54 -2.5,0 -2.5,0.36 -2.5,0.8 0,0.61 2.09,8.72 2.45,9.97 0.64,-1.44 2.03,-3.19 4.58,-3.19 l -0.05,1.1 c -3.29,0 -3.93,4.14 -3.93,4.43 0,0.1 0,0.21 0.14,0.8 l 2.45,9.77 c 0.34,1.34 1.69,2.73 2.58,3.48 1.75,1.55 3.2,1.89 4.05,1.89 1.98,0 3.18,-1.73 3.18,-4.69 0,-2.93 -1.64,-8.65 -2.55,-10.56 -1.68,-3.48 -4.07,-5.12 -5.92,-5.12 l 0.05,-1.1 c 5.78,0 12,7.27 12,14.6 0,4.68 -2.83,7.96 -6.63,7.96 -2.48,0 -4.87,-1.78 -6.51,-3.73 -0.5,2.69 -2.64,3.73 -4.49,3.73 -2.29,0 -3.25,-1.93 -3.68,-2.82 -0.91,-1.71 -1.55,-4.69 -1.55,-4.85 0,-0.5 0.5,-0.5 0.6,-0.5 0.5,0 0.54,0.07 0.84,1.16 0.86,3.53 1.84,5.92 3.64,5.92 0.84,0 1.55,-0.39 1.55,-2.28 0,-1.16 -0.16,-1.7 -0.35,-2.55 z" />
      <path
         style="fill:#000000;stroke-width:0;stroke-linecap:butt;stroke-linejoin:round"
         inkscape:connector-curvature="0"
         id="path5417"
         d="m 775.85,400.95 -0.01,-0.04 -0.02,-0.05 -0.01,-0.04 -0.01,-0.05 -0.02,-0.05 -0.01,-0.06 -0.02,-0.05 -0.01,-0.05 -0.03,-0.11 -0.03,-0.11 -0.03,-0.12 -0.02,-0.1 -0.02,-0.06 -0.01,-0.05 -0.01,-0.05 -0.01,-0.05 -0.01,-0.05 -0.01,-0.04 -0.01,-0.05 -0.01,-0.04 -0.01,-0.03 v -0.04 l -0.01,-0.03 v -0.03 l -0.01,-0.02 v -0.02 -0.01 -0.01 -0.01 0 c 0,-0.77 0.62,-1.11 1.19,-1.11 0.62,0 1.17,0.45 1.35,0.76 0.18,0.32 0.46,1.43 0.63,2.16 0.17,0.66 0.55,2.27 0.77,3.14 0.2,0.77 0.42,1.53 0.59,2.33 0.37,1.44 0.45,1.7 1.45,3.14 0.99,1.39 2.63,3.2 5.24,3.2 2.01,0 2.04,-1.78 2.04,-2.44 0,-2.09 -1.48,-5.95 -2.04,-7.42 -0.39,-0.98 -0.53,-1.29 -0.53,-1.89 0,-1.84 1.54,-2.98 3.31,-2.98 3.48,0 5.01,4.79 5.01,5.33 0,0.45 -0.45,0.45 -0.54,0.45 -0.5,0 -0.53,-0.2 -0.68,-0.59 -0.79,-2.79 -2.29,-4.22 -3.68,-4.22 -0.74,0 -0.88,0.48 -0.88,1.22 0,0.79 0.17,1.25 0.8,2.82 0.42,1.08 1.86,4.77 1.86,6.72 0,3.39 -2.69,3.97 -4.53,3.97 -2.89,0 -4.85,-1.76 -5.89,-3.16 -0.25,2.4 -2.3,3.16 -3.74,3.16 -1.5,0 -2.29,-1.08 -2.75,-1.87 -0.76,-1.29 -1.25,-3.29 -1.25,-3.46 0,-0.45 0.49,-0.45 0.6,-0.45 0.48,0 0.51,0.11 0.76,1.05 0.52,2.06 1.19,3.76 2.55,3.76 0.9,0 1.14,-0.76 1.14,-1.7 0,-0.67 -0.31,-1.95 -0.56,-2.89 -0.24,-0.95 -0.58,-2.38 -0.77,-3.14 z" />
    </g>
    <path
       d="m 90.202017,169.66458 v -0.1349 l -0.004,-0.14218 -0.004,-0.14219 -0.004,-0.14948 -0.0146,-0.30626 -0.0219,-0.32083 -0.0292,-0.33542 -0.0401,-0.34636 -0.0474,-0.35365 -0.062,-0.36823 -0.0693,-0.37187 -0.0838,-0.37553 -0.0984,-0.38281 -0.11302,-0.38646 -0.12396,-0.39011 -0.14584,-0.39011 -0.0766,-0.19323 -0.0802,-0.19323 -0.0875,-0.19323 -0.0911,-0.19323 c -1.09011,-2.23127 -2.65054,-3.41253 -2.83283,-3.41253 -0.10573,0 -0.18229,0.0693 -0.18229,0.17865 0,0.0547 0,0.0911 0.34271,0.41928 1.78282,1.79376 2.81825,4.68493 2.81825,8.48391 0,3.10263 -0.67084,6.30005 -2.92763,8.58964 -0.23333,0.21511 -0.23333,0.25522 -0.23333,0.30626 0,0.10937 0.0766,0.18229 0.18229,0.18229 0.18229,0 1.81199,-1.23595 2.88752,-3.54013 0.92605,-1.99428 1.14116,-4.01044 1.14116,-5.53806 z"
       id="path5419"
       inkscape:connector-curvature="0"
       style="font-style:normal;font-variant:normal;font-weight:normal;font-stretch:normal;letter-spacing:normal;word-spacing:normal;text-anchor:start;fill:#000000;fill-opacity:1;fill-rule:evenodd;stroke:#000000;stroke-width:0;stroke-linecap:butt;stroke-linejoin:round;stroke-miterlimit:10.43299961;stroke-dasharray:none;stroke-dashoffset:0;stroke-opacity:1" />
  </g>
  <g
     style="stroke-linecap:butt;stroke-linejoin:round"
     id="g1367"
     transform="matrix(0.30451379,0,0,0.30451379,227.26417,40.245116)">
    <path
       inkscape:connector-curvature="0"
       d="m 626.00428,421.30027 h 392.83002 v -276.76 H 626.00428 Z"
       style="fill:#ffffff;stroke-width:1;stroke-linecap:butt;stroke-linejoin:round"
       id="path9" />
    <path
       transform="translate(578.28428,117.66026)"
       inkscape:connector-curvature="0"
       clip-path="url(#pcdba28b099)"
       d="M 47.72,303.64 H 440.55 V 26.88 H 47.72 Z"
       style="opacity:0.2;fill:#0000ff;stroke:#000000;stroke-linecap:butt;stroke-linejoin:miter"
       id="path12" />
    <path
       transform="translate(578.28428,117.66026)"
       inkscape:connector-curvature="0"
       clip-path="url(#pcdba28b099)"
       d="M 47.72,303.64 H 195.68597 V 199.39373 H 47.72 Z"
       style="fill:#ff0000;stroke:#000000;stroke-linecap:butt;stroke-linejoin:miter"
       id="path15" />
    <path
       transform="translate(578.28428,117.66026)"
       inkscape:connector-curvature="0"
       clip-path="url(#pcdba28b099)"
       d="M 47.72,199.39373 H 73.908662 V 168.86034 H 47.72 Z"
       style="fill:#ff0000;stroke:#000000;stroke-linecap:butt;stroke-linejoin:miter"
       id="path18-3" />
    <path
       transform="translate(578.28428,117.66026)"
       inkscape:connector-curvature="0"
       clip-path="url(#pcdba28b099)"
       d="M 195.68597,303.64 H 344.48233 V 240.29274 H 195.68597 Z"
       style="fill:#ff0000;stroke:#000000;stroke-linecap:butt;stroke-linejoin:miter"
       id="path21" />
    <path
       transform="translate(578.28428,117.66026)"
       inkscape:connector-curvature="0"
       clip-path="url(#pcdba28b099)"
       d="m 344.48233,303.64 h 67.08025 v -44.23289 h -67.08025 z"
       style="fill:#ff0000;stroke:#000000;stroke-linecap:butt;stroke-linejoin:miter"
       id="path24-6" />
    <path
       transform="translate(578.28428,117.66026)"
       inkscape:connector-curvature="0"
       clip-path="url(#pcdba28b099)"
       d="m 195.68597,240.29274 h 48.22629 v -13.25576 h -48.22629 z"
       style="fill:#ff0000;stroke:#000000;stroke-linecap:butt;stroke-linejoin:miter"
       id="path27" />
    <path
       transform="translate(578.28428,117.66026)"
       inkscape:connector-curvature="0"
       clip-path="url(#pcdba28b099)"
       d="M 195.68598,199.39373 H 440.55 V 26.88 H 195.68598 Z"
       style="fill:#008000;stroke:#000000;stroke-linecap:butt;stroke-linejoin:miter"
       id="path33" />
    <path
       transform="translate(578.28428,117.66026)"
       inkscape:connector-curvature="0"
       clip-path="url(#pcdba28b099)"
       d="M 73.908671,168.86033 H 195.68598 V 26.88 H 73.908671 Z"
       style="fill:#008000;stroke:#000000;stroke-linecap:butt;stroke-linejoin:miter"
       id="path36" />
    <path
       transform="translate(578.28428,117.66026)"
       inkscape:connector-curvature="0"
       clip-path="url(#pcdba28b099)"
       d="M 344.48233,240.29273 H 440.55 v -40.899 h -96.06767 z"
       style="fill:#008000;stroke:#000000;stroke-linecap:butt;stroke-linejoin:miter"
       id="path39" />
    <path
       transform="translate(578.28428,117.66026)"
       inkscape:connector-curvature="0"
       clip-path="url(#pcdba28b099)"
       d="M 411.56259,259.4071 H 440.55 v -19.11437 h -28.98741 z"
       style="fill:#008000;stroke:#000000;stroke-linecap:butt;stroke-linejoin:miter"
       id="path42" />
    <path
       transform="translate(578.28428,117.66026)"
       inkscape:connector-curvature="0"
       clip-path="url(#pcdba28b099)"
       d="M 243.91227,227.03698 H 344.48233 V 199.39373 H 243.91227 Z"
       style="fill:#008000;stroke:#000000;stroke-linecap:butt;stroke-linejoin:miter"
       id="path45" />
    <path
       style="stroke:#000000;stroke-width:0.60000002;stroke-linecap:butt;stroke-linejoin:round"
       id="use54"
       d="m 626.00428,421.30028 v 2.625"
       inkscape:connector-curvature="0" />
    <path
       style="stroke:#000000;stroke-width:0.60000002;stroke-linecap:butt;stroke-linejoin:round"
       id="use68"
       d="m 691.47596,421.30028 v 2.625"
       inkscape:connector-curvature="0" />
    <path
       style="stroke:#000000;stroke-width:0.60000002;stroke-linecap:butt;stroke-linejoin:round"
       id="use84"
       d="m 756.94761,421.30028 v 2.625"
       inkscape:connector-curvature="0" />
    <path
       style="stroke:#000000;stroke-width:0.60000002;stroke-linecap:butt;stroke-linejoin:round"
       id="use102"
       d="m 822.41928,421.30028 v 2.625"
       inkscape:connector-curvature="0" />
    <path
       style="stroke:#000000;stroke-width:0.60000002;stroke-linecap:butt;stroke-linejoin:round"
       id="use117"
       d="m 887.89095,421.30028 v 2.625"
       inkscape:connector-curvature="0" />
    <path
       style="stroke:#000000;stroke-width:0.60000002;stroke-linecap:butt;stroke-linejoin:round"
       id="use135"
       d="m 953.36263,421.30028 v 2.625"
       inkscape:connector-curvature="0" />
    <path
       style="stroke:#000000;stroke-width:0.60000002;stroke-linecap:butt;stroke-linejoin:round"
       id="use150"
       d="m 1018.8343,421.30028 v 2.625"
       inkscape:connector-curvature="0" />
    <path
       style="stroke:#000000;stroke-width:0.60000002;stroke-linecap:butt;stroke-linejoin:round"
       id="use182"
       d="m 626.00428,421.30028 h -2.625"
       inkscape:connector-curvature="0" />
    <path
       style="stroke:#000000;stroke-width:0.60000002;stroke-linecap:butt;stroke-linejoin:round"
       id="use200"
       d="m 626.00428,365.94826 h -2.625"
       inkscape:connector-curvature="0" />
    <path
       style="stroke:#000000;stroke-width:0.60000002;stroke-linecap:butt;stroke-linejoin:round"
       id="use215"
       d="m 626.00428,310.59627 h -2.625"
       inkscape:connector-curvature="0" />
    <path
       style="stroke:#000000;stroke-width:0.60000002;stroke-linecap:butt;stroke-linejoin:round"
       id="use233"
       d="m 626.00428,255.24427 h -2.625"
       inkscape:connector-curvature="0" />
    <path
       style="stroke:#000000;stroke-width:0.60000002;stroke-linecap:butt;stroke-linejoin:round"
       id="use251"
       d="m 626.00428,199.89226 h -2.625"
       inkscape:connector-curvature="0" />
    <path
       style="stroke:#000000;stroke-width:0.60000002;stroke-linecap:butt;stroke-linejoin:round"
       id="use269"
       d="m 626.00428,144.54026 h -2.625"
       inkscape:connector-curvature="0" />
    <path
       inkscape:connector-curvature="0"
       d="m 626.00428,421.30027 v -276.76"
       style="fill:none;stroke:#000000;stroke-width:0.80000001;stroke-linecap:square;stroke-linejoin:miter"
       id="path292" />
    <path
       inkscape:connector-curvature="0"
       d="m 1018.8343,421.30027 v -276.76"
       style="fill:none;stroke:#000000;stroke-width:0.80000001;stroke-linecap:square;stroke-linejoin:miter"
       id="path295" />
    <path
       inkscape:connector-curvature="0"
       d="M 626.00428,421.30027 H 1018.8343"
       style="fill:none;stroke:#000000;stroke-width:0.80000001;stroke-linecap:square;stroke-linejoin:miter"
       id="path298" />
    <path
       inkscape:connector-curvature="0"
       d="M 626.00428,144.54027 H 1018.8343"
       style="fill:none;stroke:#000000;stroke-width:0.80000001;stroke-linecap:square;stroke-linejoin:miter"
       id="path301" />
  </g>
  <path
     style="fill:none;stroke:#000000;stroke-width:0.75px;stroke-linecap:butt;stroke-linejoin:miter;stroke-opacity:1;marker-end:url(#Arrow1Lend-2-5-7-9)"
     d="m 357.58357,134.44982 c 16.24128,0 32.48255,0 48.72383,0"
     id="path994-0-0-3"
     inkscape:connector-curvature="0"
     sodipodi:nodetypes="cc" />
  <path
     style="fill:none;stroke:#000000;stroke-width:0.75px;stroke-linecap:butt;stroke-linejoin:miter;stroke-opacity:1;marker-end:url(#Arrow1Lend-2-5-7-6)"
     d="M 291.27385,262.09687 V 229.70954"
     id="path994-0-0-2"
     inkscape:connector-curvature="0"
     sodipodi:nodetypes="cc" />
  <g
     style="stroke-linecap:butt;stroke-linejoin:round"
     transform="translate(158.43156,-172.61152)"
     id="g3813">
    <g
       id="g3781"
       transform="matrix(0.85,0,0,0.85,10.340954,49.632033)"
       style="stroke-linecap:butt;stroke-linejoin:round">
      <g
         transform="translate(21.160408,-63.994787)"
         id="g1985-3"
         style="stroke-linecap:butt;stroke-linejoin:round">
        <rect
           style="opacity:1;fill:none;fill-opacity:0.86976743;stroke:#000000;stroke-width:0.77230453;stroke-linecap:square;stroke-linejoin:miter;stroke-miterlimit:0;stroke-dasharray:none;stroke-dashoffset:0;stroke-opacity:1;paint-order:fill markers stroke"
           id="rect1153-1"
           width="27"
           height="26.99999"
           x="6.5069799"
           y="381.375"
           ry="2.2522664" />
        <g
           id="g1882-9"
           transform="translate(-67.867433,82.684807)"
           style="stroke-linecap:butt;stroke-linejoin:round">
          <path
             style="font-style:normal;font-variant:normal;font-weight:normal;font-stretch:normal;letter-spacing:normal;word-spacing:normal;text-anchor:start;fill:#000000;fill-opacity:1;fill-rule:evenodd;stroke:#000000;stroke-width:0;stroke-linecap:butt;stroke-linejoin:round;stroke-miterlimit:10.43299961;stroke-dasharray:none;stroke-dashoffset:0;stroke-opacity:1"
             inkscape:connector-curvature="0"
             d="m 81.893293,311.65151 0.138543,-0.0474 0.134896,-0.0547 0.131251,-0.0547 0.131251,-0.062 0.127605,-0.0656 0.120314,-0.0693 0.120313,-0.0729 0.120313,-0.0802 0.113022,-0.0802 0.109376,-0.0838 0.10573,-0.0875 0.102084,-0.0911 0.102084,-0.0948 0.09479,-0.0984 0.0875,-0.0984 0.0875,-0.10573 0.08385,-0.10573 0.07656,-0.10938 0.07292,-0.10937 0.06927,-0.11667 0.06198,-0.11667 0.05833,-0.11666 0.05469,-0.12032 0.0474,-0.12396 0.04375,-0.12396 0.03646,-0.12395 0.03281,-0.12761 0.02552,-0.13125 0.02187,-0.13125 0.01458,-0.13125 0.01094,-0.13125 0.0036,-0.1349 c 0,-1.48751 -1.604178,-2.50835 -3.346899,-2.50835 -1.833867,0 -3.212002,1.09376 -3.212002,2.47189 0,0.60157 0.397399,0.94792 0.929694,0.94792 0.557817,0 0.922403,-0.40104 0.922403,-0.92969 0,-0.90417 -0.853132,-0.90417 -1.122925,-0.90417 0.557816,-0.88959 1.76095,-1.13022 2.417205,-1.13022 0.740109,0 1.74272,0.40105 1.74272,2.03439 0,0.2224 -0.0401,1.27241 -0.514066,2.07449 -0.539587,0.87136 -1.163029,0.92241 -1.61147,0.94428 -0.14948,0.0182 -0.579691,0.051 -0.710942,0.051 -0.142189,0.0182 -0.27344,0.0365 -0.27344,0.21876 0,0.19687 0.131251,0.19687 0.437503,0.19687 h 0.798444 c 1.491156,0 2.16564,1.23595 2.16564,3.02242 0,2.4646 -1.254176,2.99325 -2.05991,2.99325 -0.780214,0 -2.14012,-0.30625 -2.770853,-1.37814 0.630733,0.0875 1.195841,-0.31354 1.195841,-1.00261 0,-0.65261 -0.492191,-1.01355 -1.02084,-1.01355 -0.433858,0 -1.013549,0.25157 -1.013549,1.05366 0,1.65157 1.684387,2.84741 3.667734,2.84741 2.216683,0 3.868257,-1.65157 3.868257,-3.50002 0,-1.4948 -1.1448,-2.90575 -3.029709,-3.28857 z"
             id="path5771-9-4" />
          <path
             style="font-style:normal;font-variant:normal;font-weight:normal;font-stretch:normal;letter-spacing:normal;word-spacing:normal;text-anchor:start;fill:#000000;fill-opacity:1;fill-rule:evenodd;stroke:#000000;stroke-width:0;stroke-linecap:butt;stroke-linejoin:round;stroke-miterlimit:10.43299961;stroke-dasharray:none;stroke-dashoffset:0;stroke-opacity:1"
             inkscape:connector-curvature="0"
             d="m 89.206887,317.0802 v -0.0474 l -0.0036,-0.051 -0.0073,-0.0474 -0.0073,-0.0474 -0.01094,-0.0438 -0.01458,-0.0474 -0.01458,-0.0437 -0.01458,-0.0437 -0.02188,-0.0437 -0.02187,-0.0401 -0.02188,-0.0401 -0.02552,-0.0401 -0.02552,-0.0365 -0.02917,-0.0365 -0.02917,-0.0365 -0.03281,-0.0328 -0.03281,-0.0328 -0.03646,-0.0292 -0.03646,-0.0292 -0.03646,-0.0255 -0.0401,-0.0255 -0.04011,-0.0255 -0.0401,-0.0219 -0.04375,-0.0182 -0.04375,-0.0182 -0.04375,-0.0146 -0.0474,-0.0146 -0.0474,-0.0109 -0.0474,-0.007 -0.0474,-0.007 -0.0474,-0.004 h -0.05104 c -0.521358,0 -0.962507,0.4375 -0.962507,0.96251 0,0.525 0.441149,0.96251 0.962507,0.96251 0.532295,0 0.962507,-0.43751 0.962507,-0.96251 z"
             id="path5773-3-7" />
          <path
             style="font-style:normal;font-variant:normal;font-weight:normal;font-stretch:normal;letter-spacing:normal;word-spacing:normal;text-anchor:start;fill:#000000;fill-opacity:1;fill-rule:evenodd;stroke:#000000;stroke-width:0;stroke-linecap:butt;stroke-linejoin:round;stroke-miterlimit:10.43299961;stroke-dasharray:none;stroke-dashoffset:0;stroke-opacity:1"
             inkscape:connector-curvature="0"
             d="m 96.090269,306.41606 v -0.0182 -0.0219 -0.0182 -0.0182 -0.0182 -0.0182 -0.0146 -0.0182 -0.0146 l -0.0036,-0.0146 v -0.0146 -0.0146 -0.0146 -0.0109 l -0.0036,-0.0146 v -0.0109 l -0.0036,-0.0255 -0.0036,-0.0219 -0.0036,-0.0182 -0.0036,-0.0182 -0.0073,-0.0182 -0.0073,-0.0146 -0.0073,-0.0146 -0.0073,-0.0109 -0.01094,-0.0109 -0.01094,-0.0109 -0.01458,-0.0109 -0.01458,-0.007 -0.01458,-0.007 -0.01094,-0.004 -0.0073,-0.004 h -0.01094 l -0.0073,-0.004 -0.01094,-0.004 h -0.01094 l -0.01094,-0.004 h -0.01458 l -0.01094,-0.004 h -0.01094 -0.01458 l -0.01458,-0.004 h -0.01458 -0.01458 -0.01458 -0.01458 -0.01458 l -0.01823,-0.004 h -0.01823 -0.01823 -0.01823 -0.01823 c -1.130216,1.16303 -2.723457,1.16303 -3.303148,1.16303 v 0.56511 c 0.364586,0 1.432822,0 2.373454,-0.47397 v 9.40997 c 0,0.65625 -0.05104,0.87136 -1.684387,0.87136 h -0.583337 v 0.56511 c 0.638025,-0.0583 2.216682,-0.0583 2.938562,-0.0583 0.729172,0 2.307829,0 2.945854,0.0583 v -0.56511 h -0.579691 c -1.636991,0 -1.691679,-0.19688 -1.691679,-0.87136 z"
             id="path5775-6-8" />
        </g>
      </g>
      <g
         style="stroke-linecap:butt;stroke-linejoin:round"
         transform="translate(2.645537,-63.994787)"
         id="g1992-4">
        <rect
           style="opacity:1;fill:none;fill-opacity:0.86976743;stroke:#000000;stroke-width:0.77230453;stroke-linecap:square;stroke-linejoin:miter;stroke-miterlimit:0;stroke-dasharray:none;stroke-dashoffset:0;stroke-opacity:1;paint-order:fill markers stroke"
           id="rect1153-3-5"
           width="27"
           height="26.99999"
           x="52.794155"
           y="381.375"
           ry="2.2522664" />
        <g
           id="g1887-03"
           transform="translate(-55.19513,77.794482)"
           style="stroke-linecap:butt;stroke-linejoin:round">
          <path
             style="font-style:normal;font-variant:normal;font-weight:normal;font-stretch:normal;letter-spacing:normal;word-spacing:normal;text-anchor:start;fill:#000000;fill-opacity:1;fill-rule:evenodd;stroke:#000000;stroke-width:0;stroke-linecap:butt;stroke-linejoin:round;stroke-miterlimit:10.43299961;stroke-dasharray:none;stroke-dashoffset:0;stroke-opacity:1"
             inkscape:connector-curvature="0"
             d="m 114.40342,317.0802 v -0.0474 l -0.004,-0.051 -0.007,-0.0474 -0.007,-0.0474 -0.0109,-0.0438 -0.0146,-0.0474 -0.0146,-0.0437 -0.0182,-0.0437 -0.0182,-0.0437 -0.0219,-0.0401 -0.0219,-0.0401 -0.0255,-0.0401 -0.0255,-0.0365 -0.0292,-0.0365 -0.0292,-0.0365 -0.0328,-0.0328 -0.0328,-0.0328 -0.0365,-0.0292 -0.0365,-0.0292 -0.0365,-0.0255 -0.0401,-0.0255 -0.0401,-0.0255 -0.0401,-0.0219 -0.0438,-0.0182 -0.0438,-0.0182 -0.0438,-0.0146 -0.0474,-0.0146 -0.0474,-0.0109 -0.0474,-0.007 -0.0474,-0.007 -0.0474,-0.004 h -0.0511 c -0.525,0 -0.9625,0.4375 -0.9625,0.96251 0,0.525 0.4375,0.96251 0.9625,0.96251 0.5323,0 0.96251,-0.43751 0.96251,-0.96251 z"
             id="path5779-6-6" />
          <path
             style="font-style:normal;font-variant:normal;font-weight:normal;font-stretch:normal;letter-spacing:normal;word-spacing:normal;text-anchor:start;fill:#000000;fill-opacity:1;fill-rule:evenodd;stroke:#000000;stroke-width:0;stroke-linecap:butt;stroke-linejoin:round;stroke-miterlimit:10.43299961;stroke-dasharray:none;stroke-dashoffset:0;stroke-opacity:1"
             inkscape:connector-curvature="0"
             d="m 122.45348,317.0802 v -0.0474 l -0.004,-0.051 -0.007,-0.0474 -0.007,-0.0474 -0.0109,-0.0438 -0.0146,-0.0474 -0.0146,-0.0437 -0.0182,-0.0437 -0.0182,-0.0437 -0.0219,-0.0401 -0.0219,-0.0401 -0.0255,-0.0401 -0.0255,-0.0365 -0.0292,-0.0365 -0.0328,-0.0365 -0.0292,-0.0328 -0.0365,-0.0328 -0.0328,-0.0292 -0.0365,-0.0292 -0.0401,-0.0255 -0.0365,-0.0255 -0.0401,-0.0255 -0.0438,-0.0219 -0.0401,-0.0182 -0.0438,-0.0182 -0.0474,-0.0146 -0.0438,-0.0146 -0.0474,-0.0109 -0.0474,-0.007 -0.0474,-0.007 -0.0474,-0.004 h -0.051 c -0.525,0 -0.96251,0.4375 -0.96251,0.96251 0,0.525 0.43751,0.96251 0.96251,0.96251 0.52865,0 0.96251,-0.43751 0.96251,-0.96251 z"
             id="path5781-2-1" />
          <path
             style="font-style:normal;font-variant:normal;font-weight:normal;font-stretch:normal;letter-spacing:normal;word-spacing:normal;text-anchor:start;fill:#000000;fill-opacity:1;fill-rule:evenodd;stroke:#000000;stroke-width:0;stroke-linecap:butt;stroke-linejoin:round;stroke-miterlimit:10.43299961;stroke-dasharray:none;stroke-dashoffset:0;stroke-opacity:1"
             inkscape:connector-curvature="0"
             d="m 130.49989,317.0802 v -0.0474 l -0.004,-0.051 -0.007,-0.0474 -0.007,-0.0474 -0.0109,-0.0438 -0.0109,-0.0474 -0.0182,-0.0437 -0.0146,-0.0437 -0.0219,-0.0437 -0.0182,-0.0401 -0.0255,-0.0401 -0.0255,-0.0401 -0.0255,-0.0365 -0.0292,-0.0365 -0.0292,-0.0365 -0.0328,-0.0328 -0.0328,-0.0328 -0.0365,-0.0292 -0.0365,-0.0292 -0.0365,-0.0255 -0.0401,-0.0255 -0.0401,-0.0255 -0.0401,-0.0219 -0.0437,-0.0182 -0.0438,-0.0182 -0.0437,-0.0146 -0.0474,-0.0146 -0.0437,-0.0109 -0.0474,-0.007 -0.051,-0.007 -0.0474,-0.004 h -0.0474 c -0.52501,0 -0.96615,0.4375 -0.96615,0.96251 0,0.525 0.44114,0.96251 0.96615,0.96251 0.52865,0 0.95886,-0.43751 0.95886,-0.96251 z"
             id="path5783-6-0" />
        </g>
      </g>
      <g
         style="stroke-linecap:butt;stroke-linejoin:round"
         transform="translate(-15.869333,-63.994787)"
         id="g1999-6">
        <rect
           style="opacity:1;fill:none;fill-opacity:0.86976743;stroke:#000000;stroke-width:0.77230453;stroke-linecap:square;stroke-linejoin:miter;stroke-miterlimit:0;stroke-dasharray:none;stroke-dashoffset:0;stroke-opacity:1;paint-order:fill markers stroke"
           id="rect1153-6-3"
           width="27"
           height="26.99999"
           x="99.081329"
           y="381.375"
           ry="2.2522664" />
        <g
           id="g1892-2"
           transform="translate(-42.770526,82.980872)"
           style="stroke-linecap:butt;stroke-linejoin:round">
          <path
             style="font-style:normal;font-variant:normal;font-weight:normal;font-stretch:normal;letter-spacing:normal;word-spacing:normal;text-anchor:start;fill:#000000;fill-opacity:1;fill-rule:evenodd;stroke:#000000;stroke-width:0;stroke-linecap:butt;stroke-linejoin:round;stroke-miterlimit:10.43299961;stroke-dasharray:none;stroke-dashoffset:0;stroke-opacity:1"
             inkscape:connector-curvature="0"
             d="m 148.5396,306.41606 v -0.0182 -0.0219 -0.0182 -0.0182 -0.0182 -0.0182 -0.0146 -0.0182 l -0.004,-0.0146 v -0.0146 -0.0146 -0.0146 -0.0146 -0.0109 l -0.004,-0.0146 v -0.0109 l -0.004,-0.0255 -0.004,-0.0219 -0.004,-0.0182 -0.004,-0.0182 -0.007,-0.0182 -0.007,-0.0146 -0.007,-0.0146 -0.007,-0.0109 -0.0109,-0.0109 -0.0109,-0.0109 -0.0146,-0.0109 -0.0146,-0.007 -0.0146,-0.007 -0.0109,-0.004 -0.007,-0.004 h -0.0109 l -0.0109,-0.004 -0.007,-0.004 h -0.0109 l -0.0109,-0.004 h -0.0146 l -0.0109,-0.004 h -0.0109 -0.0146 l -0.0146,-0.004 h -0.0146 -0.0146 -0.0146 -0.0146 -0.0182 l -0.0146,-0.004 h -0.0182 -0.0182 -0.0182 -0.0182 c -1.13021,1.16303 -2.72345,1.16303 -3.30679,1.16303 v 0.56511 c 0.36458,0 1.43647,0 2.3771,-0.47397 v 9.40997 c 0,0.65625 -0.051,0.87136 -1.68439,0.87136 h -0.58334 v 0.56511 c 0.63803,-0.0583 2.21669,-0.0583 2.93857,-0.0583 0.72917,0 2.30783,0 2.94585,0.0583 v -0.56511 h -0.57969 c -1.63699,0 -1.69168,-0.19688 -1.69168,-0.87136 z"
             id="path5787-8-0" />
          <path
             style="font-style:normal;font-variant:normal;font-weight:normal;font-stretch:normal;letter-spacing:normal;word-spacing:normal;text-anchor:start;fill:#000000;fill-opacity:1;fill-rule:evenodd;stroke:#000000;stroke-width:0;stroke-linecap:butt;stroke-linejoin:round;stroke-miterlimit:10.43299961;stroke-dasharray:none;stroke-dashoffset:0;stroke-opacity:1"
             inkscape:connector-curvature="0"
             d="m 155.78757,317.0802 -0.004,-0.0474 -0.004,-0.051 -0.004,-0.0474 -0.0109,-0.0474 -0.0109,-0.0438 -0.0109,-0.0474 -0.0146,-0.0437 -0.0182,-0.0437 -0.0182,-0.0437 -0.0219,-0.0401 -0.0255,-0.0401 -0.0255,-0.0401 -0.0255,-0.0365 -0.0292,-0.0365 -0.0292,-0.0365 -0.0328,-0.0328 -0.0328,-0.0328 -0.0365,-0.0292 -0.0365,-0.0292 -0.0365,-0.0255 -0.0401,-0.0255 -0.0401,-0.0255 -0.0401,-0.0219 -0.0437,-0.0182 -0.0438,-0.0182 -0.0437,-0.0146 -0.0474,-0.0146 -0.0437,-0.0109 -0.0474,-0.007 -0.0474,-0.007 -0.051,-0.004 h -0.0474 c -0.525,0 -0.9625,0.4375 -0.9625,0.96251 0,0.525 0.4375,0.96251 0.9625,0.96251 0.52865,0 0.96251,-0.43751 0.96251,-0.96251 z"
             id="path5789-7-6" />
          <path
             style="font-style:normal;font-variant:normal;font-weight:normal;font-stretch:normal;letter-spacing:normal;word-spacing:normal;text-anchor:start;fill:#000000;fill-opacity:1;fill-rule:evenodd;stroke:#000000;stroke-width:0;stroke-linecap:butt;stroke-linejoin:round;stroke-miterlimit:10.43299961;stroke-dasharray:none;stroke-dashoffset:0;stroke-opacity:1"
             inkscape:connector-curvature="0"
             d="m 162.66731,315.04581 v 1.57866 c 0,0.65625 -0.0328,0.85313 -1.37814,0.85313 h -0.38281 v 0.56511 c 0.7474,-0.0583 1.69532,-0.0583 2.4573,-0.0583 0.76199,0 1.7245,0 2.46461,0.0583 v -0.56511 h -0.37917 c -1.34533,0 -1.37814,-0.19688 -1.37814,-0.85313 v -1.57866 h 1.81564 v -0.56146 h -1.81564 v -8.26881 c 0,-0.36459 0,-0.47032 -0.29167,-0.47032 -0.16406,0 -0.21875,0 -0.36458,0.2224 l -5.57817,8.51673 h 0.51407 l 4.43336,-6.77401 v 6.77401 h -4.43336 -0.51407 v 0.56146 z"
             id="path5791-9-1" />
        </g>
      </g>
    </g>
    <g
       id="g2011-5"
       transform="translate(20.359753,-44.494787)"
       style="stroke-linecap:butt;stroke-linejoin:round">
      <g
         style="stroke-linecap:butt;stroke-linejoin:round"
         transform="translate(1.1186804,-2.32255)"
         id="g1978-5">
        <path
           d="m 12.763484,359.66146 -0.01035,0.0517 -0.0138,0.0517 -0.01035,0.0483 -0.01035,0.0448 -0.01379,0.0448 -0.01035,0.0379 -0.0138,0.0414 -0.01035,0.0345 -0.0138,0.0345 -0.01379,0.031 -0.0138,0.031 -0.01724,0.0276 -0.01724,0.0241 -0.01724,0.0241 -0.02069,0.0241 -0.02069,0.0207 -0.02414,0.0172 -0.02414,0.0172 -0.02759,0.0138 -0.03104,0.0138 -0.03104,0.0138 -0.03449,0.0103 -0.03794,0.0103 -0.04138,0.007 -0.04483,0.007 -0.02069,0.003 -0.02414,0.003 -0.02414,0.003 -0.02759,0.003 h -0.02414 l -0.02759,0.003 h -0.02759 l -0.03104,0.003 h -0.02759 -0.03104 -0.03449 -0.03104 l -0.03449,0.003 h -0.03449 c -0.20692,0 -0.393148,0 -0.393148,0.32073 0,0.1414 0.08622,0.21037 0.220715,0.21037 0.469018,0 0.962178,-0.0517 1.441543,-0.0517 0.565581,0 1.155303,0.0517 1.703642,0.0517 0.08622,0 0.306931,0 0.306931,-0.34487 0,-0.18623 -0.172433,-0.18623 -0.410391,-0.18623 -0.862167,0 -0.862167,-0.12415 -0.862167,-0.27589 0,-0.21037 0.72422,-3.00724 0.848372,-3.43832 0.220715,0.49661 0.700079,1.10012 1.57949,1.10012 l -0.01724,-0.37935 c -1.13806,0 -1.358775,-1.42775 -1.358775,-1.52776 0,-0.0345 0,-0.0724 0.04828,-0.27589 l 0.848372,-3.36935 c 0.117255,-0.46212 0.579376,-0.94149 0.886307,-1.20014 0.603517,-0.53454 1.107023,-0.65179 1.396711,-0.65179 0.682836,0 1.100125,0.59661 1.100125,1.61742 0,1.01046 -0.565582,2.9831 -0.87941,3.64179 -0.582825,1.20014 -1.407057,1.76572 -2.041612,1.76572 l 0.01724,0.37935 c 1.99333,0 4.138401,-2.50718 4.138401,-5.03505 0,-1.61398 -0.975973,-2.74514 -2.286467,-2.74514 -0.855269,0 -1.679501,0.61386 -2.245082,1.28635 -0.172434,-0.92769 -0.913897,-1.28635 -1.548452,-1.28635 -0.793194,0 -1.120817,0.66559 -1.272559,0.97252 -0.31038,0.58973 -0.531094,1.61743 -0.531094,1.67261 0,0.17243 0.172433,0.17243 0.203471,0.17243 0.172433,0 0.189677,-0.0241 0.289688,-0.40004 0.296585,-1.21738 0.638004,-2.04161 1.255315,-2.04161 0.293137,0 0.534544,0.13449 0.534544,0.78629 0,0.40005 -0.05173,0.58627 -0.117255,0.87941 z"
           id="path3684-4"
           inkscape:connector-curvature="0"
           style="font-style:normal;font-variant:normal;font-weight:normal;font-stretch:normal;letter-spacing:normal;word-spacing:normal;text-anchor:start;fill:#000000;fill-opacity:1;fill-rule:evenodd;stroke:#000000;stroke-width:0;stroke-linecap:butt;stroke-linejoin:round;stroke-miterlimit:10.43299961;stroke-dasharray:none;stroke-dashoffset:0;stroke-opacity:1" />
        <path
           d="m 24.668285,352.48823 v -0.0138 -0.0138 -0.0172 -0.0138 -0.0103 -0.0138 -0.0138 -0.0103 -0.0138 -0.0103 l -0.0034,-0.0104 v -0.0103 -0.0104 -0.0103 l -0.0034,-0.0104 v -0.007 l -0.0034,-0.0103 v -0.007 l -0.0034,-0.0104 v -0.007 l -0.0034,-0.0138 -0.0069,-0.0138 -0.0069,-0.0103 -0.0034,-0.0104 -0.01035,-0.0103 -0.0069,-0.0104 -0.01035,-0.007 -0.01035,-0.007 -0.01035,-0.007 -0.01379,-0.003 -0.01379,-0.003 -0.0138,-0.007 h -0.01035 -0.0069 l -0.01035,-0.003 h -0.0069 l -0.01035,-0.003 h -0.01035 -0.01035 -0.01035 -0.01035 l -0.0138,-0.003 h -0.01035 -0.01379 -0.01035 -0.0138 -0.01379 -0.01379 -0.0138 -0.01379 -0.01724 -0.0138 c -0.772501,0.75871 -1.858831,0.76905 -2.35544,0.76905 v 0.43109 c 0.289688,0 1.082882,0 1.741578,-0.33452 v 6.12828 c 0,0.40004 0,0.55523 -1.203585,0.55523 H 22.0404 v 0.43109 c 0.213817,-0.0103 1.689847,-0.0483 2.138174,-0.0483 0.372456,0 1.886421,0.0379 2.151969,0.0483 v -0.43109 H 25.87187 c -1.203585,0 -1.203585,-0.15519 -1.203585,-0.55523 z"
           id="path3686-7"
           inkscape:connector-curvature="0"
           style="font-style:normal;font-variant:normal;font-weight:normal;font-stretch:normal;letter-spacing:normal;word-spacing:normal;text-anchor:start;fill:#000000;fill-opacity:1;fill-rule:evenodd;stroke:#000000;stroke-width:0;stroke-linecap:butt;stroke-linejoin:round;stroke-miterlimit:10.43299961;stroke-dasharray:none;stroke-dashoffset:0;stroke-opacity:1" />
      </g>
      <g
         id="g1186-7-6"
         style="font-style:normal;font-variant:normal;font-weight:normal;font-stretch:normal;letter-spacing:normal;word-spacing:normal;text-anchor:start;fill:none;fill-opacity:1;fill-rule:evenodd;stroke:#000000;stroke-linecap:butt;stroke-linejoin:round;stroke-miterlimit:10.43299961;stroke-dasharray:none;stroke-dashoffset:0;stroke-opacity:1"
         transform="matrix(0.36458593,0,0,-0.36458593,-205.07567,503.45522)">
        <path
           d="m 748.74,400.12 -0.04,-0.15 -0.03,-0.15 -0.04,-0.14 -0.03,-0.13 -0.03,-0.13 -0.04,-0.11 -0.03,-0.12 -0.04,-0.1 -0.03,-0.1 -0.04,-0.09 -0.05,-0.09 -0.04,-0.08 -0.05,-0.07 -0.06,-0.07 -0.05,-0.07 -0.07,-0.06 -0.06,-0.05 -0.08,-0.05 -0.08,-0.04 -0.08,-0.04 -0.1,-0.04 -0.1,-0.03 -0.11,-0.03 -0.11,-0.02 -0.13,-0.02 -0.07,-0.01 -0.07,-0.01 -0.07,-0.01 -0.07,-0.01 h -0.08 l -0.08,-0.01 h -0.08 l -0.08,-0.01 h -0.09 -0.09 -0.09 -0.1 l -0.1,-0.01 h -0.1 c -0.59,0 -1.14,0 -1.14,-0.93 0,-0.41 0.25,-0.61 0.64,-0.61 1.36,0 2.8,0.15 4.19,0.15 1.64,0 3.34,-0.15 4.94,-0.15 0.25,0 0.89,0 0.89,1 0,0.54 -0.5,0.54 -1.19,0.54 -2.5,0 -2.5,0.36 -2.5,0.8 0,0.61 2.09,8.72 2.45,9.97 0.64,-1.44 2.03,-3.19 4.58,-3.19 l -0.05,1.1 c -3.29,0 -3.93,4.14 -3.93,4.43 0,0.1 0,0.21 0.14,0.8 l 2.45,9.77 c 0.34,1.34 1.69,2.73 2.58,3.48 1.75,1.55 3.2,1.89 4.05,1.89 1.98,0 3.18,-1.73 3.18,-4.69 0,-2.93 -1.64,-8.65 -2.55,-10.56 -1.68,-3.48 -4.07,-5.12 -5.92,-5.12 l 0.05,-1.1 c 5.78,0 12,7.27 12,14.6 0,4.68 -2.83,7.96 -6.63,7.96 -2.48,0 -4.87,-1.78 -6.51,-3.73 -0.5,2.69 -2.64,3.73 -4.49,3.73 -2.29,0 -3.25,-1.93 -3.68,-2.82 -0.91,-1.71 -1.55,-4.69 -1.55,-4.85 0,-0.5 0.5,-0.5 0.6,-0.5 0.5,0 0.54,0.07 0.84,1.16 0.86,3.53 1.84,5.92 3.64,5.92 0.84,0 1.55,-0.39 1.55,-2.28 0,-1.16 -0.16,-1.7 -0.35,-2.55 z"
           id="path5415-5-5"
           inkscape:connector-curvature="0"
           style="fill:#000000;stroke-width:0;stroke-linecap:butt;stroke-linejoin:round" />
        <path
           d="m 775.85,400.95 -0.01,-0.04 -0.02,-0.05 -0.01,-0.04 -0.01,-0.05 -0.02,-0.05 -0.01,-0.06 -0.02,-0.05 -0.01,-0.05 -0.03,-0.11 -0.03,-0.11 -0.03,-0.12 -0.02,-0.1 -0.02,-0.06 -0.01,-0.05 -0.01,-0.05 -0.01,-0.05 -0.01,-0.05 -0.01,-0.04 -0.01,-0.05 -0.01,-0.04 -0.01,-0.03 v -0.04 l -0.01,-0.03 v -0.03 l -0.01,-0.02 v -0.02 -0.01 -0.01 -0.01 0 c 0,-0.77 0.62,-1.11 1.19,-1.11 0.62,0 1.17,0.45 1.35,0.76 0.18,0.32 0.46,1.43 0.63,2.16 0.17,0.66 0.55,2.27 0.77,3.14 0.2,0.77 0.42,1.53 0.59,2.33 0.37,1.44 0.45,1.7 1.45,3.14 0.99,1.39 2.63,3.2 5.24,3.2 2.01,0 2.04,-1.78 2.04,-2.44 0,-2.09 -1.48,-5.95 -2.04,-7.42 -0.39,-0.98 -0.53,-1.29 -0.53,-1.89 0,-1.84 1.54,-2.98 3.31,-2.98 3.48,0 5.01,4.79 5.01,5.33 0,0.45 -0.45,0.45 -0.54,0.45 -0.5,0 -0.53,-0.2 -0.68,-0.59 -0.79,-2.79 -2.29,-4.22 -3.68,-4.22 -0.74,0 -0.88,0.48 -0.88,1.22 0,0.79 0.17,1.25 0.8,2.82 0.42,1.08 1.86,4.77 1.86,6.72 0,3.39 -2.69,3.97 -4.53,3.97 -2.89,0 -4.85,-1.76 -5.89,-3.16 -0.25,2.4 -2.3,3.16 -3.74,3.16 -1.5,0 -2.29,-1.08 -2.75,-1.87 -0.76,-1.29 -1.25,-3.29 -1.25,-3.46 0,-0.45 0.49,-0.45 0.6,-0.45 0.48,0 0.51,0.11 0.76,1.05 0.52,2.06 1.19,3.76 2.55,3.76 0.9,0 1.14,-0.76 1.14,-1.7 0,-0.67 -0.31,-1.95 -0.56,-2.89 -0.24,-0.95 -0.58,-2.38 -0.77,-3.14 z"
           id="path5417-3-6"
           inkscape:connector-curvature="0"
           style="fill:#000000;stroke-width:0;stroke-linecap:butt;stroke-linejoin:round" />
      </g>
      <g
         style="stroke-linecap:butt;stroke-linejoin:round"
         transform="translate(-73.710001,36.03041)"
         id="g1887-0-9">
        <path
           id="path5779-6-2-3"
           d="m 114.40342,317.0802 v -0.0474 l -0.004,-0.051 -0.007,-0.0474 -0.007,-0.0474 -0.0109,-0.0438 -0.0146,-0.0474 -0.0146,-0.0437 -0.0182,-0.0437 -0.0182,-0.0437 -0.0219,-0.0401 -0.0219,-0.0401 -0.0255,-0.0401 -0.0255,-0.0365 -0.0292,-0.0365 -0.0292,-0.0365 -0.0328,-0.0328 -0.0328,-0.0328 -0.0365,-0.0292 -0.0365,-0.0292 -0.0365,-0.0255 -0.0401,-0.0255 -0.0401,-0.0255 -0.0401,-0.0219 -0.0438,-0.0182 -0.0438,-0.0182 -0.0438,-0.0146 -0.0474,-0.0146 -0.0474,-0.0109 -0.0474,-0.007 -0.0474,-0.007 -0.0474,-0.004 h -0.0511 c -0.525,0 -0.9625,0.4375 -0.9625,0.96251 0,0.525 0.4375,0.96251 0.9625,0.96251 0.5323,0 0.96251,-0.43751 0.96251,-0.96251 z"
           inkscape:connector-curvature="0"
           style="font-style:normal;font-variant:normal;font-weight:normal;font-stretch:normal;letter-spacing:normal;word-spacing:normal;text-anchor:start;fill:#000000;fill-opacity:1;fill-rule:evenodd;stroke:#000000;stroke-width:0;stroke-linecap:butt;stroke-linejoin:round;stroke-miterlimit:10.43299961;stroke-dasharray:none;stroke-dashoffset:0;stroke-opacity:1" />
        <path
           id="path5781-2-3-7"
           d="m 122.45348,317.0802 v -0.0474 l -0.004,-0.051 -0.007,-0.0474 -0.007,-0.0474 -0.0109,-0.0438 -0.0146,-0.0474 -0.0146,-0.0437 -0.0182,-0.0437 -0.0182,-0.0437 -0.0219,-0.0401 -0.0219,-0.0401 -0.0255,-0.0401 -0.0255,-0.0365 -0.0292,-0.0365 -0.0328,-0.0365 -0.0292,-0.0328 -0.0365,-0.0328 -0.0328,-0.0292 -0.0365,-0.0292 -0.0401,-0.0255 -0.0365,-0.0255 -0.0401,-0.0255 -0.0438,-0.0219 -0.0401,-0.0182 -0.0438,-0.0182 -0.0474,-0.0146 -0.0438,-0.0146 -0.0474,-0.0109 -0.0474,-0.007 -0.0474,-0.007 -0.0474,-0.004 h -0.051 c -0.525,0 -0.96251,0.4375 -0.96251,0.96251 0,0.525 0.43751,0.96251 0.96251,0.96251 0.52865,0 0.96251,-0.43751 0.96251,-0.96251 z"
           inkscape:connector-curvature="0"
           style="font-style:normal;font-variant:normal;font-weight:normal;font-stretch:normal;letter-spacing:normal;word-spacing:normal;text-anchor:start;fill:#000000;fill-opacity:1;fill-rule:evenodd;stroke:#000000;stroke-width:0;stroke-linecap:butt;stroke-linejoin:round;stroke-miterlimit:10.43299961;stroke-dasharray:none;stroke-dashoffset:0;stroke-opacity:1" />
        <path
           id="path5783-6-7-4"
           d="m 130.49989,317.0802 v -0.0474 l -0.004,-0.051 -0.007,-0.0474 -0.007,-0.0474 -0.0109,-0.0438 -0.0109,-0.0474 -0.0182,-0.0437 -0.0146,-0.0437 -0.0219,-0.0437 -0.0182,-0.0401 -0.0255,-0.0401 -0.0255,-0.0401 -0.0255,-0.0365 -0.0292,-0.0365 -0.0292,-0.0365 -0.0328,-0.0328 -0.0328,-0.0328 -0.0365,-0.0292 -0.0365,-0.0292 -0.0365,-0.0255 -0.0401,-0.0255 -0.0401,-0.0255 -0.0401,-0.0219 -0.0437,-0.0182 -0.0438,-0.0182 -0.0437,-0.0146 -0.0474,-0.0146 -0.0437,-0.0109 -0.0474,-0.007 -0.051,-0.007 -0.0474,-0.004 h -0.0474 c -0.52501,0 -0.96615,0.4375 -0.96615,0.96251 0,0.525 0.44114,0.96251 0.96615,0.96251 0.52865,0 0.95886,-0.43751 0.95886,-0.96251 z"
           inkscape:connector-curvature="0"
           style="font-style:normal;font-variant:normal;font-weight:normal;font-stretch:normal;letter-spacing:normal;word-spacing:normal;text-anchor:start;fill:#000000;fill-opacity:1;fill-rule:evenodd;stroke:#000000;stroke-width:0;stroke-linecap:butt;stroke-linejoin:round;stroke-miterlimit:10.43299961;stroke-dasharray:none;stroke-dashoffset:0;stroke-opacity:1" />
      </g>
    </g>
  </g>
  <text
     xml:space="preserve"
     style="font-style:normal;font-variant:normal;font-weight:normal;font-stretch:normal;font-size:3.99999976px;line-height:1.25;font-family:cmr;-inkscape-font-specification:cmr;letter-spacing:0px;word-spacing:0px;fill:#000000;fill-opacity:1;stroke:none;stroke-width:0.75;stroke-linecap:butt;stroke-linejoin:round"
     x="316.63766"
     y="155.52364"
     id="text2281-9-2-5"><tspan
       sodipodi:role="line"
       id="tspan2279-2-9-2"
       style="font-size:18px;stroke-width:0.75;stroke-linecap:butt;stroke-linejoin:round"
       x="316.63766"
       y="155.52364">y/n</tspan></text>
  <path
     inkscape:connector-curvature="0"
     id="path4065"
     d="m 309.27386,118.75973 v 63.75"
     style="fill:none;stroke:#000000;stroke-width:0.75px;stroke-linecap:butt;stroke-linejoin:miter;stroke-opacity:1;marker-end:url(#marker4081)" />
  <path
     inkscape:connector-curvature="0"
     id="path4065-4"
     d="m 273.27386,182.22569 v -63.75"
     style="fill:none;stroke:#000000;stroke-width:0.75px;stroke-linecap:butt;stroke-linejoin:miter;stroke-opacity:1;marker-end:url(#marker4081-4)" />
  <g
     id="g5079"
     transform="translate(193.0906,33.656258)"
     style="stroke-linecap:butt;stroke-linejoin:round">
    <g
       word-spacing="normal"
       letter-spacing="normal"
       font-size-adjust="none"
       font-stretch="normal"
       font-weight="normal"
       font-variant="normal"
       font-style="normal"
       stroke-miterlimit="10.433"
       xml:space="preserve"
       transform="matrix(0.37457914,0,0,-0.37457914,-65.551349,374.9835)"
       id="content"
       style="font-style:normal;font-variant:normal;font-weight:normal;font-stretch:normal;letter-spacing:normal;word-spacing:normal;text-anchor:start;fill:none;fill-opacity:1;fill-rule:evenodd;stroke:#000000;stroke-linecap:butt;stroke-linejoin:round;stroke-miterlimit:10.43299961;stroke-dasharray:none;stroke-dashoffset:0;stroke-opacity:1"><path
         id="path5054"
         d="m 472,394.25 v 0.02 0.03 0.01 0.02 0.01 l -0.01,0.02 v 0.01 l -0.01,0.02 -0.01,0.02 -0.01,0.02 -0.01,0.02 -0.02,0.03 -0.01,0.02 -0.02,0.03 -0.02,0.03 -0.03,0.03 -0.02,0.03 -0.03,0.04 -0.02,0.02 -0.01,0.02 -0.02,0.02 -0.02,0.02 -0.02,0.02 -0.02,0.03 -0.02,0.02 -0.02,0.02 -0.02,0.03 -0.03,0.02 -0.02,0.03 -0.03,0.03 -0.03,0.03 -0.02,0.03 -0.03,0.03 -0.03,0.03 -0.03,0.03 -0.03,0.03 -0.04,0.04 -0.03,0.03 -0.04,0.04 -0.03,0.03 -0.04,0.04 -0.04,0.04 c -6.22,6.28 -7.81,15.69 -7.81,23.31 0,8.67 1.89,17.35 8.01,23.56 0.64,0.61 0.64,0.71 0.64,0.86 0,0.35 -0.18,0.49 -0.48,0.49 -0.5,0 -4.98,-3.38 -7.92,-9.7 -2.55,-5.49 -3.14,-11.02 -3.14,-15.21 0,-3.89 0.54,-9.9 3.28,-15.54 2.98,-6.13 7.28,-9.36 7.78,-9.36 0.3,0 0.48,0.14 0.48,0.5 z"
         inkscape:connector-curvature="0"
         style="fill:#000000;stroke-width:0;stroke-linecap:butt;stroke-linejoin:round" /><path
         id="path5056"
         d="m 480.32,423.34 v -13.36 c 0,-2.23 -0.55,-2.23 -3.89,-2.23 v -1.55 c 1.75,0.05 4.28,0.16 5.62,0.16 1.3,0 3.9,-0.11 5.58,-0.16 v 1.55 c -3.33,0 -3.87,0 -3.87,2.23 v 9.17 c 0,5.19 3.53,7.97 6.72,7.97 3.14,0 3.68,-2.69 3.68,-5.53 v -11.61 c 0,-2.23 -0.54,-2.23 -3.89,-2.23 v -1.55 c 1.75,0.05 4.3,0.16 5.64,0.16 1.3,0 3.88,-0.11 5.58,-0.16 v 1.55 c -2.59,0 -3.84,0 -3.89,1.5 v 9.51 c 0,4.28 0,5.83 -1.55,7.61 -0.68,0.86 -2.34,1.84 -5.21,1.84 -3.64,0 -5.99,-2.14 -7.38,-5.21 v 5.21 l -7.03,-0.54 v -1.55 c 3.48,0 3.89,-0.34 3.89,-2.78 z"
         inkscape:connector-curvature="0"
         style="fill:#000000;stroke-width:0;stroke-linecap:butt;stroke-linejoin:round" /><path
         id="path5058"
         d="m 512.91,415.87 0.12,-0.02 0.12,-0.02 0.14,-0.03 0.16,-0.04 0.17,-0.04 0.18,-0.04 0.19,-0.05 0.2,-0.06 0.2,-0.06 0.21,-0.07 0.22,-0.08 0.22,-0.08 0.22,-0.1 0.22,-0.1 0.22,-0.11 0.22,-0.12 0.21,-0.14 0.22,-0.14 0.2,-0.15 0.2,-0.16 0.19,-0.18 0.18,-0.19 0.17,-0.2 0.16,-0.21 0.14,-0.22 0.06,-0.12 0.07,-0.12 0.06,-0.13 0.05,-0.12 0.05,-0.14 0.04,-0.13 0.04,-0.14 0.04,-0.14 0.03,-0.15 0.03,-0.15 0.02,-0.16 0.01,-0.15 0.01,-0.17 v -0.16 c 0,-2.53 -1.75,-4.53 -5.62,-4.53 -4.19,0 -5.99,2.84 -6.94,7.07 -0.14,0.64 -0.19,0.85 -0.69,0.85 -0.65,0 -0.65,-0.35 -0.65,-1.25 v -6.58 c 0,-0.84 0,-1.19 0.54,-1.19 0.25,0 0.3,0.05 1.25,1 0.1,0.1 0.1,0.19 1,1.14 2.19,-2.09 4.44,-2.14 5.49,-2.14 5.72,0 8.01,3.35 8.01,6.92 0,2.64 -1.5,4.14 -2.09,4.74 -1.64,1.59 -3.6,2 -5.69,2.39 -2.78,0.55 -6.12,1.2 -6.12,4.09 0,1.74 1.29,3.78 5.57,3.78 5.49,0 5.74,-4.48 5.83,-6.03 0.06,-0.45 0.5,-0.45 0.61,-0.45 0.64,0 0.64,0.25 0.64,1.2 v 5.03 c 0,0.85 0,1.19 -0.54,1.19 -0.25,0 -0.35,0 -1,-0.59 -0.15,-0.21 -0.65,-0.64 -0.85,-0.8 -1.89,1.39 -3.94,1.39 -4.69,1.39 -6.07,0 -7.96,-3.33 -7.96,-6.12 0,-1.74 0.79,-3.14 2.14,-4.24 1.59,-1.29 3,-1.59 6.57,-2.28 z"
         inkscape:connector-curvature="0"
         style="fill:#000000;stroke-width:0;stroke-linecap:butt;stroke-linejoin:round" /><path
         id="path5060"
         d="m 530.86,426.12 h 7.12 v 1.55 h -7.12 v 9.17 h -1.25 c -0.05,-4.08 -1.55,-9.42 -6.42,-9.61 v -1.11 h 4.23 v -13.75 c 0,-6.12 4.63,-6.72 6.42,-6.72 3.54,0 4.94,3.53 4.94,6.72 v 2.84 h -1.25 v -2.73 c 0,-3.69 -1.5,-5.58 -3.34,-5.58 -3.33,0 -3.33,4.53 -3.33,5.38 z"
         inkscape:connector-curvature="0"
         style="fill:#000000;stroke-width:0;stroke-linecap:butt;stroke-linejoin:round" /><path
         id="path5062"
         d="m 547.08,417.71 0.05,1.05 c 0.3,7.42 4.48,8.66 6.19,8.66 5.12,0 5.62,-6.72 5.62,-8.66 h -11.81 l -0.05,-1.05 h 13.91 c 1.09,0 1.23,0 1.23,1.05 0,4.92 -2.69,9.75 -8.9,9.75 -5.79,0 -10.38,-5.12 -10.38,-11.36 0,-6.67 5.24,-11.5 10.97,-11.5 6.08,0 8.31,5.53 8.31,6.47 0,0.5 -0.39,0.61 -0.64,0.61 -0.45,0 -0.55,-0.3 -0.65,-0.7 -1.74,-5.13 -6.22,-5.13 -6.72,-5.13 -2.5,0 -4.49,1.49 -5.63,3.33 -1.5,2.39 -1.5,5.69 -1.5,7.48 z"
         inkscape:connector-curvature="0"
         style="fill:#000000;stroke-width:0;stroke-linecap:butt;stroke-linejoin:round" /><path
         id="path5064"
         d="m 572.19,424.93 v 3.28 l -7.17,-0.54 v -1.55 c 3.55,0 3.89,-0.3 3.89,-2.48 v -23.32 c 0,-2.25 -0.55,-2.25 -3.89,-2.25 v -1.54 c 1.7,0.06 4.28,0.15 5.58,0.15 1.34,0 3.89,-0.09 5.64,-0.15 v 1.54 c -3.34,0 -3.89,0 -3.89,2.25 v 8.36 0.46 l 0.7,0.65 c -0.7,1.05 -0.7,1.1 -0.7,2.08 v 0 11.13 c 1.43,2.53 3.89,3.98 6.42,3.98 3.64,0 6.69,-4.39 6.69,-10.02 0,-6.03 -3.5,-10.21 -7.19,-10.21 -1.99,0 -3.87,1 -5.22,3.04 l -0.7,-0.65 c 0.25,-0.8 2.34,-3.49 6.12,-3.49 5.94,0 11.11,4.88 11.11,11.31 0,6.33 -4.83,11.25 -10.4,11.25 -3.9,0 -5.99,-2.18 -6.99,-3.28 z"
         inkscape:connector-curvature="0"
         style="fill:#000000;stroke-width:0;stroke-linecap:butt;stroke-linejoin:round" /><path
         id="path5066"
         d="m 601.71,415.87 0.11,-0.02 0.13,-0.02 0.14,-0.03 0.15,-0.04 0.17,-0.04 0.18,-0.04 0.19,-0.05 0.2,-0.06 0.2,-0.06 0.22,-0.07 0.21,-0.08 0.22,-0.08 0.22,-0.1 0.22,-0.1 0.22,-0.11 0.22,-0.12 0.22,-0.14 0.21,-0.14 0.2,-0.15 0.2,-0.16 0.19,-0.18 0.18,-0.19 0.17,-0.2 0.16,-0.21 0.14,-0.22 0.07,-0.12 0.06,-0.12 0.06,-0.13 0.05,-0.12 0.05,-0.14 0.05,-0.13 0.04,-0.14 0.03,-0.14 0.03,-0.15 0.03,-0.15 0.02,-0.16 0.01,-0.15 0.01,-0.17 0.01,-0.16 c 0,-2.53 -1.75,-4.53 -5.63,-4.53 -4.19,0 -5.99,2.84 -6.94,7.07 -0.14,0.64 -0.18,0.85 -0.68,0.85 -0.66,0 -0.66,-0.35 -0.66,-1.25 v -6.58 c 0,-0.84 0,-1.19 0.54,-1.19 0.25,0 0.3,0.05 1.25,1 0.1,0.1 0.1,0.19 1,1.14 2.19,-2.09 4.44,-2.14 5.49,-2.14 5.72,0 8.01,3.35 8.01,6.92 0,2.64 -1.5,4.14 -2.09,4.74 -1.64,1.59 -3.59,2 -5.69,2.39 -2.78,0.55 -6.12,1.2 -6.12,4.09 0,1.74 1.3,3.78 5.58,3.78 5.48,0 5.73,-4.48 5.82,-6.03 0.07,-0.45 0.5,-0.45 0.62,-0.45 0.63,0 0.63,0.25 0.63,1.2 v 5.03 c 0,0.85 0,1.19 -0.54,1.19 -0.25,0 -0.34,0 -1,-0.59 -0.14,-0.21 -0.64,-0.64 -0.84,-0.8 -1.9,1.39 -3.94,1.39 -4.69,1.39 -6.08,0 -7.97,-3.33 -7.97,-6.12 0,-1.74 0.79,-3.14 2.14,-4.24 1.59,-1.29 3,-1.59 6.58,-2.28 z"
         inkscape:connector-curvature="0"
         style="fill:#000000;stroke-width:0;stroke-linecap:butt;stroke-linejoin:round" /><path
         id="path5068"
         d="m 621.14,406.25 -0.01,0.29 -0.01,0.29 -0.01,0.28 -0.03,0.28 -0.03,0.26 -0.04,0.26 -0.04,0.25 -0.05,0.25 -0.06,0.23 -0.06,0.23 -0.07,0.22 -0.07,0.21 -0.09,0.21 -0.08,0.19 -0.1,0.18 -0.1,0.18 -0.1,0.16 -0.11,0.16 -0.12,0.15 -0.12,0.13 -0.13,0.13 -0.14,0.12 -0.13,0.1 -0.15,0.1 -0.15,0.09 -0.15,0.07 -0.16,0.06 -0.17,0.06 -0.17,0.04 -0.18,0.03 -0.18,0.01 -0.18,0.01 c -1.73,0 -2.64,-1.34 -2.64,-2.64 0,-1.3 0.84,-2.64 2.64,-2.64 0.8,0 1.39,0.3 1.89,0.7 l 0.11,0.1 c 0.05,0 0.09,-0.05 0.09,-0.75 0,-3.19 -1.39,-6.22 -3.57,-8.57 -0.32,-0.29 -0.37,-0.36 -0.37,-0.54 0,-0.36 0.25,-0.55 0.5,-0.55 0.6,0 4.54,3.94 4.54,9.66 z"
         inkscape:connector-curvature="0"
         style="fill:#000000;stroke-width:0;stroke-linecap:butt;stroke-linejoin:round" /><path
         id="path5070"
         d="m 656.35,417.46 0.15,0.01 h 0.15 0.15 0.08 l 0.07,0.01 h 0.07 l 0.08,0.01 0.07,0.01 0.07,0.01 0.07,0.01 0.06,0.02 0.07,0.01 0.06,0.02 0.06,0.02 0.06,0.03 0.05,0.02 0.05,0.03 0.05,0.03 0.05,0.04 0.04,0.04 0.04,0.04 0.03,0.05 0.02,0.02 0.01,0.03 0.02,0.02 0.01,0.03 0.01,0.03 0.01,0.03 0.01,0.03 0.01,0.03 v 0.04 l 0.01,0.03 0.01,0.04 v 0.03 0.04 0.04 c 0,0.69 -0.61,0.69 -1.45,0.69 h -8.07 c 1.19,4.23 3.99,7.12 8.52,7.12 h 1.55 c 0.84,0 1.64,0 1.64,0.86 0,0.69 -0.66,0.69 -1.5,0.69 H 657 c -6.48,0 -13.15,-4.99 -13.15,-12.6 0,-5.48 3.73,-9.42 9.01,-9.42 3.24,0 6.49,1.99 6.49,2.55 0,0.14 -0.07,0.69 -0.5,0.69 -0.11,0 -0.2,0 -0.66,-0.3 -1.54,-1 -3.39,-1.84 -5.23,-1.84 -2.89,0 -5.38,2.09 -5.38,6.48 0,1.73 0.41,3.63 0.55,4.23 z"
         inkscape:connector-curvature="0"
         style="fill:#000000;stroke-width:0;stroke-linecap:butt;stroke-linejoin:round" /><path
         id="path5072"
         d="m 671.77,406.25 v 0.29 l -0.01,0.29 -0.02,0.28 -0.02,0.28 -0.04,0.26 -0.03,0.26 -0.05,0.25 -0.05,0.25 -0.05,0.23 -0.07,0.23 -0.07,0.22 -0.07,0.21 -0.08,0.21 -0.09,0.19 -0.09,0.18 -0.1,0.18 -0.11,0.16 -0.11,0.16 -0.12,0.15 -0.12,0.13 -0.13,0.13 -0.13,0.12 -0.14,0.1 -0.15,0.1 -0.15,0.09 -0.15,0.07 -0.16,0.06 -0.17,0.06 -0.17,0.04 -0.17,0.03 -0.18,0.01 -0.19,0.01 c -1.73,0 -2.64,-1.34 -2.64,-2.64 0,-1.3 0.84,-2.64 2.64,-2.64 0.8,0 1.39,0.3 1.89,0.7 l 0.11,0.1 c 0.05,0 0.1,-0.05 0.1,-0.75 0,-3.19 -1.4,-6.22 -3.58,-8.57 -0.32,-0.29 -0.36,-0.36 -0.36,-0.54 0,-0.36 0.25,-0.55 0.5,-0.55 0.59,0 4.53,3.94 4.53,9.66 z"
         inkscape:connector-curvature="0"
         style="fill:#000000;stroke-width:0;stroke-linecap:butt;stroke-linejoin:round" /><path
         id="path5074"
         d="m 705.29,427.96 -0.58,-0.15 -0.57,-0.18 -0.56,-0.21 -0.55,-0.24 -0.54,-0.26 -0.53,-0.28 -0.52,-0.31 -0.51,-0.33 -0.49,-0.35 -0.48,-0.38 -0.46,-0.39 -0.45,-0.41 -0.43,-0.42 -0.42,-0.45 -0.39,-0.46 -0.39,-0.47 -0.36,-0.49 -0.34,-0.5 -0.33,-0.51 -0.3,-0.52 -0.29,-0.53 -0.26,-0.53 -0.24,-0.55 -0.22,-0.55 -0.19,-0.56 -0.17,-0.56 -0.15,-0.57 -0.12,-0.56 -0.1,-0.57 -0.06,-0.57 -0.05,-0.57 -0.01,-0.57 c 0,-4.78 3.19,-8.35 7.87,-8.35 v 1.09 c -2.75,0 -4.78,2.09 -4.78,5.87 0,3.14 1.85,12.5 8.57,14.3 v 0 c 1.25,-2.28 2.73,-4.98 2.73,-8.56 0,-3.3 -1.89,-11.61 -6.52,-11.61 v -1.09 c 5.83,0 9.96,7.81 9.96,14.68 0,4.55 -1.99,7.03 -3.69,9.27 -1.78,2.25 -4.72,5.98 -4.72,8.17 0,1.11 0.99,2.3 2.74,2.3 1.5,0 2.48,-0.64 3.53,-1.35 1,-0.59 2,-1.25 2.75,-1.25 1.23,0 1.98,1.21 1.98,2 0,1.1 -0.8,1.24 -2.59,1.64 -2.58,0.55 -3.28,0.55 -4.08,0.55 -3.89,0 -5.69,-2.14 -5.69,-5.12 0,-2.71 1.46,-5.49 3,-8.54 z"
         inkscape:connector-curvature="0"
         style="fill:#000000;stroke-width:0;stroke-linecap:butt;stroke-linejoin:round" /><path
         id="path5076"
         d="m 730.53,418.65 v 0.37 l -0.01,0.39 -0.01,0.39 -0.01,0.41 -0.04,0.84 -0.06,0.88 -0.08,0.92 -0.11,0.95 -0.13,0.97 -0.17,1.01 -0.19,1.02 -0.23,1.03 -0.27,1.05 -0.31,1.06 -0.35,1.07 -0.39,1.07 -0.21,0.53 -0.23,0.53 -0.23,0.53 -0.25,0.53 c -2.99,6.12 -7.27,9.36 -7.77,9.36 -0.3,0 -0.5,-0.19 -0.5,-0.49 0,-0.15 0,-0.25 0.94,-1.15 4.89,-4.92 7.73,-12.85 7.73,-23.27 0,-8.51 -1.84,-17.28 -8.03,-23.56 -0.64,-0.59 -0.64,-0.7 -0.64,-0.84 0,-0.3 0.2,-0.5 0.5,-0.5 0.5,0 4.97,3.39 7.92,9.71 2.53,5.47 3.13,11 3.13,15.19 z"
         inkscape:connector-curvature="0"
         style="fill:#000000;stroke-width:0;stroke-linecap:butt;stroke-linejoin:round" /></g>  </g>
  <g
     style="stroke-linecap:butt;stroke-linejoin:round"
     transform="translate(301.51361,11.883718)"
     id="g3969-9-7">
    <g
       style="font-style:normal;font-variant:normal;font-weight:normal;font-stretch:normal;letter-spacing:normal;word-spacing:normal;text-anchor:start;fill:none;fill-opacity:1;fill-rule:evenodd;stroke:#000000;stroke-linecap:butt;stroke-linejoin:round;stroke-miterlimit:10.43299961;stroke-dasharray:none;stroke-dashoffset:0;stroke-opacity:1"
       id="g3967-2-5"
       transform="matrix(0.34486677,0,0,-0.34486677,-60.351685,219.92975)"
       xml:space="preserve"
       stroke-miterlimit="10.433"
       font-style="normal"
       font-variant="normal"
       font-weight="normal"
       font-stretch="normal"
       font-size-adjust="none"
       letter-spacing="normal"
       word-spacing="normal"><path
         style="fill:#000000;stroke-width:0;stroke-linecap:butt;stroke-linejoin:round"
         inkscape:connector-curvature="0"
         d="m 457.75,400.12 -0.03,-0.15 -0.04,-0.15 -0.03,-0.14 -0.03,-0.13 -0.04,-0.13 -0.03,-0.11 -0.04,-0.12 -0.03,-0.1 -0.04,-0.1 -0.04,-0.09 -0.04,-0.09 -0.05,-0.08 -0.05,-0.07 -0.05,-0.07 -0.06,-0.07 -0.06,-0.06 -0.07,-0.05 -0.07,-0.05 -0.08,-0.04 -0.09,-0.04 -0.09,-0.04 -0.1,-0.03 -0.11,-0.03 -0.12,-0.02 -0.13,-0.02 -0.06,-0.01 -0.07,-0.01 -0.07,-0.01 -0.08,-0.01 h -0.07 l -0.08,-0.01 h -0.08 l -0.09,-0.01 h -0.08 -0.09 -0.1 -0.09 l -0.1,-0.01 h -0.1 c -0.6,0 -1.14,0 -1.14,-0.93 0,-0.41 0.25,-0.61 0.64,-0.61 1.36,0 2.79,0.15 4.18,0.15 1.64,0 3.35,-0.15 4.94,-0.15 0.25,0 0.89,0 0.89,1 0,0.54 -0.5,0.54 -1.19,0.54 -2.5,0 -2.5,0.36 -2.5,0.8 0,0.61 2.1,8.72 2.46,9.97 0.64,-1.44 2.03,-3.19 4.58,-3.19 l -0.05,1.1 c -3.3,0 -3.94,4.14 -3.94,4.43 0,0.1 0,0.21 0.14,0.8 l 2.46,9.77 c 0.34,1.34 1.68,2.73 2.57,3.48 1.75,1.55 3.21,1.89 4.05,1.89 1.98,0 3.19,-1.73 3.19,-4.69 0,-2.93 -1.64,-8.65 -2.55,-10.56 -1.69,-3.48 -4.08,-5.12 -5.92,-5.12 l 0.05,-1.1 c 5.78,0 12,7.27 12,14.6 0,4.68 -2.83,7.96 -6.63,7.96 -2.48,0 -4.87,-1.78 -6.51,-3.73 -0.5,2.69 -2.65,3.73 -4.49,3.73 -2.3,0 -3.25,-1.93 -3.69,-2.82 -0.9,-1.71 -1.54,-4.69 -1.54,-4.85 0,-0.5 0.5,-0.5 0.59,-0.5 0.5,0 0.55,0.07 0.84,1.16 0.86,3.53 1.85,5.92 3.64,5.92 0.85,0 1.55,-0.39 1.55,-2.28 0,-1.16 -0.15,-1.7 -0.34,-2.55 z"
         id="path3963-0-3" /><path
         style="fill:#000000;stroke-width:0;stroke-linecap:butt;stroke-linejoin:round"
         inkscape:connector-curvature="0"
         d="m 498.2,405.11 h -1.19 c -0.1,-0.77 -0.46,-2.83 -0.91,-3.18 -0.26,-0.2 -2.95,-0.2 -3.44,-0.2 h -6.42 c 3.66,3.23 4.88,4.2 6.97,5.84 2.58,2.07 4.99,4.22 4.99,7.54 0,4.21 -3.69,6.79 -8.16,6.79 -4.31,0 -7.25,-3.03 -7.25,-6.23 0,-1.78 1.5,-1.96 1.86,-1.96 0.83,0 1.84,0.6 1.84,1.85 0,0.62 -0.25,1.84 -2.06,1.84 1.08,2.47 3.45,3.24 5.09,3.24 3.49,0 5.3,-2.71 5.3,-5.53 0,-3.04 -2.16,-5.44 -3.28,-6.69 l -8.39,-8.3 c -0.36,-0.31 -0.36,-0.39 -0.36,-1.36 h 14.36 z"
         id="path3965-2-5" /></g>  </g>
  <g
     style="stroke-linecap:butt;stroke-linejoin:round"
     transform="translate(426.55693,101.58185)"
     id="g3689-3-6">
    <g
       style="font-style:normal;font-variant:normal;font-weight:normal;font-stretch:normal;letter-spacing:normal;word-spacing:normal;text-anchor:start;fill:none;fill-opacity:1;fill-rule:evenodd;stroke:#000000;stroke-linecap:butt;stroke-linejoin:round;stroke-miterlimit:10.43299961;stroke-dasharray:none;stroke-dashoffset:0;stroke-opacity:1"
       word-spacing="normal"
       letter-spacing="normal"
       font-size-adjust="none"
       font-stretch="normal"
       font-weight="normal"
       font-variant="normal"
       font-style="normal"
       stroke-miterlimit="10.433"
       xml:space="preserve"
       transform="matrix(0.34486677,0,0,-0.34486677,-60.351685,219.92975)"
       id="content-7-2"><path
         style="fill:#000000;stroke-width:0;stroke-linecap:butt;stroke-linejoin:round"
         inkscape:connector-curvature="0"
         id="path3684-5-9"
         d="m 457.75,400.12 -0.03,-0.15 -0.04,-0.15 -0.03,-0.14 -0.03,-0.13 -0.04,-0.13 -0.03,-0.11 -0.04,-0.12 -0.03,-0.1 -0.04,-0.1 -0.04,-0.09 -0.04,-0.09 -0.05,-0.08 -0.05,-0.07 -0.05,-0.07 -0.06,-0.07 -0.06,-0.06 -0.07,-0.05 -0.07,-0.05 -0.08,-0.04 -0.09,-0.04 -0.09,-0.04 -0.1,-0.03 -0.11,-0.03 -0.12,-0.02 -0.13,-0.02 -0.06,-0.01 -0.07,-0.01 -0.07,-0.01 -0.08,-0.01 h -0.07 l -0.08,-0.01 h -0.08 l -0.09,-0.01 h -0.08 -0.09 -0.1 -0.09 l -0.1,-0.01 h -0.1 c -0.6,0 -1.14,0 -1.14,-0.93 0,-0.41 0.25,-0.61 0.64,-0.61 1.36,0 2.79,0.15 4.18,0.15 1.64,0 3.35,-0.15 4.94,-0.15 0.25,0 0.89,0 0.89,1 0,0.54 -0.5,0.54 -1.19,0.54 -2.5,0 -2.5,0.36 -2.5,0.8 0,0.61 2.1,8.72 2.46,9.97 0.64,-1.44 2.03,-3.19 4.58,-3.19 l -0.05,1.1 c -3.3,0 -3.94,4.14 -3.94,4.43 0,0.1 0,0.21 0.14,0.8 l 2.46,9.77 c 0.34,1.34 1.68,2.73 2.57,3.48 1.75,1.55 3.21,1.89 4.05,1.89 1.98,0 3.19,-1.73 3.19,-4.69 0,-2.93 -1.64,-8.65 -2.55,-10.56 -1.69,-3.48 -4.08,-5.12 -5.92,-5.12 l 0.05,-1.1 c 5.78,0 12,7.27 12,14.6 0,4.68 -2.83,7.96 -6.63,7.96 -2.48,0 -4.87,-1.78 -6.51,-3.73 -0.5,2.69 -2.65,3.73 -4.49,3.73 -2.3,0 -3.25,-1.93 -3.69,-2.82 -0.9,-1.71 -1.54,-4.69 -1.54,-4.85 0,-0.5 0.5,-0.5 0.59,-0.5 0.5,0 0.55,0.07 0.84,1.16 0.86,3.53 1.85,5.92 3.64,5.92 0.85,0 1.55,-0.39 1.55,-2.28 0,-1.16 -0.15,-1.7 -0.34,-2.55 z" /><path
         style="fill:#000000;stroke-width:0;stroke-linecap:butt;stroke-linejoin:round"
         inkscape:connector-curvature="0"
         id="path3686-9-1"
         d="m 492.27,420.92 v 0.04 0.04 0.05 0.04 0.03 0.04 0.04 0.03 0.04 0.03 l -0.01,0.03 v 0.03 0.03 0.03 l -0.01,0.03 v 0.02 l -0.01,0.03 v 0.02 l -0.01,0.03 v 0.02 l -0.01,0.04 -0.02,0.04 -0.02,0.03 -0.01,0.03 -0.03,0.03 -0.02,0.03 -0.03,0.02 -0.03,0.02 -0.03,0.02 -0.04,0.01 -0.04,0.01 -0.04,0.02 h -0.03 -0.02 l -0.03,0.01 h -0.02 l -0.03,0.01 h -0.03 -0.03 -0.03 -0.03 l -0.04,0.01 h -0.03 -0.04 -0.03 -0.04 -0.04 -0.04 -0.04 -0.04 -0.05 -0.04 c -2.24,-2.2 -5.39,-2.23 -6.83,-2.23 v -1.25 c 0.84,0 3.14,0 5.05,0.97 v -17.77 c 0,-1.16 0,-1.61 -3.49,-1.61 h -1.31 v -1.25 c 0.62,0.03 4.9,0.14 6.2,0.14 1.08,0 5.47,-0.11 6.24,-0.14 v 1.25 h -1.33 c -3.49,0 -3.49,0.45 -3.49,1.61 z" /></g>  </g>
</svg>
