<?xml version="1.0" encoding="UTF-8" standalone="no"?>
<!-- Created with matplotlib (https://matplotlib.org/) -->

<svg
   xmlns:dc="http://purl.org/dc/elements/1.1/"
   xmlns:cc="http://creativecommons.org/ns#"
   xmlns:rdf="http://www.w3.org/1999/02/22-rdf-syntax-ns#"
   xmlns:svg="http://www.w3.org/2000/svg"
   xmlns="http://www.w3.org/2000/svg"
   xmlns:xlink="http://www.w3.org/1999/xlink"
   xmlns:sodipodi="http://sodipodi.sourceforge.net/DTD/sodipodi-0.dtd"
   xmlns:inkscape="http://www.inkscape.org/namespaces/inkscape"
   height="310.73889pt"
   version="1.1"
   viewBox="0 0 438.11399 310.73889"
   width="438.11398pt"
   id="svg666"
   sodipodi:docname="50steps.svg"
   inkscape:version="0.92.3 (2405546, 2018-03-11)">
  <metadata
     id="metadata670">
    <rdf:RDF>
      <cc:Work
         rdf:about="">
        <dc:format>image/svg+xml</dc:format>
        <dc:type
           rdf:resource="http://purl.org/dc/dcmitype/StillImage" />
        <dc:title></dc:title>
      </cc:Work>
    </rdf:RDF>
  </metadata>
  <sodipodi:namedview
     pagecolor="#ffffff"
     bordercolor="#666666"
     borderopacity="1"
     objecttolerance="10"
     gridtolerance="10"
     guidetolerance="10"
     inkscape:pageopacity="0"
     inkscape:pageshadow="2"
     inkscape:window-width="1920"
     inkscape:window-height="960"
     id="namedview668"
     showgrid="false"
     fit-margin-top="0"
     fit-margin-left="0"
     fit-margin-right="0"
     fit-margin-bottom="0"
     inkscape:zoom="1.4485868"
     inkscape:cx="354.87662"
     inkscape:cy="244.53594"
     inkscape:window-x="3840"
     inkscape:window-y="27"
     inkscape:window-maximized="1"
     inkscape:current-layer="axes_1" />
  <defs
     id="defs4"
     style="stroke-linecap:butt;stroke-linejoin:round">
    <style
       type="text/css"
       id="style2">
*{stroke-linecap:butt;stroke-linejoin:round;}
  </style>
  </defs>
  <g
     id="figure_1"
     style="stroke-linecap:butt;stroke-linejoin:round"
     transform="translate(-11.315312,-23.257344)">
    <g
       id="patch_1"
       style="stroke-linecap:butt;stroke-linejoin:round">
      <path
         d="M 0,345.6 H 460.8 V 0 H 0 Z"
         style="fill:#ffffff;stroke-linecap:butt;stroke-linejoin:round"
         id="path6"
         inkscape:connector-curvature="0" />
    </g>
    <g
       id="axes_1"
       style="stroke-linecap:butt;stroke-linejoin:round">
      <g
         id="patch_75"
         style="stroke-linecap:butt;stroke-linejoin:round">
        <path
           clip-path="url(#pc1ee8b21aa)"
           d="m 440.55,265.21796 v 0 z"
           style="fill:#008000;stroke:#000000;stroke-linecap:butt;stroke-linejoin:miter"
           id="path228"
           inkscape:connector-curvature="0" />
      </g>
      <g
         id="g1901"
         style="stroke-linecap:butt;stroke-linejoin:round">
        <g
           id="patch_2"
           style="stroke-linecap:butt;stroke-linejoin:round">
          <path
             id="path9"
             style="fill:#ffffff;stroke-linecap:butt;stroke-linejoin:round"
             d="M 47.72,303.64 H 440.55 V 26.88 H 47.72 Z"
             inkscape:connector-curvature="0" />
        </g>
        <g
           id="patch_3"
           style="stroke-linecap:butt;stroke-linejoin:round">
          <path
             id="path12"
             style="opacity:0.2;fill:#0000ff;stroke:#000000;stroke-linecap:butt;stroke-linejoin:miter"
             d="M 47.72,303.64 H 440.55 V 26.88 H 47.72 Z"
             clip-path="url(#pc1ee8b21aa)"
             inkscape:connector-curvature="0" />
        </g>
        <g
           id="patch_4"
           style="stroke-linecap:butt;stroke-linejoin:round">
          <path
             id="path15"
             style="fill:#ff0000;stroke:#000000;stroke-linecap:butt;stroke-linejoin:miter"
             d="M 47.72,303.64 H 195.68597 V 199.39373 H 47.72 Z"
             clip-path="url(#pc1ee8b21aa)"
             inkscape:connector-curvature="0" />
        </g>
        <g
           id="patch_5"
           style="stroke-linecap:butt;stroke-linejoin:round">
          <path
             id="path18"
             style="fill:#ff0000;stroke:#000000;stroke-linecap:butt;stroke-linejoin:miter"
             d="M 47.72,199.39373 H 73.908662 V 168.86034 H 47.72 Z"
             clip-path="url(#pc1ee8b21aa)"
             inkscape:connector-curvature="0" />
        </g>
        <g
           id="patch_6"
           style="stroke-linecap:butt;stroke-linejoin:round">
          <path
             id="path21"
             style="fill:#ff0000;stroke:#000000;stroke-linecap:butt;stroke-linejoin:miter"
             d="M 195.68597,303.64 H 344.48233 V 240.29274 H 195.68597 Z"
             clip-path="url(#pc1ee8b21aa)"
             inkscape:connector-curvature="0" />
        </g>
        <g
           id="patch_7"
           style="stroke-linecap:butt;stroke-linejoin:round">
          <path
             id="path24"
             style="fill:#ff0000;stroke:#000000;stroke-linecap:butt;stroke-linejoin:miter"
             d="m 344.48233,303.64 h 67.08025 v -44.23289 h -67.08025 z"
             clip-path="url(#pc1ee8b21aa)"
             inkscape:connector-curvature="0" />
        </g>
        <g
           id="patch_8"
           style="stroke-linecap:butt;stroke-linejoin:round">
          <path
             id="path27"
             style="fill:#ff0000;stroke:#000000;stroke-linecap:butt;stroke-linejoin:miter"
             d="m 195.68597,240.29274 h 48.22629 v -13.25576 h -48.22629 z"
             clip-path="url(#pc1ee8b21aa)"
             inkscape:connector-curvature="0" />
        </g>
        <g
           id="patch_9"
           style="stroke-linecap:butt;stroke-linejoin:round">
          <path
             id="path30"
             style="fill:#ff0000;stroke:#000000;stroke-linecap:butt;stroke-linejoin:miter"
             d="m 73.908662,199.39373 h 17.022634 v -4.26811 H 73.908662 Z"
             clip-path="url(#pc1ee8b21aa)"
             inkscape:connector-curvature="0" />
        </g>
        <g
           id="patch_10"
           style="stroke-linecap:butt;stroke-linejoin:round">
          <path
             id="path33"
             style="fill:#ff0000;stroke:#000000;stroke-linecap:butt;stroke-linejoin:miter"
             d="m 47.72,168.86034 h 4.752968 V 143.0924 H 47.72 Z"
             clip-path="url(#pc1ee8b21aa)"
             inkscape:connector-curvature="0" />
        </g>
        <g
           id="patch_11"
           style="stroke-linecap:butt;stroke-linejoin:round">
          <path
             id="path36"
             style="fill:#ff0000;stroke:#000000;stroke-linecap:butt;stroke-linejoin:miter"
             d="M 195.68597,227.03698 H 223.5175 V 211.08399 H 195.68597 Z"
             clip-path="url(#pc1ee8b21aa)"
             inkscape:connector-curvature="0" />
        </g>
        <g
           id="patch_12"
           style="stroke-linecap:butt;stroke-linejoin:round">
          <path
             id="path39"
             style="fill:#ff0000;stroke:#000000;stroke-linecap:butt;stroke-linejoin:miter"
             d="m 243.91226,240.29274 h 12.00763 v -1.58268 h -12.00763 z"
             clip-path="url(#pc1ee8b21aa)"
             inkscape:connector-curvature="0" />
        </g>
        <g
           id="patch_13"
           style="stroke-linecap:butt;stroke-linejoin:round">
          <path
             id="path42"
             style="fill:#ff0000;stroke:#000000;stroke-linecap:butt;stroke-linejoin:miter"
             d="m 411.56258,303.64 h 25.17935 v -38.42203 h -25.17935 z"
             clip-path="url(#pc1ee8b21aa)"
             inkscape:connector-curvature="0" />
        </g>
        <g
           id="patch_14"
           style="stroke-linecap:butt;stroke-linejoin:round">
          <path
             id="path45"
             style="fill:#ff0000;stroke:#000000;stroke-linecap:butt;stroke-linejoin:miter"
             d="m 344.48233,259.40711 h 42.3809 v -12.07634 h -42.3809 z"
             clip-path="url(#pc1ee8b21aa)"
             inkscape:connector-curvature="0" />
        </g>
        <g
           id="patch_15"
           style="stroke-linecap:butt;stroke-linejoin:round">
          <path
             id="path48"
             style="fill:#ff0000;stroke:#000000;stroke-linecap:butt;stroke-linejoin:miter"
             d="m 47.72,143.0924 h 0.134243 v -3.2823 H 47.72 Z"
             clip-path="url(#pc1ee8b21aa)"
             inkscape:connector-curvature="0" />
        </g>
        <g
           id="patch_16"
           style="stroke-linecap:butt;stroke-linejoin:round">
          <path
             id="path51"
             style="fill:#ff0000;stroke:#000000;stroke-linecap:butt;stroke-linejoin:miter"
             d="M 52.472968,168.86034 H 63.470976 V 155.63956 H 52.472968 Z"
             clip-path="url(#pc1ee8b21aa)"
             inkscape:connector-curvature="0" />
        </g>
        <g
           id="patch_17"
           style="stroke-linecap:butt;stroke-linejoin:round">
          <path
             id="path54"
             style="fill:#ff0000;stroke:#000000;stroke-linecap:butt;stroke-linejoin:miter"
             d="M 73.908662,195.12562 H 82.82934 V 181.36135 H 73.908662 Z"
             clip-path="url(#pc1ee8b21aa)"
             inkscape:connector-curvature="0" />
        </g>
        <g
           id="patch_18"
           style="stroke-linecap:butt;stroke-linejoin:round">
          <path
             id="path57"
             style="fill:#ff0000;stroke:#000000;stroke-linecap:butt;stroke-linejoin:miter"
             d="m 90.931296,199.39373 h 4.804692 v -0.19576 h -4.804692 z"
             clip-path="url(#pc1ee8b21aa)"
             inkscape:connector-curvature="0" />
        </g>
        <g
           id="patch_19"
           style="stroke-linecap:butt;stroke-linejoin:round">
          <path
             id="path60"
             style="fill:#ff0000;stroke:#000000;stroke-linecap:butt;stroke-linejoin:miter"
             d="m 195.68597,211.08399 h 16.21739 v -6.8119 h -16.21739 z"
             clip-path="url(#pc1ee8b21aa)"
             inkscape:connector-curvature="0" />
        </g>
        <g
           id="patch_20"
           style="stroke-linecap:butt;stroke-linejoin:round">
          <path
             id="path63"
             style="fill:#ff0000;stroke:#000000;stroke-linecap:butt;stroke-linejoin:miter"
             d="m 223.5175,227.03698 h 10.26495 v -8.02935 H 223.5175 Z"
             clip-path="url(#pc1ee8b21aa)"
             inkscape:connector-curvature="0" />
        </g>
        <g
           id="patch_21"
           style="stroke-linecap:butt;stroke-linejoin:round">
          <path
             id="path66"
             style="fill:#ff0000;stroke:#000000;stroke-linecap:butt;stroke-linejoin:miter"
             d="m 386.86323,259.40711 h 13.09433 v -6.40226 h -13.09433 z"
             clip-path="url(#pc1ee8b21aa)"
             inkscape:connector-curvature="0" />
        </g>
        <g
           id="patch_22"
           style="stroke-linecap:butt;stroke-linejoin:round">
          <path
             id="path69"
             style="fill:#ff0000;stroke:#000000;stroke-linecap:butt;stroke-linejoin:miter"
             d="m 344.48233,247.33077 h 28.08176 v -4.66343 h -28.08176 z"
             clip-path="url(#pc1ee8b21aa)"
             inkscape:connector-curvature="0" />
        </g>
        <g
           id="patch_23"
           style="stroke-linecap:butt;stroke-linejoin:round">
          <path
             id="path72"
             style="fill:#ff0000;stroke:#000000;stroke-linecap:butt;stroke-linejoin:miter"
             d="m 411.56258,265.21797 h 6.72705 v -1.55246 h -6.72705 z"
             clip-path="url(#pc1ee8b21aa)"
             inkscape:connector-curvature="0" />
        </g>
        <g
           id="patch_24"
           style="stroke-linecap:butt;stroke-linejoin:round">
          <path
             id="path75"
             style="fill:#ff0000;stroke:#000000;stroke-linecap:butt;stroke-linejoin:miter"
             d="m 436.74193,303.64 h 3.80806 v -38.42197 h -3.80806 z"
             clip-path="url(#pc1ee8b21aa)"
             inkscape:connector-curvature="0" />
        </g>
        <g
           id="patch_25"
           style="stroke-linecap:butt;stroke-linejoin:round">
          <path
             id="path78"
             style="fill:#ff0000;stroke:#000000;stroke-linecap:butt;stroke-linejoin:miter"
             d="m 255.91989,240.29274 h 1.30944 v -0.0234 h -1.30944 z"
             clip-path="url(#pc1ee8b21aa)"
             inkscape:connector-curvature="0" />
        </g>
        <g
           id="patch_26"
           style="stroke-linecap:butt;stroke-linejoin:round">
          <path
             id="path81"
             style="fill:#ff0000;stroke:#000000;stroke-linecap:butt;stroke-linejoin:miter"
             d="m 243.91226,238.71006 h 5.64448 v -5.48721 h -5.64448 z"
             clip-path="url(#pc1ee8b21aa)"
             inkscape:connector-curvature="0" />
        </g>
        <g
           id="patch_27"
           style="stroke-linecap:butt;stroke-linejoin:round">
          <path
             id="path84"
             style="fill:#ff0000;stroke:#000000;stroke-linecap:butt;stroke-linejoin:miter"
             d="m 52.472968,155.63956 h 5.722499 v -6.52859 h -5.722499 z"
             clip-path="url(#pc1ee8b21aa)"
             inkscape:connector-curvature="0" />
        </g>
        <g
           id="patch_28"
           style="stroke-linecap:butt;stroke-linejoin:round">
          <path
             id="path87"
             style="fill:#ff0000;stroke:#000000;stroke-linecap:butt;stroke-linejoin:miter"
             d="m 63.470976,168.86034 h 5.199954 v -6.58647 h -5.199954 z"
             clip-path="url(#pc1ee8b21aa)"
             inkscape:connector-curvature="0" />
        </g>
        <g
           id="patch_29"
           style="stroke-linecap:butt;stroke-linejoin:round">
          <path
             id="path90"
             style="fill:#ff0000;stroke:#000000;stroke-linecap:butt;stroke-linejoin:miter"
             d="m 73.908662,181.36135 h 4.276557 v -5.99296 h -4.276557 z"
             clip-path="url(#pc1ee8b21aa)"
             inkscape:connector-curvature="0" />
        </g>
        <g
           id="patch_30"
           style="stroke-linecap:butt;stroke-linejoin:round">
          <path
             id="path93"
             style="fill:#ff0000;stroke:#000000;stroke-linecap:butt;stroke-linejoin:miter"
             d="m 82.82934,195.12562 h 4.173657 v -7.09055 H 82.82934 Z"
             clip-path="url(#pc1ee8b21aa)"
             inkscape:connector-curvature="0" />
        </g>
        <g
           id="patch_31"
           style="stroke-linecap:butt;stroke-linejoin:round">
          <path
             id="path96"
             style="fill:#ff0000;stroke:#000000;stroke-linecap:butt;stroke-linejoin:miter"
             d="m 233.78245,227.03698 h 5.11481 v -4.05423 h -5.11481 z"
             clip-path="url(#pc1ee8b21aa)"
             inkscape:connector-curvature="0" />
        </g>
        <g
           id="patch_32"
           style="stroke-linecap:butt;stroke-linejoin:round">
          <path
             id="path99"
             style="fill:#ff0000;stroke:#000000;stroke-linecap:butt;stroke-linejoin:miter"
             d="m 223.5175,219.00763 h 5.3813 v -4.15389 h -5.3813 z"
             clip-path="url(#pc1ee8b21aa)"
             inkscape:connector-curvature="0" />
        </g>
        <g
           id="patch_33"
           style="stroke-linecap:butt;stroke-linejoin:round">
          <path
             id="path102"
             style="fill:#ff0000;stroke:#000000;stroke-linecap:butt;stroke-linejoin:miter"
             d="m 211.90336,211.08399 h 6.04297 v -3.54431 h -6.04297 z"
             clip-path="url(#pc1ee8b21aa)"
             inkscape:connector-curvature="0" />
        </g>
        <g
           id="patch_34"
           style="stroke-linecap:butt;stroke-linejoin:round">
          <path
             id="path105"
             style="fill:#ff0000;stroke:#000000;stroke-linecap:butt;stroke-linejoin:miter"
             d="m 195.68597,204.27209 h 9.16603 v -2.75724 h -9.16603 z"
             clip-path="url(#pc1ee8b21aa)"
             inkscape:connector-curvature="0" />
        </g>
        <g
           id="patch_35"
           style="stroke-linecap:butt;stroke-linejoin:round">
          <path
             id="path108"
             style="fill:#ff0000;stroke:#000000;stroke-linecap:butt;stroke-linejoin:miter"
             d="m 386.86323,253.00485 h 6.54717 v -2.83704 h -6.54717 z"
             clip-path="url(#pc1ee8b21aa)"
             inkscape:connector-curvature="0" />
        </g>
        <g
           id="patch_36"
           style="stroke-linecap:butt;stroke-linejoin:round">
          <path
             id="path111"
             style="fill:#ff0000;stroke:#000000;stroke-linecap:butt;stroke-linejoin:miter"
             d="m 399.95756,259.40711 h 5.35735 v -2.95554 h -5.35735 z"
             clip-path="url(#pc1ee8b21aa)"
             inkscape:connector-curvature="0" />
        </g>
        <g
           id="patch_37"
           style="stroke-linecap:butt;stroke-linejoin:round">
          <path
             id="path114"
             style="fill:#ff0000;stroke:#000000;stroke-linecap:butt;stroke-linejoin:miter"
             d="m 344.48233,242.66734 h 20.12054 v -1.7014 h -20.12054 z"
             clip-path="url(#pc1ee8b21aa)"
             inkscape:connector-curvature="0" />
        </g>
        <g
           id="patch_38"
           style="stroke-linecap:butt;stroke-linejoin:round">
          <path
             id="path117"
             style="fill:#ff0000;stroke:#000000;stroke-linecap:butt;stroke-linejoin:miter"
             d="m 372.56409,247.33077 h 7.75197 v -2.52818 h -7.75197 z"
             clip-path="url(#pc1ee8b21aa)"
             inkscape:connector-curvature="0" />
        </g>
        <g
           id="patch_39"
           style="stroke-linecap:butt;stroke-linejoin:round">
          <path
             id="path120"
             style="fill:#ff0000;stroke:#000000;stroke-linecap:butt;stroke-linejoin:miter"
             d="m 249.55674,238.71006 h 3.406 v -2.93714 h -3.406 z"
             clip-path="url(#pc1ee8b21aa)"
             inkscape:connector-curvature="0" />
        </g>
        <g
           id="patch_40"
           style="stroke-linecap:butt;stroke-linejoin:round">
          <path
             id="path123"
             style="fill:#ff0000;stroke:#000000;stroke-linecap:butt;stroke-linejoin:miter"
             d="m 243.91226,233.22285 h 2.8416 v -3.11415 h -2.8416 z"
             clip-path="url(#pc1ee8b21aa)"
             inkscape:connector-curvature="0" />
        </g>
        <g
           id="patch_41"
           style="stroke-linecap:butt;stroke-linejoin:round">
          <path
             id="path126"
             style="fill:#ff0000;stroke:#000000;stroke-linecap:butt;stroke-linejoin:miter"
             d="m 63.470976,162.27387 h 2.634835 v -3.36163 h -2.634835 z"
             clip-path="url(#pc1ee8b21aa)"
             inkscape:connector-curvature="0" />
        </g>
        <g
           id="patch_42"
           style="stroke-linecap:butt;stroke-linejoin:round">
          <path
             id="path129"
             style="fill:#ff0000;stroke:#000000;stroke-linecap:butt;stroke-linejoin:miter"
             d="m 68.67093,168.86034 h 2.618861 v -3.29323 H 68.67093 Z"
             clip-path="url(#pc1ee8b21aa)"
             inkscape:connector-curvature="0" />
        </g>
        <g
           id="patch_43"
           style="stroke-linecap:butt;stroke-linejoin:round">
          <path
             id="path132"
             style="fill:#ff0000;stroke:#000000;stroke-linecap:butt;stroke-linejoin:miter"
             d="m 52.472968,149.11097 h 3.103629 v -3.26423 h -3.103629 z"
             clip-path="url(#pc1ee8b21aa)"
             inkscape:connector-curvature="0" />
        </g>
        <g
           id="patch_44"
           style="stroke-linecap:butt;stroke-linejoin:round">
          <path
             id="path135"
             style="fill:#ff0000;stroke:#000000;stroke-linecap:butt;stroke-linejoin:miter"
             d="m 58.195467,155.63956 h 2.618863 v -3.24091 h -2.618863 z"
             clip-path="url(#pc1ee8b21aa)"
             inkscape:connector-curvature="0" />
        </g>
        <g
           id="patch_45"
           style="stroke-linecap:butt;stroke-linejoin:round">
          <path
             id="path138"
             style="fill:#ff0000;stroke:#000000;stroke-linecap:butt;stroke-linejoin:miter"
             d="m 411.56258,263.66551 h 3.10422 v -1.96505 h -3.10422 z"
             clip-path="url(#pc1ee8b21aa)"
             inkscape:connector-curvature="0" />
        </g>
        <g
           id="patch_46"
           style="stroke-linecap:butt;stroke-linejoin:round">
          <path
             id="path141"
             style="fill:#ff0000;stroke:#000000;stroke-linecap:butt;stroke-linejoin:miter"
             d="m 418.28963,265.21797 h 2.61887 v -0.22033 h -2.61887 z"
             clip-path="url(#pc1ee8b21aa)"
             inkscape:connector-curvature="0" />
        </g>
        <g
           id="patch_47"
           style="stroke-linecap:butt;stroke-linejoin:round">
          <path
             id="path144"
             style="fill:#ff0000;stroke:#000000;stroke-linecap:butt;stroke-linejoin:miter"
             d="m 82.82934,188.03507 h 1.608407 v -2.57186 H 82.82934 Z"
             clip-path="url(#pc1ee8b21aa)"
             inkscape:connector-curvature="0" />
        </g>
        <g
           id="patch_48"
           style="stroke-linecap:butt;stroke-linejoin:round">
          <path
             id="path147"
             style="fill:#ff0000;stroke:#000000;stroke-linecap:butt;stroke-linejoin:miter"
             d="m 87.002997,195.12562 h 1.872256 v -3.37941 h -1.872256 z"
             clip-path="url(#pc1ee8b21aa)"
             inkscape:connector-curvature="0" />
        </g>
        <g
           id="patch_49"
           style="stroke-linecap:butt;stroke-linejoin:round">
          <path
             id="path150"
             style="fill:#ff0000;stroke:#000000;stroke-linecap:butt;stroke-linejoin:miter"
             d="m 78.185219,181.36135 h 2.270609 v -2.93009 h -2.270609 z"
             clip-path="url(#pc1ee8b21aa)"
             inkscape:connector-curvature="0" />
        </g>
        <g
           id="patch_50"
           style="stroke-linecap:butt;stroke-linejoin:round">
          <path
             id="path153"
             style="fill:#ff0000;stroke:#000000;stroke-linecap:butt;stroke-linejoin:miter"
             d="m 73.908662,175.36839 h 2.543917 v -3.87133 h -2.543917 z"
             clip-path="url(#pc1ee8b21aa)"
             inkscape:connector-curvature="0" />
        </g>
        <g
           id="patch_51"
           style="stroke-linecap:butt;stroke-linejoin:round">
          <path
             id="path156"
             style="fill:#ff0000;stroke:#000000;stroke-linecap:butt;stroke-linejoin:miter"
             d="m 233.78245,222.98275 h 2.49594 v -1.93979 h -2.49594 z"
             clip-path="url(#pc1ee8b21aa)"
             inkscape:connector-curvature="0" />
        </g>
        <g
           id="patch_52"
           style="stroke-linecap:butt;stroke-linejoin:round">
          <path
             id="path159"
             style="fill:#ff0000;stroke:#000000;stroke-linecap:butt;stroke-linejoin:miter"
             d="m 238.89726,227.03698 h 2.61887 v -2.11714 h -2.61887 z"
             clip-path="url(#pc1ee8b21aa)"
             inkscape:connector-curvature="0" />
        </g>
        <g
           id="patch_53"
           style="stroke-linecap:butt;stroke-linejoin:round">
          <path
             id="path162"
             style="fill:#ff0000;stroke:#000000;stroke-linecap:butt;stroke-linejoin:miter"
             d="m 228.8988,219.00763 h 2.49438 v -2.12164 h -2.49438 z"
             clip-path="url(#pc1ee8b21aa)"
             inkscape:connector-curvature="0" />
        </g>
        <g
           id="patch_54"
           style="stroke-linecap:butt;stroke-linejoin:round">
          <path
             id="path165"
             style="fill:#ff0000;stroke:#000000;stroke-linecap:butt;stroke-linejoin:miter"
             d="m 223.5175,214.85374 h 2.76394 v -1.93622 h -2.76394 z"
             clip-path="url(#pc1ee8b21aa)"
             inkscape:connector-curvature="0" />
        </g>
        <g
           id="patch_55"
           style="stroke-linecap:butt;stroke-linejoin:round">
          <path
             id="path168"
             style="fill:#008000;stroke:#000000;stroke-linecap:butt;stroke-linejoin:miter"
             d="M 195.68598,199.39373 H 440.55 V 26.88 H 195.68598 Z"
             clip-path="url(#pc1ee8b21aa)"
             inkscape:connector-curvature="0" />
        </g>
        <g
           id="patch_56"
           style="stroke-linecap:butt;stroke-linejoin:round">
          <path
             id="path171"
             style="fill:#008000;stroke:#000000;stroke-linecap:butt;stroke-linejoin:miter"
             d="M 73.908671,168.86033 H 195.68598 V 26.88 H 73.908671 Z"
             clip-path="url(#pc1ee8b21aa)"
             inkscape:connector-curvature="0" />
        </g>
        <g
           id="patch_57"
           style="stroke-linecap:butt;stroke-linejoin:round">
          <path
             id="path174"
             style="fill:#008000;stroke:#000000;stroke-linecap:butt;stroke-linejoin:miter"
             d="M 344.48233,240.29273 H 440.55 v -40.899 h -96.06767 z"
             clip-path="url(#pc1ee8b21aa)"
             inkscape:connector-curvature="0" />
        </g>
        <g
           id="patch_58"
           style="stroke-linecap:butt;stroke-linejoin:round">
          <path
             id="path177"
             style="fill:#008000;stroke:#000000;stroke-linecap:butt;stroke-linejoin:miter"
             d="M 411.56259,259.4071 H 440.55 v -19.11437 h -28.98741 z"
             clip-path="url(#pc1ee8b21aa)"
             inkscape:connector-curvature="0" />
        </g>
        <g
           id="patch_59"
           style="stroke-linecap:butt;stroke-linejoin:round">
          <path
             id="path180"
             style="fill:#008000;stroke:#000000;stroke-linecap:butt;stroke-linejoin:miter"
             d="M 243.91227,227.03698 H 344.48233 V 199.39373 H 243.91227 Z"
             clip-path="url(#pc1ee8b21aa)"
             inkscape:connector-curvature="0" />
        </g>
        <g
           id="patch_60"
           style="stroke-linecap:butt;stroke-linejoin:round">
          <path
             id="path183"
             style="fill:#008000;stroke:#000000;stroke-linecap:butt;stroke-linejoin:miter"
             d="M 90.931303,195.12562 H 195.68598 V 168.86033 H 90.931303 Z"
             clip-path="url(#pc1ee8b21aa)"
             inkscape:connector-curvature="0" />
        </g>
        <g
           id="patch_61"
           style="stroke-linecap:butt;stroke-linejoin:round">
          <path
             id="path186"
             style="fill:#008000;stroke:#000000;stroke-linecap:butt;stroke-linejoin:miter"
             d="M 52.47298,143.09233 H 73.908671 V 26.88 H 52.47298 Z"
             clip-path="url(#pc1ee8b21aa)"
             inkscape:connector-curvature="0" />
        </g>
        <g
           id="patch_62"
           style="stroke-linecap:butt;stroke-linejoin:round">
          <path
             id="path189"
             style="fill:#008000;stroke:#000000;stroke-linecap:butt;stroke-linejoin:miter"
             d="m 223.51751,211.08398 h 20.39476 v -11.69025 h -20.39476 z"
             clip-path="url(#pc1ee8b21aa)"
             inkscape:connector-curvature="0" />
        </g>
        <g
           id="patch_63"
           style="stroke-linecap:butt;stroke-linejoin:round">
          <path
             id="path192"
             style="fill:#008000;stroke:#000000;stroke-linecap:butt;stroke-linejoin:miter"
             d="m 255.9199,238.71006 h 88.56243 V 227.03698 H 255.9199 Z"
             clip-path="url(#pc1ee8b21aa)"
             inkscape:connector-curvature="0" />
        </g>
        <g
           id="patch_64"
           style="stroke-linecap:butt;stroke-linejoin:round">
          <path
             id="path195"
             style="fill:#008000;stroke:#000000;stroke-linecap:butt;stroke-linejoin:miter"
             d="M 436.74193,265.21796 H 440.55 v -5.81086 h -3.80807 z"
             clip-path="url(#pc1ee8b21aa)"
             inkscape:connector-curvature="0" />
        </g>
        <g
           id="patch_65"
           style="stroke-linecap:butt;stroke-linejoin:round">
          <path
             id="path198"
             style="fill:#008000;stroke:#000000;stroke-linecap:butt;stroke-linejoin:miter"
             d="m 386.86323,247.33076 h 24.69936 v -7.03803 h -24.69936 z"
             clip-path="url(#pc1ee8b21aa)"
             inkscape:connector-curvature="0" />
        </g>
        <g
           id="patch_66"
           style="stroke-linecap:butt;stroke-linejoin:round">
          <path
             id="path201"
             style="fill:#008000;stroke:#000000;stroke-linecap:butt;stroke-linejoin:miter"
             d="M 47.854252,139.80987 H 52.47298 V 26.88 h -4.618728 z"
             clip-path="url(#pc1ee8b21aa)"
             inkscape:connector-curvature="0" />
        </g>
        <g
           id="patch_67"
           style="stroke-linecap:butt;stroke-linejoin:round">
          <path
             id="path204"
             style="fill:#008000;stroke:#000000;stroke-linecap:butt;stroke-linejoin:miter"
             d="M 63.470986,155.63954 H 73.908671 V 143.09233 H 63.470986 Z"
             clip-path="url(#pc1ee8b21aa)"
             inkscape:connector-curvature="0" />
        </g>
        <g
           id="patch_68"
           style="stroke-linecap:butt;stroke-linejoin:round">
          <path
             id="path207"
             style="fill:#008000;stroke:#000000;stroke-linecap:butt;stroke-linejoin:miter"
             d="m 82.829349,181.36134 h 8.101954 v -12.50101 h -8.101954 z"
             clip-path="url(#pc1ee8b21aa)"
             inkscape:connector-curvature="0" />
        </g>
        <g
           id="patch_69"
           style="stroke-linecap:butt;stroke-linejoin:round">
          <path
             id="path210"
             style="fill:#008000;stroke:#000000;stroke-linecap:butt;stroke-linejoin:miter"
             d="m 95.736,199.19797 h 99.94998 v -4.07235 H 95.736 Z"
             clip-path="url(#pc1ee8b21aa)"
             inkscape:connector-curvature="0" />
        </g>
        <g
           id="patch_70"
           style="stroke-linecap:butt;stroke-linejoin:round">
          <path
             id="path213"
             style="fill:#008000;stroke:#000000;stroke-linecap:butt;stroke-linejoin:miter"
             d="m 211.90337,204.27209 h 11.61414 v -4.87836 h -11.61414 z"
             clip-path="url(#pc1ee8b21aa)"
             inkscape:connector-curvature="0" />
        </g>
        <g
           id="patch_71"
           style="stroke-linecap:butt;stroke-linejoin:round">
          <path
             id="path216"
             style="fill:#008000;stroke:#000000;stroke-linecap:butt;stroke-linejoin:miter"
             d="m 233.78246,219.00762 h 10.12981 v -7.92364 h -10.12981 z"
             clip-path="url(#pc1ee8b21aa)"
             inkscape:connector-curvature="0" />
        </g>
        <g
           id="patch_72"
           style="stroke-linecap:butt;stroke-linejoin:round">
          <path
             id="path219"
             style="fill:#008000;stroke:#000000;stroke-linecap:butt;stroke-linejoin:miter"
             d="m 399.95757,253.00485 h 11.60502 v -5.67409 h -11.60502 z"
             clip-path="url(#pc1ee8b21aa)"
             inkscape:connector-curvature="0" />
        </g>
        <g
           id="patch_73"
           style="stroke-linecap:butt;stroke-linejoin:round">
          <path
             id="path222"
             style="fill:#008000;stroke:#000000;stroke-linecap:butt;stroke-linejoin:miter"
             d="m 372.5641,242.66733 h 14.29913 v -2.3746 H 372.5641 Z"
             clip-path="url(#pc1ee8b21aa)"
             inkscape:connector-curvature="0" />
        </g>
        <g
           id="patch_74"
           style="stroke-linecap:butt;stroke-linejoin:round">
          <path
             id="path225"
             style="fill:#008000;stroke:#000000;stroke-linecap:butt;stroke-linejoin:miter"
             d="m 418.28964,263.66551 h 18.45229 v -4.25841 h -18.45229 z"
             clip-path="url(#pc1ee8b21aa)"
             inkscape:connector-curvature="0" />
        </g>
        <g
           id="patch_76"
           style="stroke-linecap:butt;stroke-linejoin:round">
          <path
             id="path231"
             style="fill:#008000;stroke:#000000;stroke-linecap:butt;stroke-linejoin:miter"
             d="m 257.22934,240.26934 h 87.25299 v -1.55928 h -87.25299 z"
             clip-path="url(#pc1ee8b21aa)"
             inkscape:connector-curvature="0" />
        </g>
        <g
           id="patch_77"
           style="stroke-linecap:butt;stroke-linejoin:round">
          <path
             id="path234"
             style="fill:#008000;stroke:#000000;stroke-linecap:butt;stroke-linejoin:miter"
             d="m 249.55675,233.22284 h 6.36315 v -6.18586 h -6.36315 z"
             clip-path="url(#pc1ee8b21aa)"
             inkscape:connector-curvature="0" />
        </g>
        <g
           id="patch_78"
           style="stroke-linecap:butt;stroke-linejoin:round">
          <path
             id="path237"
             style="fill:#008000;stroke:#000000;stroke-linecap:butt;stroke-linejoin:miter"
             d="m 58.195477,149.11096 h 5.275509 v -6.01863 h -5.275509 z"
             clip-path="url(#pc1ee8b21aa)"
             inkscape:connector-curvature="0" />
        </g>
        <g
           id="patch_79"
           style="stroke-linecap:butt;stroke-linejoin:round">
          <path
             id="path240"
             style="fill:#008000;stroke:#000000;stroke-linecap:butt;stroke-linejoin:miter"
             d="m 68.67094,162.27386 h 5.237731 v -6.63432 H 68.67094 Z"
             clip-path="url(#pc1ee8b21aa)"
             inkscape:connector-curvature="0" />
        </g>
        <g
           id="patch_80"
           style="stroke-linecap:butt;stroke-linejoin:round">
          <path
             id="path243"
             style="fill:#008000;stroke:#000000;stroke-linecap:butt;stroke-linejoin:miter"
             d="m 78.185228,175.36838 h 4.644121 v -6.50805 h -4.644121 z"
             clip-path="url(#pc1ee8b21aa)"
             inkscape:connector-curvature="0" />
        </g>
        <g
           id="patch_81"
           style="stroke-linecap:butt;stroke-linejoin:round">
          <path
             id="path246"
             style="fill:#008000;stroke:#000000;stroke-linecap:butt;stroke-linejoin:miter"
             d="m 87.003005,188.03506 h 3.928298 v -6.67372 h -3.928298 z"
             clip-path="url(#pc1ee8b21aa)"
             inkscape:connector-curvature="0" />
        </g>
        <g
           id="patch_82"
           style="stroke-linecap:butt;stroke-linejoin:round">
          <path
             id="path249"
             style="fill:#008000;stroke:#000000;stroke-linecap:butt;stroke-linejoin:miter"
             d="m 238.89727,222.98274 h 5.015 v -3.97512 h -5.015 z"
             clip-path="url(#pc1ee8b21aa)"
             inkscape:connector-curvature="0" />
        </g>
        <g
           id="patch_83"
           style="stroke-linecap:butt;stroke-linejoin:round">
          <path
             id="path252"
             style="fill:#008000;stroke:#000000;stroke-linecap:butt;stroke-linejoin:miter"
             d="m 228.89881,214.85373 h 4.88365 v -3.76975 h -4.88365 z"
             clip-path="url(#pc1ee8b21aa)"
             inkscape:connector-curvature="0" />
        </g>
        <g
           id="patch_84"
           style="stroke-linecap:butt;stroke-linejoin:round">
          <path
             id="path255"
             style="fill:#008000;stroke:#000000;stroke-linecap:butt;stroke-linejoin:miter"
             d="m 217.94634,207.53967 h 5.57117 v -3.26758 h -5.57117 z"
             clip-path="url(#pc1ee8b21aa)"
             inkscape:connector-curvature="0" />
        </g>
        <g
           id="patch_85"
           style="stroke-linecap:butt;stroke-linejoin:round">
          <path
             id="path258"
             style="fill:#008000;stroke:#000000;stroke-linecap:butt;stroke-linejoin:miter"
             d="m 204.85201,201.51485 h 7.05136 v -2.12112 h -7.05136 z"
             clip-path="url(#pc1ee8b21aa)"
             inkscape:connector-curvature="0" />
        </g>
        <g
           id="patch_86"
           style="stroke-linecap:butt;stroke-linejoin:round">
          <path
             id="path261"
             style="fill:#008000;stroke:#000000;stroke-linecap:butt;stroke-linejoin:miter"
             d="m 393.41041,250.1678 h 6.54716 v -2.83704 h -6.54716 z"
             clip-path="url(#pc1ee8b21aa)"
             inkscape:connector-curvature="0" />
        </g>
        <g
           id="patch_87"
           style="stroke-linecap:butt;stroke-linejoin:round">
          <path
             id="path264"
             style="fill:#008000;stroke:#000000;stroke-linecap:butt;stroke-linejoin:miter"
             d="m 405.31492,256.45156 h 6.24767 v -3.44671 h -6.24767 z"
             clip-path="url(#pc1ee8b21aa)"
             inkscape:connector-curvature="0" />
        </g>
        <g
           id="patch_88"
           style="stroke-linecap:butt;stroke-linejoin:round">
          <path
             id="path267"
             style="fill:#008000;stroke:#000000;stroke-linecap:butt;stroke-linejoin:miter"
             d="m 364.60287,240.96594 h 7.96123 v -0.67321 h -7.96123 z"
             clip-path="url(#pc1ee8b21aa)"
             inkscape:connector-curvature="0" />
        </g>
        <g
           id="patch_89"
           style="stroke-linecap:butt;stroke-linejoin:round">
          <path
             id="path270"
             style="fill:#008000;stroke:#000000;stroke-linecap:butt;stroke-linejoin:miter"
             d="m 380.31607,244.80258 h 6.54716 v -2.13525 h -6.54716 z"
             clip-path="url(#pc1ee8b21aa)"
             inkscape:connector-curvature="0" />
        </g>
        <g
           id="patch_90"
           style="stroke-linecap:butt;stroke-linejoin:round">
          <path
             id="path273"
             style="fill:#008000;stroke:#000000;stroke-linecap:butt;stroke-linejoin:miter"
             d="m 252.96275,235.77291 h 2.95715 v -2.55007 h -2.95715 z"
             clip-path="url(#pc1ee8b21aa)"
             inkscape:connector-curvature="0" />
        </g>
        <g
           id="patch_91"
           style="stroke-linecap:butt;stroke-linejoin:round">
          <path
             id="path276"
             style="fill:#008000;stroke:#000000;stroke-linecap:butt;stroke-linejoin:miter"
             d="m 246.75387,230.10869 h 2.80288 v -3.07171 h -2.80288 z"
             clip-path="url(#pc1ee8b21aa)"
             inkscape:connector-curvature="0" />
        </g>
        <g
           id="patch_92"
           style="stroke-linecap:butt;stroke-linejoin:round">
          <path
             id="path279"
             style="fill:#008000;stroke:#000000;stroke-linecap:butt;stroke-linejoin:miter"
             d="m 66.10582,158.91223 h 2.56512 v -3.27269 h -2.56512 z"
             clip-path="url(#pc1ee8b21aa)"
             inkscape:connector-curvature="0" />
        </g>
        <g
           id="patch_93"
           style="stroke-linecap:butt;stroke-linejoin:round">
          <path
             id="path282"
             style="fill:#008000;stroke:#000000;stroke-linecap:butt;stroke-linejoin:miter"
             d="m 71.289801,165.5671 h 2.61887 v -3.29324 h -2.61887 z"
             clip-path="url(#pc1ee8b21aa)"
             inkscape:connector-curvature="0" />
        </g>
        <g
           id="patch_94"
           style="stroke-linecap:butt;stroke-linejoin:round">
          <path
             id="path285"
             style="fill:#008000;stroke:#000000;stroke-linecap:butt;stroke-linejoin:miter"
             d="m 55.576608,145.84673 h 2.618869 v -2.7544 h -2.618869 z"
             clip-path="url(#pc1ee8b21aa)"
             inkscape:connector-curvature="0" />
        </g>
        <g
           id="patch_95"
           style="stroke-linecap:butt;stroke-linejoin:round">
          <path
             id="path288"
             style="fill:#008000;stroke:#000000;stroke-linecap:butt;stroke-linejoin:miter"
             d="m 60.81434,152.39863 h 2.656646 v -3.28767 H 60.81434 Z"
             clip-path="url(#pc1ee8b21aa)"
             inkscape:connector-curvature="0" />
        </g>
        <g
           id="patch_96"
           style="stroke-linecap:butt;stroke-linejoin:round">
          <path
             id="path291"
             style="fill:#008000;stroke:#000000;stroke-linecap:butt;stroke-linejoin:miter"
             d="m 414.66681,261.70045 h 3.62283 v -2.29335 h -3.62283 z"
             clip-path="url(#pc1ee8b21aa)"
             inkscape:connector-curvature="0" />
        </g>
        <g
           id="patch_97"
           style="stroke-linecap:butt;stroke-linejoin:round">
          <path
             id="path294"
             style="fill:#008000;stroke:#000000;stroke-linecap:butt;stroke-linejoin:miter"
             d="m 420.9085,264.99763 h 15.83343 v -1.33212 H 420.9085 Z"
             clip-path="url(#pc1ee8b21aa)"
             inkscape:connector-curvature="0" />
        </g>
        <g
           id="patch_98"
           style="stroke-linecap:butt;stroke-linejoin:round">
          <path
             id="path297"
             style="fill:#008000;stroke:#000000;stroke-linecap:butt;stroke-linejoin:miter"
             d="m 84.437755,185.4632 h 2.56525 v -4.10186 h -2.56525 z"
             clip-path="url(#pc1ee8b21aa)"
             inkscape:connector-curvature="0" />
        </g>
        <g
           id="patch_99"
           style="stroke-linecap:butt;stroke-linejoin:round">
          <path
             id="path300"
             style="fill:#008000;stroke:#000000;stroke-linecap:butt;stroke-linejoin:miter"
             d="m 88.87526,191.7462 h 2.056043 v -3.71114 H 88.87526 Z"
             clip-path="url(#pc1ee8b21aa)"
             inkscape:connector-curvature="0" />
        </g>
        <g
           id="patch_100"
           style="stroke-linecap:butt;stroke-linejoin:round">
          <path
             id="path303"
             style="fill:#008000;stroke:#000000;stroke-linecap:butt;stroke-linejoin:miter"
             d="m 80.455837,178.43125 h 2.373512 v -3.06287 h -2.373512 z"
             clip-path="url(#pc1ee8b21aa)"
             inkscape:connector-curvature="0" />
        </g>
        <g
           id="patch_101"
           style="stroke-linecap:butt;stroke-linejoin:round">
          <path
             id="path306"
             style="fill:#008000;stroke:#000000;stroke-linecap:butt;stroke-linejoin:miter"
             d="m 76.452588,171.49705 h 1.73264 v -2.63672 h -1.73264 z"
             clip-path="url(#pc1ee8b21aa)"
             inkscape:connector-curvature="0" />
        </g>
        <g
           id="patch_102"
           style="stroke-linecap:butt;stroke-linejoin:round">
          <path
             id="path309"
             style="fill:#008000;stroke:#000000;stroke-linecap:butt;stroke-linejoin:miter"
             d="m 236.2784,221.04295 h 2.61887 v -2.03533 h -2.61887 z"
             clip-path="url(#pc1ee8b21aa)"
             inkscape:connector-curvature="0" />
        </g>
        <g
           id="patch_103"
           style="stroke-linecap:butt;stroke-linejoin:round">
          <path
             id="path312"
             style="fill:#008000;stroke:#000000;stroke-linecap:butt;stroke-linejoin:miter"
             d="m 241.51614,224.91983 h 2.39613 v -1.93709 h -2.39613 z"
             clip-path="url(#pc1ee8b21aa)"
             inkscape:connector-curvature="0" />
        </g>
        <g
           id="patch_104"
           style="stroke-linecap:butt;stroke-linejoin:round">
          <path
             id="path315"
             style="fill:#008000;stroke:#000000;stroke-linecap:butt;stroke-linejoin:miter"
             d="m 231.39318,216.88598 h 2.38928 v -2.03225 h -2.38928 z"
             clip-path="url(#pc1ee8b21aa)"
             inkscape:connector-curvature="0" />
        </g>
        <g
           id="patch_105"
           style="stroke-linecap:butt;stroke-linejoin:round">
          <path
             id="path318"
             style="fill:#008000;stroke:#000000;stroke-linecap:butt;stroke-linejoin:miter"
             d="m 226.28145,212.91751 h 2.61736 v -1.83353 h -2.61736 z"
             clip-path="url(#pc1ee8b21aa)"
             inkscape:connector-curvature="0" />
        </g>
        <g
           id="matplotlib.axis_1"
           style="stroke-linecap:butt;stroke-linejoin:round">
          <g
             id="xtick_1"
             style="stroke-linecap:butt;stroke-linejoin:round">
            <g
               id="line2d_1"
               style="stroke-linecap:butt;stroke-linejoin:round">
              <defs
                 id="defs322">
                <path
                   style="stroke:#000000;stroke-width:0.80000001;stroke-linecap:butt;stroke-linejoin:round"
                   id="m4d93f3fabd"
                   d="M 0,0 V 3.5"
                   inkscape:connector-curvature="0" />
              </defs>
              <g
                 id="g326"
                 style="stroke-linecap:butt;stroke-linejoin:round">
                <use
                   id="use324"
                   y="303.64001"
                   xlink:href="#m4d93f3fabd"
                   x="47.720001"
                   style="stroke:#000000;stroke-width:0.80000001;stroke-linecap:butt;stroke-linejoin:round"
                   width="100%"
                   height="100%" />
              </g>
            </g>
            <g
               id="text_1"
               style="stroke-linecap:butt;stroke-linejoin:round">
              <!-- 0 -->
              <defs
                 id="defs330">
                <path
                   id="DejaVuSans-48"
                   d="m 31.78125,66.40625 q -7.609375,0 -11.453125,-7.5 Q 16.5,51.421875 16.5,36.375 q 0,-14.984375 3.828125,-22.484375 3.84375,-7.5 11.453125,-7.5 7.671875,0 11.5,7.5 3.84375,7.5 3.84375,22.484375 0,15.046875 -3.84375,22.53125 -3.828125,7.5 -11.5,7.5 z m 0,7.8125 q 12.265625,0 18.734375,-9.703125 6.46875,-9.6875 6.46875,-28.140625 0,-18.40625 -6.46875,-28.109375 -6.46875,-9.6875 -18.734375,-9.6875 -12.25,0 -18.71875,9.6875 Q 6.59375,17.96875 6.59375,36.375 q 0,18.453125 6.46875,28.140625 6.46875,9.703125 18.71875,9.703125 z"
                   inkscape:connector-curvature="0"
                   style="stroke-linecap:butt;stroke-linejoin:round" />
              </defs>
              <g
                 id="g334"
                 transform="matrix(0.1,0,0,-0.1,44.53875,318.23844)"
                 style="stroke-linecap:butt;stroke-linejoin:round">
                <use
                   id="use332"
                   xlink:href="#DejaVuSans-48"
                   style="stroke-linecap:butt;stroke-linejoin:round"
                   x="0"
                   y="0"
                   width="100%"
                   height="100%" />
              </g>
            </g>
          </g>
          <g
             id="xtick_2"
             style="stroke-linecap:butt;stroke-linejoin:round">
            <g
               id="line2d_2"
               style="stroke-linecap:butt;stroke-linejoin:round">
              <g
                 id="g340"
                 style="stroke-linecap:butt;stroke-linejoin:round">
                <use
                   id="use338"
                   y="303.64001"
                   xlink:href="#m4d93f3fabd"
                   x="113.19167"
                   style="stroke:#000000;stroke-width:0.80000001;stroke-linecap:butt;stroke-linejoin:round"
                   width="100%"
                   height="100%" />
              </g>
            </g>
            <g
               id="text_2"
               style="stroke-linecap:butt;stroke-linejoin:round">
              <!-- 50 -->
              <defs
                 id="defs344">
                <path
                   id="DejaVuSans-53"
                   d="m 10.796875,72.90625 h 38.71875 v -8.3125 h -29.6875 V 46.734375 q 2.140625,0.734375 4.28125,1.09375 2.15625,0.359375 4.3125,0.359375 Q 40.625,48.1875 47.75,41.5 54.890625,34.8125 54.890625,23.390625 54.890625,11.625 47.5625,5.09375 40.234375,-1.421875 26.90625,-1.421875 q -4.59375,0 -9.359375,0.78125 -4.75,0.78125 -9.828125,2.34375 V 11.625 q 4.390625,-2.390625 9.078125,-3.5625 4.6875,-1.171875 9.90625,-1.171875 8.453125,0 13.375,4.4375 4.9375,4.4375 4.9375,12.0625 0,7.609375 -4.9375,12.046875 -4.921875,4.453125 -13.375,4.453125 -3.953125,0 -7.890625,-0.875 -3.921875,-0.875 -8.015625,-2.734375 z"
                   inkscape:connector-curvature="0"
                   style="stroke-linecap:butt;stroke-linejoin:round" />
              </defs>
              <g
                 id="g350"
                 transform="matrix(0.1,0,0,-0.1,106.82917,318.23844)"
                 style="stroke-linecap:butt;stroke-linejoin:round">
                <use
                   id="use346"
                   xlink:href="#DejaVuSans-53"
                   style="stroke-linecap:butt;stroke-linejoin:round"
                   x="0"
                   y="0"
                   width="100%"
                   height="100%" />
                <use
                   id="use348"
                   xlink:href="#DejaVuSans-48"
                   x="63.623047"
                   style="stroke-linecap:butt;stroke-linejoin:round"
                   y="0"
                   width="100%"
                   height="100%" />
              </g>
            </g>
          </g>
          <g
             id="xtick_3"
             style="stroke-linecap:butt;stroke-linejoin:round">
            <g
               id="line2d_3"
               style="stroke-linecap:butt;stroke-linejoin:round">
              <g
                 id="g356"
                 style="stroke-linecap:butt;stroke-linejoin:round">
                <use
                   id="use354"
                   y="303.64001"
                   xlink:href="#m4d93f3fabd"
                   x="178.66333"
                   style="stroke:#000000;stroke-width:0.80000001;stroke-linecap:butt;stroke-linejoin:round"
                   width="100%"
                   height="100%" />
              </g>
            </g>
            <g
               id="text_3"
               style="stroke-linecap:butt;stroke-linejoin:round">
              <!-- 100 -->
              <defs
                 id="defs360">
                <path
                   id="DejaVuSans-49"
                   d="m 12.40625,8.296875 h 16.109375 v 55.625 L 10.984375,60.40625 v 8.984375 l 17.4375,3.515625 H 38.28125 V 8.296875 H 54.390625 V 0 H 12.40625 Z"
                   inkscape:connector-curvature="0"
                   style="stroke-linecap:butt;stroke-linejoin:round" />
              </defs>
              <g
                 id="g368"
                 transform="matrix(0.1,0,0,-0.1,169.11958,318.23844)"
                 style="stroke-linecap:butt;stroke-linejoin:round">
                <use
                   id="use362"
                   xlink:href="#DejaVuSans-49"
                   style="stroke-linecap:butt;stroke-linejoin:round"
                   x="0"
                   y="0"
                   width="100%"
                   height="100%" />
                <use
                   id="use364"
                   xlink:href="#DejaVuSans-48"
                   x="63.623047"
                   style="stroke-linecap:butt;stroke-linejoin:round"
                   y="0"
                   width="100%"
                   height="100%" />
                <use
                   id="use366"
                   xlink:href="#DejaVuSans-48"
                   x="127.24609"
                   style="stroke-linecap:butt;stroke-linejoin:round"
                   y="0"
                   width="100%"
                   height="100%" />
              </g>
            </g>
          </g>
          <g
             id="xtick_4"
             style="stroke-linecap:butt;stroke-linejoin:round">
            <g
               id="line2d_4"
               style="stroke-linecap:butt;stroke-linejoin:round">
              <g
                 id="g374"
                 style="stroke-linecap:butt;stroke-linejoin:round">
                <use
                   id="use372"
                   y="303.64001"
                   xlink:href="#m4d93f3fabd"
                   x="244.13499"
                   style="stroke:#000000;stroke-width:0.80000001;stroke-linecap:butt;stroke-linejoin:round"
                   width="100%"
                   height="100%" />
              </g>
            </g>
            <g
               id="text_4"
               style="stroke-linecap:butt;stroke-linejoin:round">
              <!-- 150 -->
              <g
                 id="g383"
                 transform="matrix(0.1,0,0,-0.1,234.59125,318.23844)"
                 style="stroke-linecap:butt;stroke-linejoin:round">
                <use
                   id="use377"
                   xlink:href="#DejaVuSans-49"
                   style="stroke-linecap:butt;stroke-linejoin:round"
                   x="0"
                   y="0"
                   width="100%"
                   height="100%" />
                <use
                   id="use379"
                   xlink:href="#DejaVuSans-53"
                   x="63.623047"
                   style="stroke-linecap:butt;stroke-linejoin:round"
                   y="0"
                   width="100%"
                   height="100%" />
                <use
                   id="use381"
                   xlink:href="#DejaVuSans-48"
                   x="127.24609"
                   style="stroke-linecap:butt;stroke-linejoin:round"
                   y="0"
                   width="100%"
                   height="100%" />
              </g>
            </g>
          </g>
          <g
             id="xtick_5"
             style="stroke-linecap:butt;stroke-linejoin:round">
            <g
               id="line2d_5"
               style="stroke-linecap:butt;stroke-linejoin:round">
              <g
                 id="g389"
                 style="stroke-linecap:butt;stroke-linejoin:round">
                <use
                   id="use387"
                   y="303.64001"
                   xlink:href="#m4d93f3fabd"
                   x="309.60666"
                   style="stroke:#000000;stroke-width:0.80000001;stroke-linecap:butt;stroke-linejoin:round"
                   width="100%"
                   height="100%" />
              </g>
            </g>
            <g
               id="text_5"
               style="stroke-linecap:butt;stroke-linejoin:round">
              <!-- 200 -->
              <defs
                 id="defs393">
                <path
                   id="DejaVuSans-50"
                   d="M 19.1875,8.296875 H 53.609375 V 0 H 7.328125 v 8.296875 q 5.609375,5.8125 15.296875,15.59375 9.703125,9.796875 12.1875,12.640625 4.734375,5.3125 6.609375,9 1.890625,3.6875 1.890625,7.25 0,5.8125 -4.078125,9.46875 -4.078125,3.671875 -10.625,3.671875 -4.640625,0 -9.796875,-1.609375 -5.140625,-1.609375 -11,-4.890625 v 9.96875 Q 13.765625,71.78125 18.9375,73 q 5.1875,1.21875 9.484375,1.21875 11.328125,0 18.0625,-5.671875 6.734375,-5.65625 6.734375,-15.125 0,-4.5 -1.6875,-8.53125 Q 49.859375,40.875 45.40625,35.40625 44.1875,33.984375 37.640625,27.21875 31.109375,20.453125 19.1875,8.296875 Z"
                   inkscape:connector-curvature="0"
                   style="stroke-linecap:butt;stroke-linejoin:round" />
              </defs>
              <g
                 id="g401"
                 transform="matrix(0.1,0,0,-0.1,300.06292,318.23844)"
                 style="stroke-linecap:butt;stroke-linejoin:round">
                <use
                   id="use395"
                   xlink:href="#DejaVuSans-50"
                   style="stroke-linecap:butt;stroke-linejoin:round"
                   x="0"
                   y="0"
                   width="100%"
                   height="100%" />
                <use
                   id="use397"
                   xlink:href="#DejaVuSans-48"
                   x="63.623047"
                   style="stroke-linecap:butt;stroke-linejoin:round"
                   y="0"
                   width="100%"
                   height="100%" />
                <use
                   id="use399"
                   xlink:href="#DejaVuSans-48"
                   x="127.24609"
                   style="stroke-linecap:butt;stroke-linejoin:round"
                   y="0"
                   width="100%"
                   height="100%" />
              </g>
            </g>
          </g>
          <g
             id="xtick_6"
             style="stroke-linecap:butt;stroke-linejoin:round">
            <g
               id="line2d_6"
               style="stroke-linecap:butt;stroke-linejoin:round">
              <g
                 id="g407"
                 style="stroke-linecap:butt;stroke-linejoin:round">
                <use
                   id="use405"
                   y="303.64001"
                   xlink:href="#m4d93f3fabd"
                   x="375.07834"
                   style="stroke:#000000;stroke-width:0.80000001;stroke-linecap:butt;stroke-linejoin:round"
                   width="100%"
                   height="100%" />
              </g>
            </g>
            <g
               id="text_6"
               style="stroke-linecap:butt;stroke-linejoin:round">
              <!-- 250 -->
              <g
                 id="g416"
                 transform="matrix(0.1,0,0,-0.1,365.53458,318.23844)"
                 style="stroke-linecap:butt;stroke-linejoin:round">
                <use
                   id="use410"
                   xlink:href="#DejaVuSans-50"
                   style="stroke-linecap:butt;stroke-linejoin:round"
                   x="0"
                   y="0"
                   width="100%"
                   height="100%" />
                <use
                   id="use412"
                   xlink:href="#DejaVuSans-53"
                   x="63.623047"
                   style="stroke-linecap:butt;stroke-linejoin:round"
                   y="0"
                   width="100%"
                   height="100%" />
                <use
                   id="use414"
                   xlink:href="#DejaVuSans-48"
                   x="127.24609"
                   style="stroke-linecap:butt;stroke-linejoin:round"
                   y="0"
                   width="100%"
                   height="100%" />
              </g>
            </g>
          </g>
          <g
             id="xtick_7"
             style="stroke-linecap:butt;stroke-linejoin:round">
            <g
               id="line2d_7"
               style="stroke-linecap:butt;stroke-linejoin:round">
              <g
                 id="g422"
                 style="stroke-linecap:butt;stroke-linejoin:round">
                <use
                   id="use420"
                   y="303.64001"
                   xlink:href="#m4d93f3fabd"
                   x="440.54999"
                   style="stroke:#000000;stroke-width:0.80000001;stroke-linecap:butt;stroke-linejoin:round"
                   width="100%"
                   height="100%" />
              </g>
            </g>
            <g
               id="text_7"
               style="stroke-linecap:butt;stroke-linejoin:round">
              <!-- 300 -->
              <defs
                 id="defs426">
                <path
                   id="DejaVuSans-51"
                   d="M 40.578125,39.3125 Q 47.65625,37.796875 51.625,33 q 3.984375,-4.78125 3.984375,-11.8125 0,-10.78125 -7.421875,-16.703125 -7.421875,-5.90625 -21.09375,-5.90625 -4.578125,0 -9.4375,0.90625 -4.859375,0.90625 -10.03125,2.71875 v 9.515625 q 4.09375,-2.390625 8.96875,-3.609375 4.890625,-1.21875 10.21875,-1.21875 9.265625,0 14.125,3.65625 4.859375,3.65625 4.859375,10.640625 0,6.453125 -4.515625,10.078125 -4.515625,3.640625 -12.5625,3.640625 h -8.5 v 8.109375 h 8.890625 q 7.265625,0 11.125,2.90625 3.859375,2.90625 3.859375,8.375 0,5.609375 -3.984375,8.609375 -3.96875,3.015625 -11.390625,3.015625 -4.0625,0 -8.703125,-0.890625 Q 15.375,64.15625 9.8125,62.3125 v 8.78125 q 5.625,1.5625 10.53125,2.34375 4.90625,0.78125 9.25,0.78125 11.234375,0 17.765625,-5.109375 6.546875,-5.09375 6.546875,-13.78125 0,-6.0625 -3.46875,-10.234375 -3.46875,-4.171875 -9.859375,-5.78125 z"
                   inkscape:connector-curvature="0"
                   style="stroke-linecap:butt;stroke-linejoin:round" />
              </defs>
              <g
                 id="g434"
                 transform="matrix(0.1,0,0,-0.1,431.00625,318.23844)"
                 style="stroke-linecap:butt;stroke-linejoin:round">
                <use
                   id="use428"
                   xlink:href="#DejaVuSans-51"
                   style="stroke-linecap:butt;stroke-linejoin:round"
                   x="0"
                   y="0"
                   width="100%"
                   height="100%" />
                <use
                   id="use430"
                   xlink:href="#DejaVuSans-48"
                   x="63.623047"
                   style="stroke-linecap:butt;stroke-linejoin:round"
                   y="0"
                   width="100%"
                   height="100%" />
                <use
                   id="use432"
                   xlink:href="#DejaVuSans-48"
                   x="127.24609"
                   style="stroke-linecap:butt;stroke-linejoin:round"
                   y="0"
                   width="100%"
                   height="100%" />
              </g>
            </g>
          </g>
          <g
             id="text_8"
             style="stroke-linecap:butt;stroke-linejoin:round">
            <!-- p1 -->
            <defs
               id="defs439">
              <path
                 id="DejaVuSans-112"
                 d="m 18.109375,8.203125 v -29 H 9.078125 V 54.6875 h 9.03125 v -8.296875 q 2.84375,4.875 7.15625,7.234375 Q 29.59375,56 35.59375,56 q 9.96875,0 16.1875,-7.90625 6.234375,-7.90625 6.234375,-20.796875 0,-12.890625 -6.234375,-20.8125 -6.21875,-7.90625 -16.1875,-7.90625 -6,0 -10.328125,2.375 -4.3125,2.375 -7.15625,7.25 z M 48.6875,27.296875 q 0,9.90625 -4.078125,15.546875 -4.078125,5.640625 -11.203125,5.640625 -7.140625,0 -11.21875,-5.640625 -4.078125,-5.640625 -4.078125,-15.546875 0,-9.90625 4.078125,-15.546875 4.078125,-5.640625 11.21875,-5.640625 7.125,0 11.203125,5.640625 4.078125,5.640625 4.078125,15.546875 z"
                 inkscape:connector-curvature="0"
                 style="stroke-linecap:butt;stroke-linejoin:round" />
            </defs>
            <g
               id="g445"
               transform="matrix(0.1,0,0,-0.1,237.77953,331.91656)"
               style="stroke-linecap:butt;stroke-linejoin:round">
              <use
                 id="use441"
                 xlink:href="#DejaVuSans-112"
                 style="stroke-linecap:butt;stroke-linejoin:round"
                 x="0"
                 y="0"
                 width="100%"
                 height="100%" />
              <use
                 id="use443"
                 xlink:href="#DejaVuSans-49"
                 x="63.476562"
                 style="stroke-linecap:butt;stroke-linejoin:round"
                 y="0"
                 width="100%"
                 height="100%" />
            </g>
          </g>
        </g>
        <g
           id="matplotlib.axis_2"
           style="stroke-linecap:butt;stroke-linejoin:round">
          <g
             id="ytick_1"
             style="stroke-linecap:butt;stroke-linejoin:round">
            <g
               id="line2d_8"
               style="stroke-linecap:butt;stroke-linejoin:round">
              <defs
                 id="defs450">
                <path
                   style="stroke:#000000;stroke-width:0.80000001;stroke-linecap:butt;stroke-linejoin:round"
                   id="m19e3dad4da"
                   d="M 0,0 H -3.5"
                   inkscape:connector-curvature="0" />
              </defs>
              <g
                 id="g454"
                 style="stroke-linecap:butt;stroke-linejoin:round">
                <use
                   id="use452"
                   y="303.64001"
                   xlink:href="#m19e3dad4da"
                   x="47.720001"
                   style="stroke:#000000;stroke-width:0.80000001;stroke-linecap:butt;stroke-linejoin:round"
                   width="100%"
                   height="100%" />
              </g>
            </g>
            <g
               id="text_9"
               style="stroke-linecap:butt;stroke-linejoin:round">
              <!-- 0.0 -->
              <defs
                 id="defs458">
                <path
                   id="DejaVuSans-46"
                   d="M 10.6875,12.40625 H 21 V 0 H 10.6875 Z"
                   inkscape:connector-curvature="0"
                   style="stroke-linecap:butt;stroke-linejoin:round" />
              </defs>
              <g
                 id="g466"
                 transform="matrix(0.1,0,0,-0.1,24.816875,307.43922)"
                 style="stroke-linecap:butt;stroke-linejoin:round">
                <use
                   id="use460"
                   xlink:href="#DejaVuSans-48"
                   style="stroke-linecap:butt;stroke-linejoin:round"
                   x="0"
                   y="0"
                   width="100%"
                   height="100%" />
                <use
                   id="use462"
                   xlink:href="#DejaVuSans-46"
                   x="63.623047"
                   style="stroke-linecap:butt;stroke-linejoin:round"
                   y="0"
                   width="100%"
                   height="100%" />
                <use
                   id="use464"
                   xlink:href="#DejaVuSans-48"
                   x="95.410156"
                   style="stroke-linecap:butt;stroke-linejoin:round"
                   y="0"
                   width="100%"
                   height="100%" />
              </g>
            </g>
          </g>
          <g
             id="ytick_2"
             style="stroke-linecap:butt;stroke-linejoin:round">
            <g
               id="line2d_9"
               style="stroke-linecap:butt;stroke-linejoin:round">
              <g
                 id="g472"
                 style="stroke-linecap:butt;stroke-linejoin:round">
                <use
                   id="use470"
                   y="248.28799"
                   xlink:href="#m19e3dad4da"
                   x="47.720001"
                   style="stroke:#000000;stroke-width:0.80000001;stroke-linecap:butt;stroke-linejoin:round"
                   width="100%"
                   height="100%" />
              </g>
            </g>
            <g
               id="text_10"
               style="stroke-linecap:butt;stroke-linejoin:round">
              <!-- 0.2 -->
              <g
                 id="g481"
                 transform="matrix(0.1,0,0,-0.1,24.816875,252.08722)"
                 style="stroke-linecap:butt;stroke-linejoin:round">
                <use
                   id="use475"
                   xlink:href="#DejaVuSans-48"
                   style="stroke-linecap:butt;stroke-linejoin:round"
                   x="0"
                   y="0"
                   width="100%"
                   height="100%" />
                <use
                   id="use477"
                   xlink:href="#DejaVuSans-46"
                   x="63.623047"
                   style="stroke-linecap:butt;stroke-linejoin:round"
                   y="0"
                   width="100%"
                   height="100%" />
                <use
                   id="use479"
                   xlink:href="#DejaVuSans-50"
                   x="95.410156"
                   style="stroke-linecap:butt;stroke-linejoin:round"
                   y="0"
                   width="100%"
                   height="100%" />
              </g>
            </g>
          </g>
          <g
             id="ytick_3"
             style="stroke-linecap:butt;stroke-linejoin:round">
            <g
               id="line2d_10"
               style="stroke-linecap:butt;stroke-linejoin:round">
              <g
                 id="g487"
                 style="stroke-linecap:butt;stroke-linejoin:round">
                <use
                   id="use485"
                   y="192.936"
                   xlink:href="#m19e3dad4da"
                   x="47.720001"
                   style="stroke:#000000;stroke-width:0.80000001;stroke-linecap:butt;stroke-linejoin:round"
                   width="100%"
                   height="100%" />
              </g>
            </g>
            <g
               id="text_11"
               style="stroke-linecap:butt;stroke-linejoin:round">
              <!-- 0.4 -->
              <defs
                 id="defs491">
                <path
                   id="DejaVuSans-52"
                   d="M 37.796875,64.3125 12.890625,25.390625 h 24.90625 z m -2.59375,8.59375 h 12.40625 V 25.390625 h 10.40625 V 17.1875 H 47.609375 V 0 h -9.8125 V 17.1875 H 4.890625 v 9.515625 z"
                   inkscape:connector-curvature="0"
                   style="stroke-linecap:butt;stroke-linejoin:round" />
              </defs>
              <g
                 id="g499"
                 transform="matrix(0.1,0,0,-0.1,24.816875,196.73522)"
                 style="stroke-linecap:butt;stroke-linejoin:round">
                <use
                   id="use493"
                   xlink:href="#DejaVuSans-48"
                   style="stroke-linecap:butt;stroke-linejoin:round"
                   x="0"
                   y="0"
                   width="100%"
                   height="100%" />
                <use
                   id="use495"
                   xlink:href="#DejaVuSans-46"
                   x="63.623047"
                   style="stroke-linecap:butt;stroke-linejoin:round"
                   y="0"
                   width="100%"
                   height="100%" />
                <use
                   id="use497"
                   xlink:href="#DejaVuSans-52"
                   x="95.410156"
                   style="stroke-linecap:butt;stroke-linejoin:round"
                   y="0"
                   width="100%"
                   height="100%" />
              </g>
            </g>
          </g>
          <g
             id="ytick_4"
             style="stroke-linecap:butt;stroke-linejoin:round">
            <g
               id="line2d_11"
               style="stroke-linecap:butt;stroke-linejoin:round">
              <g
                 id="g505"
                 style="stroke-linecap:butt;stroke-linejoin:round">
                <use
                   id="use503"
                   y="137.584"
                   xlink:href="#m19e3dad4da"
                   x="47.720001"
                   style="stroke:#000000;stroke-width:0.80000001;stroke-linecap:butt;stroke-linejoin:round"
                   width="100%"
                   height="100%" />
              </g>
            </g>
            <g
               id="text_12"
               style="stroke-linecap:butt;stroke-linejoin:round">
              <!-- 0.6 -->
              <defs
                 id="defs509">
                <path
                   id="DejaVuSans-54"
                   d="m 33.015625,40.375 q -6.640625,0 -10.53125,-4.546875 -3.875,-4.53125 -3.875,-12.4375 0,-7.859375 3.875,-12.4375 3.890625,-4.5625 10.53125,-4.5625 6.640625,0 10.515625,4.5625 3.875,4.578125 3.875,12.4375 0,7.90625 -3.875,12.4375 Q 39.65625,40.375 33.015625,40.375 Z M 52.59375,71.296875 V 62.3125 q -3.71875,1.75 -7.5,2.671875 -3.78125,0.9375 -7.5,0.9375 -9.765625,0 -14.921875,-6.59375 -5.140625,-6.59375 -5.875,-19.921875 2.875,4.25 7.21875,6.515625 4.359375,2.265625 9.578125,2.265625 10.984375,0 17.359375,-6.671875 6.375,-6.65625 6.375,-18.125 0,-11.234375 -6.640625,-18.03125 -6.640625,-6.78125 -17.671875,-6.78125 -12.65625,0 -19.34375,9.6875 -6.6875,9.703125 -6.6875,28.109375 0,17.28125 8.203125,27.5625 8.203125,10.28125 22.015625,10.28125 3.71875,0 7.5,-0.734375 3.78125,-0.734375 7.890625,-2.1875 z"
                   inkscape:connector-curvature="0"
                   style="stroke-linecap:butt;stroke-linejoin:round" />
              </defs>
              <g
                 id="g517"
                 transform="matrix(0.1,0,0,-0.1,24.816875,141.38322)"
                 style="stroke-linecap:butt;stroke-linejoin:round">
                <use
                   id="use511"
                   xlink:href="#DejaVuSans-48"
                   style="stroke-linecap:butt;stroke-linejoin:round"
                   x="0"
                   y="0"
                   width="100%"
                   height="100%" />
                <use
                   id="use513"
                   xlink:href="#DejaVuSans-46"
                   x="63.623047"
                   style="stroke-linecap:butt;stroke-linejoin:round"
                   y="0"
                   width="100%"
                   height="100%" />
                <use
                   id="use515"
                   xlink:href="#DejaVuSans-54"
                   x="95.410156"
                   style="stroke-linecap:butt;stroke-linejoin:round"
                   y="0"
                   width="100%"
                   height="100%" />
              </g>
            </g>
          </g>
          <g
             id="ytick_5"
             style="stroke-linecap:butt;stroke-linejoin:round">
            <g
               id="line2d_12"
               style="stroke-linecap:butt;stroke-linejoin:round">
              <g
                 id="g523"
                 style="stroke-linecap:butt;stroke-linejoin:round">
                <use
                   id="use521"
                   y="82.232002"
                   xlink:href="#m19e3dad4da"
                   x="47.720001"
                   style="stroke:#000000;stroke-width:0.80000001;stroke-linecap:butt;stroke-linejoin:round"
                   width="100%"
                   height="100%" />
              </g>
            </g>
            <g
               id="text_13"
               style="stroke-linecap:butt;stroke-linejoin:round">
              <!-- 0.8 -->
              <defs
                 id="defs527">
                <path
                   id="DejaVuSans-56"
                   d="m 31.78125,34.625 q -7.03125,0 -11.0625,-3.765625 -4.015625,-3.765625 -4.015625,-10.34375 0,-6.59375 4.015625,-10.359375 4.03125,-3.765625 11.0625,-3.765625 7.03125,0 11.078125,3.78125 4.0625,3.796875 4.0625,10.34375 0,6.578125 -4.03125,10.34375 Q 38.875,34.625 31.78125,34.625 Z m -9.859375,4.1875 Q 15.578125,40.375 12.03125,44.71875 8.5,49.078125 8.5,55.328125 q 0,8.734375 6.21875,13.8125 6.234375,5.078125 17.0625,5.078125 10.890625,0 17.09375,-5.078125 6.203125,-5.078125 6.203125,-13.8125 0,-6.25 -3.546875,-10.609375 Q 48,40.375 41.703125,38.8125 q 7.125,-1.65625 11.09375,-6.5 3.984375,-4.828125 3.984375,-11.796875 0,-10.609375 -6.46875,-16.28125 -6.46875,-5.65625 -18.53125,-5.65625 -12.046875,0 -18.53125,5.65625 -6.46875,5.671875 -6.46875,16.28125 0,6.96875 4,11.796875 4.015625,4.84375 11.140625,6.5 z M 18.3125,54.390625 q 0,-5.65625 3.53125,-8.828125 3.546875,-3.171875 9.9375,-3.171875 6.359375,0 9.9375,3.171875 3.59375,3.171875 3.59375,8.828125 0,5.671875 -3.59375,8.84375 -3.578125,3.171875 -9.9375,3.171875 -6.390625,0 -9.9375,-3.171875 Q 18.3125,60.0625 18.3125,54.390625 Z"
                   inkscape:connector-curvature="0"
                   style="stroke-linecap:butt;stroke-linejoin:round" />
              </defs>
              <g
                 id="g535"
                 transform="matrix(0.1,0,0,-0.1,24.816875,86.031219)"
                 style="stroke-linecap:butt;stroke-linejoin:round">
                <use
                   id="use529"
                   xlink:href="#DejaVuSans-48"
                   style="stroke-linecap:butt;stroke-linejoin:round"
                   x="0"
                   y="0"
                   width="100%"
                   height="100%" />
                <use
                   id="use531"
                   xlink:href="#DejaVuSans-46"
                   x="63.623047"
                   style="stroke-linecap:butt;stroke-linejoin:round"
                   y="0"
                   width="100%"
                   height="100%" />
                <use
                   id="use533"
                   xlink:href="#DejaVuSans-56"
                   x="95.410156"
                   style="stroke-linecap:butt;stroke-linejoin:round"
                   y="0"
                   width="100%"
                   height="100%" />
              </g>
            </g>
          </g>
          <g
             id="ytick_6"
             style="stroke-linecap:butt;stroke-linejoin:round">
            <g
               id="line2d_13"
               style="stroke-linecap:butt;stroke-linejoin:round">
              <g
                 id="g541"
                 style="stroke-linecap:butt;stroke-linejoin:round">
                <use
                   id="use539"
                   y="26.879999"
                   xlink:href="#m19e3dad4da"
                   x="47.720001"
                   style="stroke:#000000;stroke-width:0.80000001;stroke-linecap:butt;stroke-linejoin:round"
                   width="100%"
                   height="100%" />
              </g>
            </g>
            <g
               id="text_14"
               style="stroke-linecap:butt;stroke-linejoin:round">
              <!-- 1.0 -->
              <g
                 id="g550"
                 transform="matrix(0.1,0,0,-0.1,24.816875,30.679219)"
                 style="stroke-linecap:butt;stroke-linejoin:round">
                <use
                   id="use544"
                   xlink:href="#DejaVuSans-49"
                   style="stroke-linecap:butt;stroke-linejoin:round"
                   x="0"
                   y="0"
                   width="100%"
                   height="100%" />
                <use
                   id="use546"
                   xlink:href="#DejaVuSans-46"
                   x="63.623047"
                   style="stroke-linecap:butt;stroke-linejoin:round"
                   y="0"
                   width="100%"
                   height="100%" />
                <use
                   id="use548"
                   xlink:href="#DejaVuSans-48"
                   x="95.410156"
                   style="stroke-linecap:butt;stroke-linejoin:round"
                   y="0"
                   width="100%"
                   height="100%" />
              </g>
            </g>
          </g>
          <g
             id="text_15"
             style="stroke-linecap:butt;stroke-linejoin:round">
            <!-- p2 -->
            <g
               id="g558"
               transform="matrix(0,-0.1,-0.1,0,18.737187,171.61547)"
               style="stroke-linecap:butt;stroke-linejoin:round">
              <use
                 id="use554"
                 xlink:href="#DejaVuSans-112"
                 style="stroke-linecap:butt;stroke-linejoin:round"
                 x="0"
                 y="0"
                 width="100%"
                 height="100%" />
              <use
                 id="use556"
                 xlink:href="#DejaVuSans-50"
                 x="63.476562"
                 style="stroke-linecap:butt;stroke-linejoin:round"
                 y="0"
                 width="100%"
                 height="100%" />
            </g>
          </g>
        </g>
        <g
           id="patch_106"
           style="stroke-linecap:butt;stroke-linejoin:round">
          <path
             id="path562"
             style="fill:none;stroke:#000000;stroke-width:0.80000001;stroke-linecap:square;stroke-linejoin:miter"
             d="M 47.72,303.64 V 26.88"
             inkscape:connector-curvature="0" />
        </g>
        <g
           id="patch_107"
           style="stroke-linecap:butt;stroke-linejoin:round">
          <path
             id="path565"
             style="fill:none;stroke:#000000;stroke-width:0.80000001;stroke-linecap:square;stroke-linejoin:miter"
             d="M 440.55,303.64 V 26.88"
             inkscape:connector-curvature="0" />
        </g>
        <g
           id="patch_108"
           style="stroke-linecap:butt;stroke-linejoin:round">
          <path
             id="path568"
             style="fill:none;stroke:#000000;stroke-width:0.80000001;stroke-linecap:square;stroke-linejoin:miter"
             d="M 47.72,303.64 H 440.55"
             inkscape:connector-curvature="0" />
        </g>
        <g
           id="patch_109"
           style="stroke-linecap:butt;stroke-linejoin:round">
          <path
             id="path571"
             style="fill:none;stroke:#000000;stroke-width:0.80000001;stroke-linecap:square;stroke-linejoin:miter"
             d="M 47.72,26.88 H 440.55"
             inkscape:connector-curvature="0" />
        </g>
      </g>
    </g>
  </g>
  <defs
     id="defs664">
    <clipPath
       id="pc1ee8b21aa"
       style="stroke-linecap:butt;stroke-linejoin:round">
      <rect
         height="276.76001"
         width="392.82999"
         x="47.720001"
         y="26.879999"
         id="rect661"
         style="stroke-linecap:butt;stroke-linejoin:round" />
    </clipPath>
  </defs>
</svg>
