<?xml version="1.0" encoding="UTF-8" standalone="no"?>
<svg
   xmlns:dc="http://purl.org/dc/elements/1.1/"
   xmlns:cc="http://creativecommons.org/ns#"
   xmlns:rdf="http://www.w3.org/1999/02/22-rdf-syntax-ns#"
   xmlns:svg="http://www.w3.org/2000/svg"
   xmlns="http://www.w3.org/2000/svg"
   xmlns:sodipodi="http://sodipodi.sourceforge.net/DTD/sodipodi-0.dtd"
   xmlns:inkscape="http://www.inkscape.org/namespaces/inkscape"
   width="703.23907mm"
   height="321.78464mm"
   viewBox="0 0 1993.4346 912.14606"
   version="1.2"
   id="svg536"
   sodipodi:docname="stabilization_signal.svg"
   inkscape:version="0.92.3 (2405546, 2018-03-11)">
  <metadata
     id="metadata540">
    <rdf:RDF>
      <cc:Work
         rdf:about="">
        <dc:format>image/svg+xml</dc:format>
        <dc:type
           rdf:resource="http://purl.org/dc/dcmitype/StillImage" />
        <dc:title>Qt SVG Document</dc:title>
      </cc:Work>
    </rdf:RDF>
  </metadata>
  <sodipodi:namedview
     pagecolor="#ffffff"
     bordercolor="#666666"
     borderopacity="1"
     objecttolerance="10"
     gridtolerance="10"
     guidetolerance="10"
     inkscape:pageopacity="0"
     inkscape:pageshadow="2"
     inkscape:window-width="1920"
     inkscape:window-height="960"
     id="namedview538"
     showgrid="true"
     fit-margin-top="0"
     fit-margin-left="0"
     fit-margin-right="0"
     fit-margin-bottom="0"
     inkscape:zoom="0.31093765"
     inkscape:cx="1271.0072"
     inkscape:cy="693.72124"
     inkscape:window-x="3840"
     inkscape:window-y="27"
     inkscape:window-maximized="1"
     inkscape:current-layer="g534"
     showguides="false">
    <inkscape:grid
       type="xygrid"
       id="grid3972" />
  </sodipodi:namedview>
  <title
     id="title2">Qt SVG Document</title>
  <desc
     id="desc4">Generated with Qt</desc>
  <defs
     id="defs6">
    <marker
       inkscape:stockid="Arrow1Lstart"
       orient="auto"
       refY="0.0"
       refX="0.0"
       id="marker1353"
       style="overflow:visible"
       inkscape:isstock="true">
      <path
         id="path1351"
         d="M 0.0,0.0 L 5.0,-5.0 L -12.5,0.0 L 5.0,5.0 L 0.0,0.0 z "
         style="fill-rule:evenodd;stroke:#000000;stroke-width:1pt;stroke-opacity:1;fill:#000000;fill-opacity:1"
         transform="scale(0.8) translate(12.5,0)" />
    </marker>
    <marker
       inkscape:isstock="true"
       style="overflow:visible;"
       id="marker1277"
       refX="0.0"
       refY="0.0"
       orient="auto"
       inkscape:stockid="Arrow1Lend">
      <path
         transform="scale(0.8) rotate(180) translate(12.5,0)"
         style="fill-rule:evenodd;stroke:#000000;stroke-width:1pt;stroke-opacity:1;fill:#000000;fill-opacity:1"
         d="M 0.0,0.0 L 5.0,-5.0 L -12.5,0.0 L 5.0,5.0 L 0.0,0.0 z "
         id="path1275" />
    </marker>
    <marker
       inkscape:isstock="true"
       style="overflow:visible;"
       id="marker1219"
       refX="0.0"
       refY="0.0"
       orient="auto"
       inkscape:stockid="Arrow1Lend">
      <path
         transform="scale(0.8) rotate(180) translate(12.5,0)"
         style="fill-rule:evenodd;stroke:#000000;stroke-width:1pt;stroke-opacity:1;fill:#000000;fill-opacity:1"
         d="M 0.0,0.0 L 5.0,-5.0 L -12.5,0.0 L 5.0,5.0 L 0.0,0.0 z "
         id="path1217" />
    </marker>
    <marker
       inkscape:stockid="Arrow1Lend"
       orient="auto"
       refY="0.0"
       refX="0.0"
       id="Arrow1Lend"
       style="overflow:visible;"
       inkscape:isstock="true"
       inkscape:collect="always">
      <path
         id="path4790"
         d="M 0.0,0.0 L 5.0,-5.0 L -12.5,0.0 L 5.0,5.0 L 0.0,0.0 z "
         style="fill-rule:evenodd;stroke:#000000;stroke-width:1pt;stroke-opacity:1;fill:#000000;fill-opacity:1"
         transform="scale(0.8) rotate(180) translate(12.5,0)" />
    </marker>
    <marker
       inkscape:stockid="Arrow2Lstart"
       orient="auto"
       refY="0.0"
       refX="0.0"
       id="Arrow2Lstart"
       style="overflow:visible"
       inkscape:isstock="true">
      <path
         id="path4805"
         style="fill-rule:evenodd;stroke-width:0.625;stroke-linejoin:round;stroke:#000000;stroke-opacity:1;fill:#000000;fill-opacity:1"
         d="M 8.7185878,4.0337352 L -2.2072895,0.016013256 L 8.7185884,-4.0017078 C 6.9730900,-1.6296469 6.9831476,1.6157441 8.7185878,4.0337352 z "
         transform="scale(1.1) translate(1,0)" />
    </marker>
    <marker
       inkscape:stockid="Arrow1Lstart"
       orient="auto"
       refY="0.0"
       refX="0.0"
       id="Arrow1Lstart"
       style="overflow:visible"
       inkscape:isstock="true"
       inkscape:collect="always">
      <path
         id="path4787"
         d="M 0.0,0.0 L 5.0,-5.0 L -12.5,0.0 L 5.0,5.0 L 0.0,0.0 z "
         style="fill-rule:evenodd;stroke:#000000;stroke-width:1pt;stroke-opacity:1;fill:#000000;fill-opacity:1"
         transform="scale(0.8) translate(12.5,0)" />
    </marker>
  </defs>
  <g
     id="g534"
     style="fill:none;fill-rule:evenodd;stroke:#000000;stroke-width:1;stroke-linecap:square;stroke-linejoin:bevel"
     transform="translate(48.652378,-1.7051257)">
    <g
       font-size="11"
       font-weight="400"
       font-style="normal"
       id="g8"
       style="font-style:normal;font-weight:400;font-size:11px;font-family:Ubuntu;fill:none;stroke:#000000;stroke-width:1;stroke-linecap:square;stroke-linejoin:bevel;stroke-opacity:1" />
    <g
       transform="scale(1.00104)"
       font-size="11"
       font-weight="400"
       font-style="normal"
       id="g10"
       style="font-style:normal;font-weight:400;font-size:11px;font-family:Ubuntu;fill:none;stroke:#000000;stroke-width:1;stroke-linecap:square;stroke-linejoin:bevel;stroke-opacity:1" />
    <g
       transform="scale(1.00104)"
       font-size="11"
       font-weight="400"
       font-style="normal"
       id="g18"
       style="font-style:normal;font-weight:400;font-size:11px;font-family:Ubuntu;fill:none;stroke:#000000;stroke-width:1;stroke-linecap:square;stroke-linejoin:bevel;stroke-opacity:1" />
    <g
       transform="matrix(1.00104,0,0,1.00104,-32.0334,880.918)"
       font-size="11"
       font-weight="400"
       font-style="normal"
       id="g20"
       style="font-style:normal;font-weight:400;font-size:11px;font-family:Ubuntu;fill:none;stroke:#000000;stroke-width:1;stroke-linecap:square;stroke-linejoin:bevel;stroke-opacity:1" />
    <g
       transform="matrix(1.00104,0,0,1.00104,-32.0334,880.918)"
       font-size="11"
       font-weight="400"
       font-style="normal"
       id="g22"
       style="font-style:normal;font-weight:400;font-size:11px;font-family:Ubuntu;fill:none;stroke:#000000;stroke-width:1;stroke-linecap:square;stroke-linejoin:bevel;stroke-opacity:1" />
    <g
       transform="matrix(1.00104,0,0,1.00104,-32.0334,880.918)"
       font-size="11"
       font-weight="400"
       font-style="normal"
       id="g24"
       style="font-style:normal;font-weight:400;font-size:11px;font-family:Ubuntu;fill:none;stroke:#000000;stroke-width:1;stroke-linecap:square;stroke-linejoin:bevel;stroke-opacity:1" />
    <g
       transform="matrix(1.00104,0,0,1.00104,-32.0334,880.918)"
       font-size="11"
       font-weight="400"
       font-style="normal"
       id="g26"
       style="font-style:normal;font-weight:400;font-size:11px;font-family:Ubuntu;fill:none;stroke:#000000;stroke-width:1;stroke-linecap:square;stroke-linejoin:bevel;stroke-opacity:1" />
    <g
       transform="matrix(1.00104,0,0,1.00104,-32.0334,880.918)"
       font-size="11"
       font-weight="400"
       font-style="normal"
       id="g28"
       style="font-style:normal;font-weight:400;font-size:11px;font-family:Ubuntu;fill:none;stroke:#000000;stroke-width:1;stroke-linecap:square;stroke-linejoin:bevel;stroke-opacity:1" />
    <g
       transform="matrix(1.5224567,0,0,1.5224567,-50.733862,886.23248)"
       font-size="28"
       font-weight="400"
       font-style="normal"
       id="g32"
       style="font-style:normal;font-weight:400;font-size:28px;font-family:Sans;fill:none;stroke:#000000;stroke-width:1;stroke-linecap:square;stroke-linejoin:bevel;stroke-opacity:1">
      <text
         xml:space="preserve"
         x="0"
         y="0"
         font-size="28"
         font-weight="400"
         font-style="normal"
         id="text30"
         style="font-style:normal;font-weight:400;font-size:28px;font-family:Sans;fill:#000000;fill-opacity:1;stroke:none">-0.4</text>
    </g>
    <g
       transform="matrix(1.00104,0,0,1.00104,-32.0334,880.918)"
       font-size="11"
       font-weight="400"
       font-style="normal"
       id="g34"
       style="font-style:normal;font-weight:400;font-size:11px;font-family:Ubuntu;fill:none;stroke:#000000;stroke-width:1;stroke-linecap:square;stroke-linejoin:bevel;stroke-opacity:1" />
    <g
       transform="scale(1.00104)"
       font-size="11"
       font-weight="400"
       font-style="normal"
       id="g36"
       style="font-style:normal;font-weight:400;font-size:11px;font-family:Ubuntu;fill:none;stroke:#000000;stroke-width:1;stroke-linecap:square;stroke-linejoin:bevel;stroke-opacity:1" />
    <g
       transform="scale(1.00104)"
       font-size="11"
       font-weight="400"
       font-style="normal"
       id="g42"
       style="font-style:normal;font-weight:400;font-size:11px;font-family:Ubuntu;fill:none;stroke:#000000;stroke-width:1;stroke-linecap:round;stroke-linejoin:round;stroke-opacity:1">
      <polyline
         points="45.5,745.5 51.5,745.5 "
         id="polyline38"
         style="vector-effect:none;fill:none" />
      <polyline
         points="1896.5,745.5 1890.5,745.5 "
         id="polyline40"
         style="vector-effect:none;fill:none" />
    </g>
    <g
       transform="scale(1.00104)"
       font-size="11"
       font-weight="400"
       font-style="normal"
       id="g44"
       style="font-style:normal;font-weight:400;font-size:11px;font-family:Ubuntu;fill:none;stroke:#000000;stroke-width:1;stroke-linecap:square;stroke-linejoin:bevel;stroke-opacity:1" />
    <g
       transform="matrix(1.00104,0,0,1.00104,-31.0323,758.79)"
       font-size="11"
       font-weight="400"
       font-style="normal"
       id="g46"
       style="font-style:normal;font-weight:400;font-size:11px;font-family:Ubuntu;fill:none;stroke:#000000;stroke-width:1;stroke-linecap:square;stroke-linejoin:bevel;stroke-opacity:1" />
    <g
       transform="matrix(1.00104,0,0,1.00104,-31.0323,758.79)"
       font-size="11"
       font-weight="400"
       font-style="normal"
       id="g48"
       style="font-style:normal;font-weight:400;font-size:11px;font-family:Ubuntu;fill:none;stroke:#000000;stroke-width:1;stroke-linecap:square;stroke-linejoin:bevel;stroke-opacity:1" />
    <g
       transform="matrix(1.00104,0,0,1.00104,-31.0323,758.79)"
       font-size="11"
       font-weight="400"
       font-style="normal"
       id="g50"
       style="font-style:normal;font-weight:400;font-size:11px;font-family:Ubuntu;fill:none;stroke:#000000;stroke-width:1;stroke-linecap:square;stroke-linejoin:bevel;stroke-opacity:1" />
    <g
       transform="matrix(1.00104,0,0,1.00104,-31.0323,758.79)"
       font-size="11"
       font-weight="400"
       font-style="normal"
       id="g52"
       style="font-style:normal;font-weight:400;font-size:11px;font-family:Ubuntu;fill:none;stroke:#000000;stroke-width:1;stroke-linecap:square;stroke-linejoin:bevel;stroke-opacity:1" />
    <g
       transform="matrix(1.00104,0,0,1.00104,-31.0323,758.79)"
       font-size="11"
       font-weight="400"
       font-style="normal"
       id="g54"
       style="font-style:normal;font-weight:400;font-size:11px;font-family:Ubuntu;fill:none;stroke:#000000;stroke-width:1;stroke-linecap:square;stroke-linejoin:bevel;stroke-opacity:1" />
    <g
       transform="matrix(1.5224567,0,0,1.5224567,-49.558107,764.10448)"
       font-size="28"
       font-weight="400"
       font-style="normal"
       id="g58"
       style="font-style:normal;font-weight:400;font-size:28px;font-family:Sans;fill:none;stroke:#000000;stroke-width:1;stroke-linecap:square;stroke-linejoin:bevel;stroke-opacity:1">
      <text
         xml:space="preserve"
         x="0"
         y="0"
         font-size="28"
         font-weight="400"
         font-style="normal"
         id="text56"
         style="font-style:normal;font-weight:400;font-size:28px;font-family:Sans;fill:#000000;fill-opacity:1;stroke:none">-0.3</text>
    </g>
    <g
       transform="matrix(1.00104,0,0,1.00104,-31.0323,758.79)"
       font-size="11"
       font-weight="400"
       font-style="normal"
       id="g60"
       style="font-style:normal;font-weight:400;font-size:11px;font-family:Ubuntu;fill:none;stroke:#000000;stroke-width:1;stroke-linecap:square;stroke-linejoin:bevel;stroke-opacity:1" />
    <g
       transform="scale(1.00104)"
       font-size="11"
       font-weight="400"
       font-style="normal"
       id="g62"
       style="font-style:normal;font-weight:400;font-size:11px;font-family:Ubuntu;fill:none;stroke:#000000;stroke-width:1;stroke-linecap:square;stroke-linejoin:bevel;stroke-opacity:1" />
    <g
       transform="scale(1.00104)"
       font-size="11"
       font-weight="400"
       font-style="normal"
       id="g68"
       style="font-style:normal;font-weight:400;font-size:11px;font-family:Ubuntu;fill:none;stroke:#000000;stroke-width:1;stroke-linecap:round;stroke-linejoin:round;stroke-opacity:1">
      <polyline
         points="45.5,623.5 51.5,623.5 "
         id="polyline64"
         style="vector-effect:none;fill:none" />
      <polyline
         points="1896.5,623.5 1890.5,623.5 "
         id="polyline66"
         style="vector-effect:none;fill:none" />
    </g>
    <g
       transform="scale(1.00104)"
       font-size="11"
       font-weight="400"
       font-style="normal"
       id="g70"
       style="font-style:normal;font-weight:400;font-size:11px;font-family:Ubuntu;fill:none;stroke:#000000;stroke-width:1;stroke-linecap:square;stroke-linejoin:bevel;stroke-opacity:1" />
    <g
       transform="matrix(1.00104,0,0,1.00104,-30.0313,637.664)"
       font-size="11"
       font-weight="400"
       font-style="normal"
       id="g72"
       style="font-style:normal;font-weight:400;font-size:11px;font-family:Ubuntu;fill:none;stroke:#000000;stroke-width:1;stroke-linecap:square;stroke-linejoin:bevel;stroke-opacity:1" />
    <g
       transform="matrix(1.00104,0,0,1.00104,-30.0313,637.664)"
       font-size="11"
       font-weight="400"
       font-style="normal"
       id="g74"
       style="font-style:normal;font-weight:400;font-size:11px;font-family:Ubuntu;fill:none;stroke:#000000;stroke-width:1;stroke-linecap:square;stroke-linejoin:bevel;stroke-opacity:1" />
    <g
       transform="matrix(1.00104,0,0,1.00104,-30.0313,637.664)"
       font-size="11"
       font-weight="400"
       font-style="normal"
       id="g76"
       style="font-style:normal;font-weight:400;font-size:11px;font-family:Ubuntu;fill:none;stroke:#000000;stroke-width:1;stroke-linecap:square;stroke-linejoin:bevel;stroke-opacity:1" />
    <g
       transform="matrix(1.00104,0,0,1.00104,-30.0313,637.664)"
       font-size="11"
       font-weight="400"
       font-style="normal"
       id="g78"
       style="font-style:normal;font-weight:400;font-size:11px;font-family:Ubuntu;fill:none;stroke:#000000;stroke-width:1;stroke-linecap:square;stroke-linejoin:bevel;stroke-opacity:1" />
    <g
       transform="matrix(1.00104,0,0,1.00104,-30.0313,637.664)"
       font-size="11"
       font-weight="400"
       font-style="normal"
       id="g80"
       style="font-style:normal;font-weight:400;font-size:11px;font-family:Ubuntu;fill:none;stroke:#000000;stroke-width:1;stroke-linecap:square;stroke-linejoin:bevel;stroke-opacity:1" />
    <g
       transform="matrix(1.5224567,0,0,1.5224567,-48.410968,642.97848)"
       font-size="28"
       font-weight="400"
       font-style="normal"
       id="g84"
       style="font-style:normal;font-weight:400;font-size:28px;font-family:Sans;fill:none;stroke:#000000;stroke-width:1;stroke-linecap:square;stroke-linejoin:bevel;stroke-opacity:1">
      <text
         xml:space="preserve"
         x="0"
         y="0"
         font-size="28"
         font-weight="400"
         font-style="normal"
         id="text82"
         style="font-style:normal;font-weight:400;font-size:28px;font-family:Sans;fill:#000000;fill-opacity:1;stroke:none">-0.2</text>
    </g>
    <g
       transform="matrix(1.00104,0,0,1.00104,-30.0313,637.664)"
       font-size="11"
       font-weight="400"
       font-style="normal"
       id="g86"
       style="font-style:normal;font-weight:400;font-size:11px;font-family:Ubuntu;fill:none;stroke:#000000;stroke-width:1;stroke-linecap:square;stroke-linejoin:bevel;stroke-opacity:1" />
    <g
       transform="scale(1.00104)"
       font-size="11"
       font-weight="400"
       font-style="normal"
       id="g88"
       style="font-style:normal;font-weight:400;font-size:11px;font-family:Ubuntu;fill:none;stroke:#000000;stroke-width:1;stroke-linecap:square;stroke-linejoin:bevel;stroke-opacity:1" />
    <g
       transform="scale(1.00104)"
       font-size="11"
       font-weight="400"
       font-style="normal"
       id="g94"
       style="font-style:normal;font-weight:400;font-size:11px;font-family:Ubuntu;fill:none;stroke:#000000;stroke-width:1;stroke-linecap:round;stroke-linejoin:round;stroke-opacity:1">
      <polyline
         points="45.5,501.5 51.5,501.5 "
         id="polyline90"
         style="vector-effect:none;fill:none" />
      <polyline
         points="1896.5,501.5 1890.5,501.5 "
         id="polyline92"
         style="vector-effect:none;fill:none" />
    </g>
    <g
       transform="scale(1.00104)"
       font-size="11"
       font-weight="400"
       font-style="normal"
       id="g96"
       style="font-style:normal;font-weight:400;font-size:11px;font-family:Ubuntu;fill:none;stroke:#000000;stroke-width:1;stroke-linecap:square;stroke-linejoin:bevel;stroke-opacity:1" />
    <g
       transform="matrix(1.00104,0,0,1.00104,-31.0323,515.537)"
       font-size="11"
       font-weight="400"
       font-style="normal"
       id="g98"
       style="font-style:normal;font-weight:400;font-size:11px;font-family:Ubuntu;fill:none;stroke:#000000;stroke-width:1;stroke-linecap:square;stroke-linejoin:bevel;stroke-opacity:1" />
    <g
       transform="matrix(1.00104,0,0,1.00104,-31.0323,515.537)"
       font-size="11"
       font-weight="400"
       font-style="normal"
       id="g100"
       style="font-style:normal;font-weight:400;font-size:11px;font-family:Ubuntu;fill:none;stroke:#000000;stroke-width:1;stroke-linecap:square;stroke-linejoin:bevel;stroke-opacity:1" />
    <g
       transform="matrix(1.00104,0,0,1.00104,-31.0323,515.537)"
       font-size="11"
       font-weight="400"
       font-style="normal"
       id="g102"
       style="font-style:normal;font-weight:400;font-size:11px;font-family:Ubuntu;fill:none;stroke:#000000;stroke-width:1;stroke-linecap:square;stroke-linejoin:bevel;stroke-opacity:1" />
    <g
       transform="matrix(1.00104,0,0,1.00104,-31.0323,515.537)"
       font-size="11"
       font-weight="400"
       font-style="normal"
       id="g104"
       style="font-style:normal;font-weight:400;font-size:11px;font-family:Ubuntu;fill:none;stroke:#000000;stroke-width:1;stroke-linecap:square;stroke-linejoin:bevel;stroke-opacity:1" />
    <g
       transform="matrix(1.00104,0,0,1.00104,-31.0323,515.537)"
       font-size="11"
       font-weight="400"
       font-style="normal"
       id="g106"
       style="font-style:normal;font-weight:400;font-size:11px;font-family:Ubuntu;fill:none;stroke:#000000;stroke-width:1;stroke-linecap:square;stroke-linejoin:bevel;stroke-opacity:1" />
    <g
       transform="matrix(1.5224567,0,0,1.5224567,-49.468998,520.85148)"
       font-size="28"
       font-weight="400"
       font-style="normal"
       id="g110"
       style="font-style:normal;font-weight:400;font-size:28px;font-family:Sans;fill:none;stroke:#000000;stroke-width:1;stroke-linecap:square;stroke-linejoin:bevel;stroke-opacity:1">
      <text
         xml:space="preserve"
         x="0"
         y="0"
         font-size="28"
         font-weight="400"
         font-style="normal"
         id="text108"
         style="font-style:normal;font-weight:400;font-size:28px;font-family:Sans;fill:#000000;fill-opacity:1;stroke:none">-0.1</text>
    </g>
    <g
       transform="matrix(1.00104,0,0,1.00104,-31.0323,515.537)"
       font-size="11"
       font-weight="400"
       font-style="normal"
       id="g112"
       style="font-style:normal;font-weight:400;font-size:11px;font-family:Ubuntu;fill:none;stroke:#000000;stroke-width:1;stroke-linecap:square;stroke-linejoin:bevel;stroke-opacity:1" />
    <g
       transform="scale(1.00104)"
       font-size="11"
       font-weight="400"
       font-style="normal"
       id="g114"
       style="font-style:normal;font-weight:400;font-size:11px;font-family:Ubuntu;fill:none;stroke:#000000;stroke-width:1;stroke-linecap:square;stroke-linejoin:bevel;stroke-opacity:1" />
    <g
       transform="scale(1.00104)"
       font-size="11"
       font-weight="400"
       font-style="normal"
       id="g120"
       style="font-style:normal;font-weight:400;font-size:11px;font-family:Ubuntu;fill:none;stroke:#000000;stroke-width:1;stroke-linecap:round;stroke-linejoin:round;stroke-opacity:1">
      <polyline
         points="45.5,380.5 51.5,380.5 "
         id="polyline116"
         style="vector-effect:none;fill:none" />
      <polyline
         points="1896.5,380.5 1890.5,380.5 "
         id="polyline118"
         style="vector-effect:none;fill:none" />
    </g>
    <g
       transform="scale(1.00104)"
       font-size="11"
       font-weight="400"
       font-style="normal"
       id="g122"
       style="font-style:normal;font-weight:400;font-size:11px;font-family:Ubuntu;fill:none;stroke:#000000;stroke-width:1;stroke-linecap:square;stroke-linejoin:bevel;stroke-opacity:1" />
    <g
       transform="matrix(1.00104,0,0,1.00104,5.00521,393.41)"
       font-size="11"
       font-weight="400"
       font-style="normal"
       id="g124"
       style="font-style:normal;font-weight:400;font-size:11px;font-family:Ubuntu;fill:none;stroke:#000000;stroke-width:1;stroke-linecap:square;stroke-linejoin:bevel;stroke-opacity:1" />
    <g
       transform="matrix(1.00104,0,0,1.00104,5.00521,393.41)"
       font-size="11"
       font-weight="400"
       font-style="normal"
       id="g126"
       style="font-style:normal;font-weight:400;font-size:11px;font-family:Ubuntu;fill:none;stroke:#000000;stroke-width:1;stroke-linecap:square;stroke-linejoin:bevel;stroke-opacity:1" />
    <g
       transform="matrix(1.00104,0,0,1.00104,5.00521,393.41)"
       font-size="11"
       font-weight="400"
       font-style="normal"
       id="g128"
       style="font-style:normal;font-weight:400;font-size:11px;font-family:Ubuntu;fill:none;stroke:#000000;stroke-width:1;stroke-linecap:square;stroke-linejoin:bevel;stroke-opacity:1" />
    <g
       transform="matrix(1.00104,0,0,1.00104,5.00521,393.41)"
       font-size="11"
       font-weight="400"
       font-style="normal"
       id="g130"
       style="font-style:normal;font-weight:400;font-size:11px;font-family:Ubuntu;fill:none;stroke:#000000;stroke-width:1;stroke-linecap:square;stroke-linejoin:bevel;stroke-opacity:1" />
    <g
       transform="matrix(1.00104,0,0,1.00104,5.00521,393.41)"
       font-size="11"
       font-weight="400"
       font-style="normal"
       id="g132"
       style="font-style:normal;font-weight:400;font-size:11px;font-family:Ubuntu;fill:none;stroke:#000000;stroke-width:1;stroke-linecap:square;stroke-linejoin:bevel;stroke-opacity:1" />
    <g
       style="font-style:normal;font-weight:400;font-size:medium;font-family:Sans;fill:none;stroke:#000000;stroke-width:1;stroke-linecap:square;stroke-linejoin:bevel;stroke-opacity:1"
       id="g5900"
       transform="matrix(1.5224567,0,0,1.5224567,-5.9783854,398.72448)">
      <g
         id="g5896">
        <text
           style="font-style:normal;font-weight:400;font-size:28px;font-family:Sans;fill:#000000;fill-opacity:1;stroke:none"
           id="text134"
           font-style="normal"
           font-weight="400"
           font-size="28"
           y="0"
           x="0"
           xml:space="preserve"> 0</text>
      </g>
    </g>
    <g
       transform="matrix(1.00104,0,0,1.00104,5.00521,393.41)"
       font-size="11"
       font-weight="400"
       font-style="normal"
       id="g138"
       style="font-style:normal;font-weight:400;font-size:11px;font-family:Ubuntu;fill:none;stroke:#000000;stroke-width:1;stroke-linecap:square;stroke-linejoin:bevel;stroke-opacity:1" />
    <g
       transform="scale(1.00104)"
       font-size="11"
       font-weight="400"
       font-style="normal"
       id="g140"
       style="font-style:normal;font-weight:400;font-size:11px;font-family:Ubuntu;fill:none;stroke:#000000;stroke-width:1;stroke-linecap:square;stroke-linejoin:bevel;stroke-opacity:1" />
    <g
       transform="scale(1.00104)"
       font-size="11"
       font-weight="400"
       font-style="normal"
       id="g146"
       style="font-style:normal;font-weight:400;font-size:11px;font-family:Ubuntu;fill:none;stroke:#000000;stroke-width:1;stroke-linecap:round;stroke-linejoin:round;stroke-opacity:1">
      <polyline
         points="45.5,258.5 51.5,258.5 "
         id="polyline142"
         style="vector-effect:none;fill:none" />
      <polyline
         points="1896.5,258.5 1890.5,258.5 "
         id="polyline144"
         style="vector-effect:none;fill:none" />
    </g>
    <g
       transform="scale(1.00104)"
       font-size="11"
       font-weight="400"
       font-style="normal"
       id="g148"
       style="font-style:normal;font-weight:400;font-size:11px;font-family:Ubuntu;fill:none;stroke:#000000;stroke-width:1;stroke-linecap:square;stroke-linejoin:bevel;stroke-opacity:1" />
    <g
       transform="matrix(1.00104,0,0,1.00104,-30.0313,272.284)"
       font-size="11"
       font-weight="400"
       font-style="normal"
       id="g150"
       style="font-style:normal;font-weight:400;font-size:11px;font-family:Ubuntu;fill:none;stroke:#000000;stroke-width:1;stroke-linecap:square;stroke-linejoin:bevel;stroke-opacity:1" />
    <g
       transform="matrix(1.00104,0,0,1.00104,-30.0313,272.284)"
       font-size="11"
       font-weight="400"
       font-style="normal"
       id="g152"
       style="font-style:normal;font-weight:400;font-size:11px;font-family:Ubuntu;fill:none;stroke:#000000;stroke-width:1;stroke-linecap:square;stroke-linejoin:bevel;stroke-opacity:1" />
    <g
       transform="matrix(1.00104,0,0,1.00104,-30.0313,272.284)"
       font-size="11"
       font-weight="400"
       font-style="normal"
       id="g154"
       style="font-style:normal;font-weight:400;font-size:11px;font-family:Ubuntu;fill:none;stroke:#000000;stroke-width:1;stroke-linecap:square;stroke-linejoin:bevel;stroke-opacity:1" />
    <g
       transform="matrix(1.00104,0,0,1.00104,-30.0313,272.284)"
       font-size="11"
       font-weight="400"
       font-style="normal"
       id="g156"
       style="font-style:normal;font-weight:400;font-size:11px;font-family:Ubuntu;fill:none;stroke:#000000;stroke-width:1;stroke-linecap:square;stroke-linejoin:bevel;stroke-opacity:1" />
    <g
       transform="matrix(1.00104,0,0,1.00104,-30.0313,272.284)"
       font-size="11"
       font-weight="400"
       font-style="normal"
       id="g158"
       style="font-style:normal;font-weight:400;font-size:11px;font-family:Ubuntu;fill:none;stroke:#000000;stroke-width:1;stroke-linecap:square;stroke-linejoin:bevel;stroke-opacity:1" />
    <g
       transform="matrix(1.5224567,0,0,1.5224567,-47.797896,277.59848)"
       font-size="28"
       font-weight="400"
       font-style="normal"
       id="g162"
       style="font-style:normal;font-weight:400;font-size:28px;font-family:Sans;fill:none;stroke:#000000;stroke-width:1;stroke-linecap:square;stroke-linejoin:bevel;stroke-opacity:1">
      <text
         xml:space="preserve"
         x="0"
         y="0"
         font-size="28"
         font-weight="400"
         font-style="normal"
         id="text160"
         style="font-style:normal;font-weight:400;font-size:28px;font-family:Sans;fill:#000000;fill-opacity:1;stroke:none"> 0.1</text>
    </g>
    <g
       transform="matrix(1.00104,0,0,1.00104,-30.0313,272.284)"
       font-size="11"
       font-weight="400"
       font-style="normal"
       id="g164"
       style="font-style:normal;font-weight:400;font-size:11px;font-family:Ubuntu;fill:none;stroke:#000000;stroke-width:1;stroke-linecap:square;stroke-linejoin:bevel;stroke-opacity:1" />
    <g
       transform="scale(1.00104)"
       font-size="11"
       font-weight="400"
       font-style="normal"
       id="g166"
       style="font-style:normal;font-weight:400;font-size:11px;font-family:Ubuntu;fill:none;stroke:#000000;stroke-width:1;stroke-linecap:square;stroke-linejoin:bevel;stroke-opacity:1" />
    <g
       transform="scale(1.00104)"
       font-size="11"
       font-weight="400"
       font-style="normal"
       id="g172"
       style="font-style:normal;font-weight:400;font-size:11px;font-family:Ubuntu;fill:none;stroke:#000000;stroke-width:1;stroke-linecap:round;stroke-linejoin:round;stroke-opacity:1">
      <polyline
         points="45.5,136.5 51.5,136.5 "
         id="polyline168"
         style="vector-effect:none;fill:none" />
      <polyline
         points="1896.5,136.5 1890.5,136.5 "
         id="polyline170"
         style="vector-effect:none;fill:none" />
    </g>
    <g
       transform="scale(1.00104)"
       font-size="11"
       font-weight="400"
       font-style="normal"
       id="g174"
       style="font-style:normal;font-weight:400;font-size:11px;font-family:Ubuntu;fill:none;stroke:#000000;stroke-width:1;stroke-linecap:square;stroke-linejoin:bevel;stroke-opacity:1" />
    <g
       transform="matrix(1.00104,0,0,1.00104,-29.0302,150.156)"
       font-size="11"
       font-weight="400"
       font-style="normal"
       id="g176"
       style="font-style:normal;font-weight:400;font-size:11px;font-family:Ubuntu;fill:none;stroke:#000000;stroke-width:1;stroke-linecap:square;stroke-linejoin:bevel;stroke-opacity:1" />
    <g
       transform="matrix(1.00104,0,0,1.00104,-29.0302,150.156)"
       font-size="11"
       font-weight="400"
       font-style="normal"
       id="g178"
       style="font-style:normal;font-weight:400;font-size:11px;font-family:Ubuntu;fill:none;stroke:#000000;stroke-width:1;stroke-linecap:square;stroke-linejoin:bevel;stroke-opacity:1" />
    <g
       transform="matrix(1.00104,0,0,1.00104,-29.0302,150.156)"
       font-size="11"
       font-weight="400"
       font-style="normal"
       id="g180"
       style="font-style:normal;font-weight:400;font-size:11px;font-family:Ubuntu;fill:none;stroke:#000000;stroke-width:1;stroke-linecap:square;stroke-linejoin:bevel;stroke-opacity:1" />
    <g
       transform="matrix(1.00104,0,0,1.00104,-29.0302,150.156)"
       font-size="11"
       font-weight="400"
       font-style="normal"
       id="g182"
       style="font-style:normal;font-weight:400;font-size:11px;font-family:Ubuntu;fill:none;stroke:#000000;stroke-width:1;stroke-linecap:square;stroke-linejoin:bevel;stroke-opacity:1" />
    <g
       transform="matrix(1.00104,0,0,1.00104,-29.0302,150.156)"
       font-size="11"
       font-weight="400"
       font-style="normal"
       id="g184"
       style="font-style:normal;font-weight:400;font-size:11px;font-family:Ubuntu;fill:none;stroke:#000000;stroke-width:1;stroke-linecap:square;stroke-linejoin:bevel;stroke-opacity:1" />
    <g
       transform="matrix(1.5224567,0,0,1.5224567,-46.739766,155.47048)"
       font-size="28"
       font-weight="400"
       font-style="normal"
       id="g188"
       style="font-style:normal;font-weight:400;font-size:28px;font-family:Sans;fill:none;stroke:#000000;stroke-width:1;stroke-linecap:square;stroke-linejoin:bevel;stroke-opacity:1">
      <text
         xml:space="preserve"
         x="0"
         y="0"
         font-size="28"
         font-weight="400"
         font-style="normal"
         id="text186"
         style="font-style:normal;font-weight:400;font-size:28px;font-family:Sans;fill:#000000;fill-opacity:1;stroke:none"> 0.2</text>
    </g>
    <g
       transform="matrix(1.00104,0,0,1.00104,-29.0302,150.156)"
       font-size="11"
       font-weight="400"
       font-style="normal"
       id="g190"
       style="font-style:normal;font-weight:400;font-size:11px;font-family:Ubuntu;fill:none;stroke:#000000;stroke-width:1;stroke-linecap:square;stroke-linejoin:bevel;stroke-opacity:1" />
    <g
       transform="scale(1.00104)"
       font-size="11"
       font-weight="400"
       font-style="normal"
       id="g192"
       style="font-style:normal;font-weight:400;font-size:11px;font-family:Ubuntu;fill:none;stroke:#000000;stroke-width:1;stroke-linecap:square;stroke-linejoin:bevel;stroke-opacity:1" />
    <g
       transform="scale(1.00104)"
       font-size="11"
       font-weight="400"
       font-style="normal"
       id="g198"
       style="font-style:normal;font-weight:400;font-size:11px;font-family:Ubuntu;fill:none;stroke:#000000;stroke-width:1;stroke-linecap:round;stroke-linejoin:round;stroke-opacity:1">
      <polyline
         points="45.5,15.5 51.5,15.5 "
         id="polyline194"
         style="vector-effect:none;fill:none" />
      <polyline
         points="1896.5,15.5 1890.5,15.5 "
         id="polyline196"
         style="vector-effect:none;fill:none" />
    </g>
    <g
       transform="scale(1.00104)"
       font-size="11"
       font-weight="400"
       font-style="normal"
       id="g200"
       style="font-style:normal;font-weight:400;font-size:11px;font-family:Ubuntu;fill:none;stroke:#000000;stroke-width:1;stroke-linecap:square;stroke-linejoin:bevel;stroke-opacity:1" />
    <g
       transform="matrix(1.00104,0,0,1.00104,-30.0313,28.0292)"
       font-size="11"
       font-weight="400"
       font-style="normal"
       id="g202"
       style="font-style:normal;font-weight:400;font-size:11px;font-family:Ubuntu;fill:none;stroke:#000000;stroke-width:1;stroke-linecap:square;stroke-linejoin:bevel;stroke-opacity:1" />
    <g
       transform="matrix(1.00104,0,0,1.00104,-30.0313,28.0292)"
       font-size="11"
       font-weight="400"
       font-style="normal"
       id="g204"
       style="font-style:normal;font-weight:400;font-size:11px;font-family:Ubuntu;fill:none;stroke:#000000;stroke-width:1;stroke-linecap:square;stroke-linejoin:bevel;stroke-opacity:1" />
    <g
       transform="matrix(1.00104,0,0,1.00104,-30.0313,28.0292)"
       font-size="11"
       font-weight="400"
       font-style="normal"
       id="g206"
       style="font-style:normal;font-weight:400;font-size:11px;font-family:Ubuntu;fill:none;stroke:#000000;stroke-width:1;stroke-linecap:square;stroke-linejoin:bevel;stroke-opacity:1" />
    <g
       transform="matrix(1.00104,0,0,1.00104,-30.0313,28.0292)"
       font-size="11"
       font-weight="400"
       font-style="normal"
       id="g208"
       style="font-style:normal;font-weight:400;font-size:11px;font-family:Ubuntu;fill:none;stroke:#000000;stroke-width:1;stroke-linecap:square;stroke-linejoin:bevel;stroke-opacity:1" />
    <g
       transform="matrix(1.00104,0,0,1.00104,-30.0313,28.0292)"
       font-size="11"
       font-weight="400"
       font-style="normal"
       id="g210"
       style="font-style:normal;font-weight:400;font-size:11px;font-family:Ubuntu;fill:none;stroke:#000000;stroke-width:1;stroke-linecap:square;stroke-linejoin:bevel;stroke-opacity:1" />
    <g
       transform="matrix(1.5224567,0,0,1.5224567,-47.887005,33.343679)"
       font-size="28"
       font-weight="400"
       font-style="normal"
       id="g214"
       style="font-style:normal;font-weight:400;font-size:28px;font-family:Sans;fill:none;stroke:#000000;stroke-width:1;stroke-linecap:square;stroke-linejoin:bevel;stroke-opacity:1">
      <text
         xml:space="preserve"
         x="0"
         y="0"
         font-size="28"
         font-weight="400"
         font-style="normal"
         id="text212"
         style="font-style:normal;font-weight:400;font-size:28px;font-family:Sans;fill:#000000;fill-opacity:1;stroke:none"> 0.3</text>
    </g>
    <g
       transform="matrix(1.00104,0,0,1.00104,-30.0313,28.0292)"
       font-size="11"
       font-weight="400"
       font-style="normal"
       id="g216"
       style="font-style:normal;font-weight:400;font-size:11px;font-family:Ubuntu;fill:none;stroke:#000000;stroke-width:1;stroke-linecap:square;stroke-linejoin:bevel;stroke-opacity:1" />
    <g
       transform="scale(1.00104)"
       font-size="11"
       font-weight="400"
       font-style="normal"
       id="g218"
       style="font-style:normal;font-weight:400;font-size:11px;font-family:Ubuntu;fill:none;stroke:#000000;stroke-width:1;stroke-linecap:square;stroke-linejoin:bevel;stroke-opacity:1" />
    <g
       transform="scale(1.00104)"
       font-size="11"
       font-weight="400"
       font-style="normal"
       id="g224"
       style="font-style:normal;font-weight:400;font-size:11px;font-family:Ubuntu;fill:none;stroke:#000000;stroke-width:1;stroke-linecap:round;stroke-linejoin:round;stroke-opacity:1">
      <polyline
         points="45.5,867.5 45.5,861.5 "
         id="polyline220"
         style="vector-effect:none;fill:none" />
      <polyline
         points="45.5,15.5 45.5,21.5 "
         id="polyline222"
         style="vector-effect:none;fill:none" />
    </g>
    <g
       transform="scale(1.00104)"
       font-size="11"
       font-weight="400"
       font-style="normal"
       id="g226"
       style="font-style:normal;font-weight:400;font-size:11px;font-family:Ubuntu;fill:none;stroke:#000000;stroke-width:1;stroke-linecap:square;stroke-linejoin:bevel;stroke-opacity:1" />
    <g
       transform="matrix(1.00104,0,0,1.00104,29.0302,895.933)"
       font-size="11"
       font-weight="400"
       font-style="normal"
       id="g228"
       style="font-style:normal;font-weight:400;font-size:11px;font-family:Ubuntu;fill:none;stroke:#000000;stroke-width:1;stroke-linecap:square;stroke-linejoin:bevel;stroke-opacity:1" />
    <g
       transform="matrix(1.00104,0,0,1.00104,29.0302,895.933)"
       font-size="11"
       font-weight="400"
       font-style="normal"
       id="g230"
       style="font-style:normal;font-weight:400;font-size:11px;font-family:Ubuntu;fill:none;stroke:#000000;stroke-width:1;stroke-linecap:square;stroke-linejoin:bevel;stroke-opacity:1" />
    <g
       transform="matrix(1.00104,0,0,1.00104,29.0302,895.933)"
       font-size="11"
       font-weight="400"
       font-style="normal"
       id="g232"
       style="font-style:normal;font-weight:400;font-size:11px;font-family:Ubuntu;fill:none;stroke:#000000;stroke-width:1;stroke-linecap:square;stroke-linejoin:bevel;stroke-opacity:1" />
    <g
       transform="matrix(1.00104,0,0,1.00104,29.0302,895.933)"
       font-size="11"
       font-weight="400"
       font-style="normal"
       id="g234"
       style="font-style:normal;font-weight:400;font-size:11px;font-family:Ubuntu;fill:none;stroke:#000000;stroke-width:1;stroke-linecap:square;stroke-linejoin:bevel;stroke-opacity:1" />
    <g
       transform="matrix(1.00104,0,0,1.00104,29.0302,895.933)"
       font-size="11"
       font-weight="400"
       font-style="normal"
       id="g236"
       style="font-style:normal;font-weight:400;font-size:11px;font-family:Ubuntu;fill:none;stroke:#000000;stroke-width:1;stroke-linecap:square;stroke-linejoin:bevel;stroke-opacity:1" />
    <g
       transform="matrix(1.5224567,0,0,1.5224567,22.546608,901.24748)"
       font-size="28"
       font-weight="400"
       font-style="normal"
       id="g240"
       style="font-style:normal;font-weight:400;font-size:28px;font-family:Sans;fill:none;stroke:#000000;stroke-width:1;stroke-linecap:square;stroke-linejoin:bevel;stroke-opacity:1">
      <text
         xml:space="preserve"
         x="0"
         y="7.8819976"
         font-size="28"
         font-weight="400"
         font-style="normal"
         id="text238"
         style="font-style:normal;font-weight:400;font-size:28px;font-family:Sans;fill:#000000;fill-opacity:1;stroke:none"> 0</text>
    </g>
    <g
       transform="matrix(1.00104,0,0,1.00104,29.0302,895.933)"
       font-size="11"
       font-weight="400"
       font-style="normal"
       id="g242"
       style="font-style:normal;font-weight:400;font-size:11px;font-family:Ubuntu;fill:none;stroke:#000000;stroke-width:1;stroke-linecap:square;stroke-linejoin:bevel;stroke-opacity:1" />
    <g
       transform="scale(1.00104)"
       font-size="11"
       font-weight="400"
       font-style="normal"
       id="g244"
       style="font-style:normal;font-weight:400;font-size:11px;font-family:Ubuntu;fill:none;stroke:#000000;stroke-width:1;stroke-linecap:square;stroke-linejoin:bevel;stroke-opacity:1" />
    <g
       transform="scale(1.00104)"
       font-size="11"
       font-weight="400"
       font-style="normal"
       id="g250"
       style="font-style:normal;font-weight:400;font-size:11px;font-family:Ubuntu;fill:none;stroke:#000000;stroke-width:1;stroke-linecap:round;stroke-linejoin:round;stroke-opacity:1">
      <polyline
         points="230.5,867.5 230.5,861.5 "
         id="polyline246"
         style="vector-effect:none;fill:none" />
      <polyline
         points="230.5,15.5 230.5,21.5 "
         id="polyline248"
         style="vector-effect:none;fill:none" />
    </g>
    <g
       transform="scale(1.00104)"
       font-size="11"
       font-weight="400"
       font-style="normal"
       id="g252"
       style="font-style:normal;font-weight:400;font-size:11px;font-family:Ubuntu;fill:none;stroke:#000000;stroke-width:1;stroke-linecap:square;stroke-linejoin:bevel;stroke-opacity:1" />
    <g
       transform="matrix(1.00104,0,0,1.00104,190.198,895.933)"
       font-size="11"
       font-weight="400"
       font-style="normal"
       id="g254"
       style="font-style:normal;font-weight:400;font-size:11px;font-family:Ubuntu;fill:none;stroke:#000000;stroke-width:1;stroke-linecap:square;stroke-linejoin:bevel;stroke-opacity:1" />
    <g
       transform="matrix(1.00104,0,0,1.00104,190.198,895.933)"
       font-size="11"
       font-weight="400"
       font-style="normal"
       id="g256"
       style="font-style:normal;font-weight:400;font-size:11px;font-family:Ubuntu;fill:none;stroke:#000000;stroke-width:1;stroke-linecap:square;stroke-linejoin:bevel;stroke-opacity:1" />
    <g
       transform="matrix(1.00104,0,0,1.00104,190.198,895.933)"
       font-size="11"
       font-weight="400"
       font-style="normal"
       id="g258"
       style="font-style:normal;font-weight:400;font-size:11px;font-family:Ubuntu;fill:none;stroke:#000000;stroke-width:1;stroke-linecap:square;stroke-linejoin:bevel;stroke-opacity:1" />
    <g
       transform="matrix(1.00104,0,0,1.00104,190.198,895.933)"
       font-size="11"
       font-weight="400"
       font-style="normal"
       id="g260"
       style="font-style:normal;font-weight:400;font-size:11px;font-family:Ubuntu;fill:none;stroke:#000000;stroke-width:1;stroke-linecap:square;stroke-linejoin:bevel;stroke-opacity:1" />
    <g
       transform="matrix(1.00104,0,0,1.00104,190.198,895.933)"
       font-size="11"
       font-weight="400"
       font-style="normal"
       id="g262"
       style="font-style:normal;font-weight:400;font-size:11px;font-family:Ubuntu;fill:none;stroke:#000000;stroke-width:1;stroke-linecap:square;stroke-linejoin:bevel;stroke-opacity:1" />
    <g
       transform="matrix(1.5224567,0,0,1.5224567,174.41852,913.24748)"
       font-size="28"
       font-weight="400"
       font-style="normal"
       id="g266"
       style="font-style:normal;font-weight:400;font-size:28px;font-family:Sans;fill:none;stroke:#000000;stroke-width:1;stroke-linecap:square;stroke-linejoin:bevel;stroke-opacity:1">
      <text
         xml:space="preserve"
         x="0"
         y="0"
         font-size="28"
         font-weight="400"
         font-style="normal"
         id="text264"
         style="font-style:normal;font-weight:400;font-size:28px;font-family:Sans;fill:#000000;fill-opacity:1;stroke:none"> 100</text>
    </g>
    <g
       transform="matrix(1.00104,0,0,1.00104,190.198,895.933)"
       font-size="11"
       font-weight="400"
       font-style="normal"
       id="g268"
       style="font-style:normal;font-weight:400;font-size:11px;font-family:Ubuntu;fill:none;stroke:#000000;stroke-width:1;stroke-linecap:square;stroke-linejoin:bevel;stroke-opacity:1" />
    <g
       transform="scale(1.00104)"
       font-size="11"
       font-weight="400"
       font-style="normal"
       id="g270"
       style="font-style:normal;font-weight:400;font-size:11px;font-family:Ubuntu;fill:none;stroke:#000000;stroke-width:1;stroke-linecap:square;stroke-linejoin:bevel;stroke-opacity:1" />
    <g
       transform="scale(1.00104)"
       font-size="11"
       font-weight="400"
       font-style="normal"
       id="g276"
       style="font-style:normal;font-weight:400;font-size:11px;font-family:Ubuntu;fill:none;stroke:#000000;stroke-width:1;stroke-linecap:round;stroke-linejoin:round;stroke-opacity:1">
      <polyline
         points="415.5,867.5 415.5,861.5 "
         id="polyline272"
         style="vector-effect:none;fill:none" />
      <polyline
         points="415.5,15.5 415.5,21.5 "
         id="polyline274"
         style="vector-effect:none;fill:none" />
    </g>
    <g
       transform="scale(1.00104)"
       font-size="11"
       font-weight="400"
       font-style="normal"
       id="g278"
       style="font-style:normal;font-weight:400;font-size:11px;font-family:Ubuntu;fill:none;stroke:#000000;stroke-width:1;stroke-linecap:square;stroke-linejoin:bevel;stroke-opacity:1" />
    <g
       transform="matrix(1.00104,0,0,1.00104,375.391,895.933)"
       font-size="11"
       font-weight="400"
       font-style="normal"
       id="g280"
       style="font-style:normal;font-weight:400;font-size:11px;font-family:Ubuntu;fill:none;stroke:#000000;stroke-width:1;stroke-linecap:square;stroke-linejoin:bevel;stroke-opacity:1" />
    <g
       transform="matrix(1.00104,0,0,1.00104,375.391,895.933)"
       font-size="11"
       font-weight="400"
       font-style="normal"
       id="g282"
       style="font-style:normal;font-weight:400;font-size:11px;font-family:Ubuntu;fill:none;stroke:#000000;stroke-width:1;stroke-linecap:square;stroke-linejoin:bevel;stroke-opacity:1" />
    <g
       transform="matrix(1.00104,0,0,1.00104,375.391,895.933)"
       font-size="11"
       font-weight="400"
       font-style="normal"
       id="g284"
       style="font-style:normal;font-weight:400;font-size:11px;font-family:Ubuntu;fill:none;stroke:#000000;stroke-width:1;stroke-linecap:square;stroke-linejoin:bevel;stroke-opacity:1" />
    <g
       transform="matrix(1.00104,0,0,1.00104,375.391,895.933)"
       font-size="11"
       font-weight="400"
       font-style="normal"
       id="g286"
       style="font-style:normal;font-weight:400;font-size:11px;font-family:Ubuntu;fill:none;stroke:#000000;stroke-width:1;stroke-linecap:square;stroke-linejoin:bevel;stroke-opacity:1" />
    <g
       transform="matrix(1.00104,0,0,1.00104,375.391,895.933)"
       font-size="11"
       font-weight="400"
       font-style="normal"
       id="g288"
       style="font-style:normal;font-weight:400;font-size:11px;font-family:Ubuntu;fill:none;stroke:#000000;stroke-width:1;stroke-linecap:square;stroke-linejoin:bevel;stroke-opacity:1" />
    <g
       transform="matrix(1.5224567,0,0,1.5224567,359.61152,913.24748)"
       font-size="28"
       font-weight="400"
       font-style="normal"
       id="g292"
       style="font-style:normal;font-weight:400;font-size:28px;font-family:Sans;fill:none;stroke:#000000;stroke-width:1;stroke-linecap:square;stroke-linejoin:bevel;stroke-opacity:1">
      <text
         xml:space="preserve"
         x="0"
         y="0"
         font-size="28"
         font-weight="400"
         font-style="normal"
         id="text290"
         style="font-style:normal;font-weight:400;font-size:28px;font-family:Sans;fill:#000000;fill-opacity:1;stroke:none"> 200</text>
    </g>
    <g
       transform="matrix(1.00104,0,0,1.00104,375.391,895.933)"
       font-size="11"
       font-weight="400"
       font-style="normal"
       id="g294"
       style="font-style:normal;font-weight:400;font-size:11px;font-family:Ubuntu;fill:none;stroke:#000000;stroke-width:1;stroke-linecap:square;stroke-linejoin:bevel;stroke-opacity:1" />
    <g
       transform="scale(1.00104)"
       font-size="11"
       font-weight="400"
       font-style="normal"
       id="g296"
       style="font-style:normal;font-weight:400;font-size:11px;font-family:Ubuntu;fill:none;stroke:#000000;stroke-width:1;stroke-linecap:square;stroke-linejoin:bevel;stroke-opacity:1" />
    <g
       transform="scale(1.00104)"
       font-size="11"
       font-weight="400"
       font-style="normal"
       id="g302"
       style="font-style:normal;font-weight:400;font-size:11px;font-family:Ubuntu;fill:none;stroke:#000000;stroke-width:1;stroke-linecap:round;stroke-linejoin:round;stroke-opacity:1">
      <polyline
         points="600.5,867.5 600.5,861.5 "
         id="polyline298"
         style="vector-effect:none;fill:none" />
      <polyline
         points="600.5,15.5 600.5,21.5 "
         id="polyline300"
         style="vector-effect:none;fill:none" />
    </g>
    <g
       transform="scale(1.00104)"
       font-size="11"
       font-weight="400"
       font-style="normal"
       id="g304"
       style="font-style:normal;font-weight:400;font-size:11px;font-family:Ubuntu;fill:none;stroke:#000000;stroke-width:1;stroke-linecap:square;stroke-linejoin:bevel;stroke-opacity:1" />
    <g
       transform="matrix(1.00104,0,0,1.00104,560.584,895.933)"
       font-size="11"
       font-weight="400"
       font-style="normal"
       id="g306"
       style="font-style:normal;font-weight:400;font-size:11px;font-family:Ubuntu;fill:none;stroke:#000000;stroke-width:1;stroke-linecap:square;stroke-linejoin:bevel;stroke-opacity:1" />
    <g
       transform="matrix(1.00104,0,0,1.00104,560.584,895.933)"
       font-size="11"
       font-weight="400"
       font-style="normal"
       id="g308"
       style="font-style:normal;font-weight:400;font-size:11px;font-family:Ubuntu;fill:none;stroke:#000000;stroke-width:1;stroke-linecap:square;stroke-linejoin:bevel;stroke-opacity:1" />
    <g
       transform="matrix(1.00104,0,0,1.00104,560.584,895.933)"
       font-size="11"
       font-weight="400"
       font-style="normal"
       id="g310"
       style="font-style:normal;font-weight:400;font-size:11px;font-family:Ubuntu;fill:none;stroke:#000000;stroke-width:1;stroke-linecap:square;stroke-linejoin:bevel;stroke-opacity:1" />
    <g
       transform="matrix(1.00104,0,0,1.00104,560.584,895.933)"
       font-size="11"
       font-weight="400"
       font-style="normal"
       id="g312"
       style="font-style:normal;font-weight:400;font-size:11px;font-family:Ubuntu;fill:none;stroke:#000000;stroke-width:1;stroke-linecap:square;stroke-linejoin:bevel;stroke-opacity:1" />
    <g
       transform="matrix(1.00104,0,0,1.00104,560.584,895.933)"
       font-size="11"
       font-weight="400"
       font-style="normal"
       id="g314"
       style="font-style:normal;font-weight:400;font-size:11px;font-family:Ubuntu;fill:none;stroke:#000000;stroke-width:1;stroke-linecap:square;stroke-linejoin:bevel;stroke-opacity:1" />
    <g
       transform="matrix(1.5224567,0,0,1.5224567,544.80452,913.24748)"
       font-size="28"
       font-weight="400"
       font-style="normal"
       id="g318"
       style="font-style:normal;font-weight:400;font-size:28px;font-family:Sans;fill:none;stroke:#000000;stroke-width:1;stroke-linecap:square;stroke-linejoin:bevel;stroke-opacity:1">
      <text
         xml:space="preserve"
         x="0"
         y="0"
         font-size="28"
         font-weight="400"
         font-style="normal"
         id="text316"
         style="font-style:normal;font-weight:400;font-size:28px;font-family:Sans;fill:#000000;fill-opacity:1;stroke:none"> 300</text>
    </g>
    <g
       transform="matrix(1.00104,0,0,1.00104,560.584,895.933)"
       font-size="11"
       font-weight="400"
       font-style="normal"
       id="g320"
       style="font-style:normal;font-weight:400;font-size:11px;font-family:Ubuntu;fill:none;stroke:#000000;stroke-width:1;stroke-linecap:square;stroke-linejoin:bevel;stroke-opacity:1" />
    <g
       transform="scale(1.00104)"
       font-size="11"
       font-weight="400"
       font-style="normal"
       id="g322"
       style="font-style:normal;font-weight:400;font-size:11px;font-family:Ubuntu;fill:none;stroke:#000000;stroke-width:1;stroke-linecap:square;stroke-linejoin:bevel;stroke-opacity:1" />
    <g
       transform="scale(1.00104)"
       font-size="11"
       font-weight="400"
       font-style="normal"
       id="g328"
       style="font-style:normal;font-weight:400;font-size:11px;font-family:Ubuntu;fill:none;stroke:#000000;stroke-width:1;stroke-linecap:round;stroke-linejoin:round;stroke-opacity:1">
      <polyline
         points="786.5,867.5 786.5,861.5 "
         id="polyline324"
         style="vector-effect:none;fill:none" />
      <polyline
         points="786.5,15.5 786.5,21.5 "
         id="polyline326"
         style="vector-effect:none;fill:none" />
    </g>
    <g
       transform="scale(1.00104)"
       font-size="11"
       font-weight="400"
       font-style="normal"
       id="g330"
       style="font-style:normal;font-weight:400;font-size:11px;font-family:Ubuntu;fill:none;stroke:#000000;stroke-width:1;stroke-linecap:square;stroke-linejoin:bevel;stroke-opacity:1" />
    <g
       transform="matrix(1.00104,0,0,1.00104,745.777,895.933)"
       font-size="11"
       font-weight="400"
       font-style="normal"
       id="g332"
       style="font-style:normal;font-weight:400;font-size:11px;font-family:Ubuntu;fill:none;stroke:#000000;stroke-width:1;stroke-linecap:square;stroke-linejoin:bevel;stroke-opacity:1" />
    <g
       transform="matrix(1.00104,0,0,1.00104,745.777,895.933)"
       font-size="11"
       font-weight="400"
       font-style="normal"
       id="g334"
       style="font-style:normal;font-weight:400;font-size:11px;font-family:Ubuntu;fill:none;stroke:#000000;stroke-width:1;stroke-linecap:square;stroke-linejoin:bevel;stroke-opacity:1" />
    <g
       transform="matrix(1.00104,0,0,1.00104,745.777,895.933)"
       font-size="11"
       font-weight="400"
       font-style="normal"
       id="g336"
       style="font-style:normal;font-weight:400;font-size:11px;font-family:Ubuntu;fill:none;stroke:#000000;stroke-width:1;stroke-linecap:square;stroke-linejoin:bevel;stroke-opacity:1" />
    <g
       transform="matrix(1.00104,0,0,1.00104,745.777,895.933)"
       font-size="11"
       font-weight="400"
       font-style="normal"
       id="g338"
       style="font-style:normal;font-weight:400;font-size:11px;font-family:Ubuntu;fill:none;stroke:#000000;stroke-width:1;stroke-linecap:square;stroke-linejoin:bevel;stroke-opacity:1" />
    <g
       transform="matrix(1.00104,0,0,1.00104,745.777,895.933)"
       font-size="11"
       font-weight="400"
       font-style="normal"
       id="g340"
       style="font-style:normal;font-weight:400;font-size:11px;font-family:Ubuntu;fill:none;stroke:#000000;stroke-width:1;stroke-linecap:square;stroke-linejoin:bevel;stroke-opacity:1" />
    <g
       transform="matrix(1.5224567,0,0,1.5224567,729.99752,913.24748)"
       font-size="28"
       font-weight="400"
       font-style="normal"
       id="g344"
       style="font-style:normal;font-weight:400;font-size:28px;font-family:Sans;fill:none;stroke:#000000;stroke-width:1;stroke-linecap:square;stroke-linejoin:bevel;stroke-opacity:1">
      <text
         xml:space="preserve"
         x="0"
         y="0"
         font-size="28"
         font-weight="400"
         font-style="normal"
         id="text342"
         style="font-style:normal;font-weight:400;font-size:28px;font-family:Sans;fill:#000000;fill-opacity:1;stroke:none"> 400</text>
    </g>
    <g
       transform="matrix(1.00104,0,0,1.00104,745.777,895.933)"
       font-size="11"
       font-weight="400"
       font-style="normal"
       id="g346"
       style="font-style:normal;font-weight:400;font-size:11px;font-family:Ubuntu;fill:none;stroke:#000000;stroke-width:1;stroke-linecap:square;stroke-linejoin:bevel;stroke-opacity:1" />
    <g
       transform="scale(1.00104)"
       font-size="11"
       font-weight="400"
       font-style="normal"
       id="g348"
       style="font-style:normal;font-weight:400;font-size:11px;font-family:Ubuntu;fill:none;stroke:#000000;stroke-width:1;stroke-linecap:square;stroke-linejoin:bevel;stroke-opacity:1" />
    <g
       transform="scale(1.00104)"
       font-size="11"
       font-weight="400"
       font-style="normal"
       id="g354"
       style="font-style:normal;font-weight:400;font-size:11px;font-family:Ubuntu;fill:none;stroke:#000000;stroke-width:1;stroke-linecap:round;stroke-linejoin:round;stroke-opacity:1">
      <polyline
         points="971.5,867.5 971.5,861.5 "
         id="polyline350"
         style="vector-effect:none;fill:none" />
      <polyline
         points="971.5,15.5 971.5,21.5 "
         id="polyline352"
         style="vector-effect:none;fill:none" />
    </g>
    <g
       transform="scale(1.00104)"
       font-size="11"
       font-weight="400"
       font-style="normal"
       id="g356"
       style="font-style:normal;font-weight:400;font-size:11px;font-family:Ubuntu;fill:none;stroke:#000000;stroke-width:1;stroke-linecap:square;stroke-linejoin:bevel;stroke-opacity:1" />
    <g
       transform="matrix(1.00104,0,0,1.00104,930.97,895.933)"
       font-size="11"
       font-weight="400"
       font-style="normal"
       id="g358"
       style="font-style:normal;font-weight:400;font-size:11px;font-family:Ubuntu;fill:none;stroke:#000000;stroke-width:1;stroke-linecap:square;stroke-linejoin:bevel;stroke-opacity:1" />
    <g
       transform="matrix(1.00104,0,0,1.00104,930.97,895.933)"
       font-size="11"
       font-weight="400"
       font-style="normal"
       id="g360"
       style="font-style:normal;font-weight:400;font-size:11px;font-family:Ubuntu;fill:none;stroke:#000000;stroke-width:1;stroke-linecap:square;stroke-linejoin:bevel;stroke-opacity:1" />
    <g
       transform="matrix(1.00104,0,0,1.00104,930.97,895.933)"
       font-size="11"
       font-weight="400"
       font-style="normal"
       id="g362"
       style="font-style:normal;font-weight:400;font-size:11px;font-family:Ubuntu;fill:none;stroke:#000000;stroke-width:1;stroke-linecap:square;stroke-linejoin:bevel;stroke-opacity:1" />
    <g
       transform="matrix(1.00104,0,0,1.00104,930.97,895.933)"
       font-size="11"
       font-weight="400"
       font-style="normal"
       id="g364"
       style="font-style:normal;font-weight:400;font-size:11px;font-family:Ubuntu;fill:none;stroke:#000000;stroke-width:1;stroke-linecap:square;stroke-linejoin:bevel;stroke-opacity:1" />
    <g
       transform="matrix(1.00104,0,0,1.00104,930.97,895.933)"
       font-size="11"
       font-weight="400"
       font-style="normal"
       id="g366"
       style="font-style:normal;font-weight:400;font-size:11px;font-family:Ubuntu;fill:none;stroke:#000000;stroke-width:1;stroke-linecap:square;stroke-linejoin:bevel;stroke-opacity:1" />
    <g
       transform="matrix(1.5224567,0,0,1.5224567,915.19052,913.24748)"
       font-size="28"
       font-weight="400"
       font-style="normal"
       id="g370"
       style="font-style:normal;font-weight:400;font-size:28px;font-family:Sans;fill:none;stroke:#000000;stroke-width:1;stroke-linecap:square;stroke-linejoin:bevel;stroke-opacity:1">
      <text
         xml:space="preserve"
         x="0"
         y="0"
         font-size="28"
         font-weight="400"
         font-style="normal"
         id="text368"
         style="font-style:normal;font-weight:400;font-size:28px;font-family:Sans;fill:#000000;fill-opacity:1;stroke:none"> 500</text>
    </g>
    <g
       transform="matrix(1.00104,0,0,1.00104,930.97,895.933)"
       font-size="11"
       font-weight="400"
       font-style="normal"
       id="g372"
       style="font-style:normal;font-weight:400;font-size:11px;font-family:Ubuntu;fill:none;stroke:#000000;stroke-width:1;stroke-linecap:square;stroke-linejoin:bevel;stroke-opacity:1" />
    <g
       transform="scale(1.00104)"
       font-size="11"
       font-weight="400"
       font-style="normal"
       id="g374"
       style="font-style:normal;font-weight:400;font-size:11px;font-family:Ubuntu;fill:none;stroke:#000000;stroke-width:1;stroke-linecap:square;stroke-linejoin:bevel;stroke-opacity:1" />
    <g
       transform="scale(1.00104)"
       font-size="11"
       font-weight="400"
       font-style="normal"
       id="g380"
       style="font-style:normal;font-weight:400;font-size:11px;font-family:Ubuntu;fill:none;stroke:#000000;stroke-width:1;stroke-linecap:round;stroke-linejoin:round;stroke-opacity:1">
      <polyline
         points="1156.5,867.5 1156.5,861.5 "
         id="polyline376"
         style="vector-effect:none;fill:none" />
      <polyline
         points="1156.5,15.5 1156.5,21.5 "
         id="polyline378"
         style="vector-effect:none;fill:none" />
    </g>
    <g
       transform="scale(1.00104)"
       font-size="11"
       font-weight="400"
       font-style="normal"
       id="g382"
       style="font-style:normal;font-weight:400;font-size:11px;font-family:Ubuntu;fill:none;stroke:#000000;stroke-width:1;stroke-linecap:square;stroke-linejoin:bevel;stroke-opacity:1" />
    <g
       transform="matrix(1.00104,0,0,1.00104,1116.16,895.933)"
       font-size="11"
       font-weight="400"
       font-style="normal"
       id="g384"
       style="font-style:normal;font-weight:400;font-size:11px;font-family:Ubuntu;fill:none;stroke:#000000;stroke-width:1;stroke-linecap:square;stroke-linejoin:bevel;stroke-opacity:1" />
    <g
       transform="matrix(1.00104,0,0,1.00104,1116.16,895.933)"
       font-size="11"
       font-weight="400"
       font-style="normal"
       id="g386"
       style="font-style:normal;font-weight:400;font-size:11px;font-family:Ubuntu;fill:none;stroke:#000000;stroke-width:1;stroke-linecap:square;stroke-linejoin:bevel;stroke-opacity:1" />
    <g
       transform="matrix(1.00104,0,0,1.00104,1116.16,895.933)"
       font-size="11"
       font-weight="400"
       font-style="normal"
       id="g388"
       style="font-style:normal;font-weight:400;font-size:11px;font-family:Ubuntu;fill:none;stroke:#000000;stroke-width:1;stroke-linecap:square;stroke-linejoin:bevel;stroke-opacity:1" />
    <g
       transform="matrix(1.00104,0,0,1.00104,1116.16,895.933)"
       font-size="11"
       font-weight="400"
       font-style="normal"
       id="g390"
       style="font-style:normal;font-weight:400;font-size:11px;font-family:Ubuntu;fill:none;stroke:#000000;stroke-width:1;stroke-linecap:square;stroke-linejoin:bevel;stroke-opacity:1" />
    <g
       transform="matrix(1.00104,0,0,1.00104,1116.16,895.933)"
       font-size="11"
       font-weight="400"
       font-style="normal"
       id="g392"
       style="font-style:normal;font-weight:400;font-size:11px;font-family:Ubuntu;fill:none;stroke:#000000;stroke-width:1;stroke-linecap:square;stroke-linejoin:bevel;stroke-opacity:1" />
    <g
       transform="matrix(1.5224567,0,0,1.5224567,1100.3806,913.24748)"
       font-size="28"
       font-weight="400"
       font-style="normal"
       id="g396"
       style="font-style:normal;font-weight:400;font-size:28px;font-family:Sans;fill:none;stroke:#000000;stroke-width:1;stroke-linecap:square;stroke-linejoin:bevel;stroke-opacity:1">
      <text
         xml:space="preserve"
         x="0"
         y="0"
         font-size="28"
         font-weight="400"
         font-style="normal"
         id="text394"
         style="font-style:normal;font-weight:400;font-size:28px;font-family:Sans;fill:#000000;fill-opacity:1;stroke:none"> 600</text>
    </g>
    <g
       transform="matrix(1.00104,0,0,1.00104,1116.16,895.933)"
       font-size="11"
       font-weight="400"
       font-style="normal"
       id="g398"
       style="font-style:normal;font-weight:400;font-size:11px;font-family:Ubuntu;fill:none;stroke:#000000;stroke-width:1;stroke-linecap:square;stroke-linejoin:bevel;stroke-opacity:1" />
    <g
       transform="scale(1.00104)"
       font-size="11"
       font-weight="400"
       font-style="normal"
       id="g400"
       style="font-style:normal;font-weight:400;font-size:11px;font-family:Ubuntu;fill:none;stroke:#000000;stroke-width:1;stroke-linecap:square;stroke-linejoin:bevel;stroke-opacity:1" />
    <g
       transform="scale(1.00104)"
       font-size="11"
       font-weight="400"
       font-style="normal"
       id="g406"
       style="font-style:normal;font-weight:400;font-size:11px;font-family:Ubuntu;fill:none;stroke:#000000;stroke-width:1;stroke-linecap:round;stroke-linejoin:round;stroke-opacity:1">
      <polyline
         points="1341.5,867.5 1341.5,861.5 "
         id="polyline402"
         style="vector-effect:none;fill:none" />
      <polyline
         points="1341.5,15.5 1341.5,21.5 "
         id="polyline404"
         style="vector-effect:none;fill:none" />
    </g>
    <g
       transform="scale(1.00104)"
       font-size="11"
       font-weight="400"
       font-style="normal"
       id="g408"
       style="font-style:normal;font-weight:400;font-size:11px;font-family:Ubuntu;fill:none;stroke:#000000;stroke-width:1;stroke-linecap:square;stroke-linejoin:bevel;stroke-opacity:1" />
    <g
       transform="matrix(1.00104,0,0,1.00104,1302.36,895.933)"
       font-size="11"
       font-weight="400"
       font-style="normal"
       id="g410"
       style="font-style:normal;font-weight:400;font-size:11px;font-family:Ubuntu;fill:none;stroke:#000000;stroke-width:1;stroke-linecap:square;stroke-linejoin:bevel;stroke-opacity:1" />
    <g
       transform="matrix(1.00104,0,0,1.00104,1302.36,895.933)"
       font-size="11"
       font-weight="400"
       font-style="normal"
       id="g412"
       style="font-style:normal;font-weight:400;font-size:11px;font-family:Ubuntu;fill:none;stroke:#000000;stroke-width:1;stroke-linecap:square;stroke-linejoin:bevel;stroke-opacity:1" />
    <g
       transform="matrix(1.00104,0,0,1.00104,1302.36,895.933)"
       font-size="11"
       font-weight="400"
       font-style="normal"
       id="g414"
       style="font-style:normal;font-weight:400;font-size:11px;font-family:Ubuntu;fill:none;stroke:#000000;stroke-width:1;stroke-linecap:square;stroke-linejoin:bevel;stroke-opacity:1" />
    <g
       transform="matrix(1.00104,0,0,1.00104,1302.36,895.933)"
       font-size="11"
       font-weight="400"
       font-style="normal"
       id="g416"
       style="font-style:normal;font-weight:400;font-size:11px;font-family:Ubuntu;fill:none;stroke:#000000;stroke-width:1;stroke-linecap:square;stroke-linejoin:bevel;stroke-opacity:1" />
    <g
       transform="matrix(1.00104,0,0,1.00104,1302.36,895.933)"
       font-size="11"
       font-weight="400"
       font-style="normal"
       id="g418"
       style="font-style:normal;font-weight:400;font-size:11px;font-family:Ubuntu;fill:none;stroke:#000000;stroke-width:1;stroke-linecap:square;stroke-linejoin:bevel;stroke-opacity:1" />
    <g
       transform="matrix(1.5224567,0,0,1.5224567,1286.5806,913.24748)"
       font-size="28"
       font-weight="400"
       font-style="normal"
       id="g422"
       style="font-style:normal;font-weight:400;font-size:28px;font-family:Sans;fill:none;stroke:#000000;stroke-width:1;stroke-linecap:square;stroke-linejoin:bevel;stroke-opacity:1">
      <text
         xml:space="preserve"
         x="0"
         y="0"
         font-size="28"
         font-weight="400"
         font-style="normal"
         id="text420"
         style="font-style:normal;font-weight:400;font-size:28px;font-family:Sans;fill:#000000;fill-opacity:1;stroke:none"> 700</text>
    </g>
    <g
       transform="matrix(1.00104,0,0,1.00104,1302.36,895.933)"
       font-size="11"
       font-weight="400"
       font-style="normal"
       id="g424"
       style="font-style:normal;font-weight:400;font-size:11px;font-family:Ubuntu;fill:none;stroke:#000000;stroke-width:1;stroke-linecap:square;stroke-linejoin:bevel;stroke-opacity:1" />
    <g
       transform="scale(1.00104)"
       font-size="11"
       font-weight="400"
       font-style="normal"
       id="g426"
       style="font-style:normal;font-weight:400;font-size:11px;font-family:Ubuntu;fill:none;stroke:#000000;stroke-width:1;stroke-linecap:square;stroke-linejoin:bevel;stroke-opacity:1" />
    <g
       transform="scale(1.00104)"
       font-size="11"
       font-weight="400"
       font-style="normal"
       id="g432"
       style="font-style:normal;font-weight:400;font-size:11px;font-family:Ubuntu;fill:none;stroke:#000000;stroke-width:1;stroke-linecap:round;stroke-linejoin:round;stroke-opacity:1">
      <polyline
         points="1526.5,867.5 1526.5,861.5 "
         id="polyline428"
         style="vector-effect:none;fill:none" />
      <polyline
         points="1526.5,15.5 1526.5,21.5 "
         id="polyline430"
         style="vector-effect:none;fill:none" />
    </g>
    <g
       transform="scale(1.00104)"
       font-size="11"
       font-weight="400"
       font-style="normal"
       id="g434"
       style="font-style:normal;font-weight:400;font-size:11px;font-family:Ubuntu;fill:none;stroke:#000000;stroke-width:1;stroke-linecap:square;stroke-linejoin:bevel;stroke-opacity:1" />
    <g
       transform="matrix(1.00104,0,0,1.00104,1487.55,895.933)"
       font-size="11"
       font-weight="400"
       font-style="normal"
       id="g436"
       style="font-style:normal;font-weight:400;font-size:11px;font-family:Ubuntu;fill:none;stroke:#000000;stroke-width:1;stroke-linecap:square;stroke-linejoin:bevel;stroke-opacity:1" />
    <g
       transform="matrix(1.00104,0,0,1.00104,1487.55,895.933)"
       font-size="11"
       font-weight="400"
       font-style="normal"
       id="g438"
       style="font-style:normal;font-weight:400;font-size:11px;font-family:Ubuntu;fill:none;stroke:#000000;stroke-width:1;stroke-linecap:square;stroke-linejoin:bevel;stroke-opacity:1" />
    <g
       transform="matrix(1.00104,0,0,1.00104,1487.55,895.933)"
       font-size="11"
       font-weight="400"
       font-style="normal"
       id="g440"
       style="font-style:normal;font-weight:400;font-size:11px;font-family:Ubuntu;fill:none;stroke:#000000;stroke-width:1;stroke-linecap:square;stroke-linejoin:bevel;stroke-opacity:1" />
    <g
       transform="matrix(1.00104,0,0,1.00104,1487.55,895.933)"
       font-size="11"
       font-weight="400"
       font-style="normal"
       id="g442"
       style="font-style:normal;font-weight:400;font-size:11px;font-family:Ubuntu;fill:none;stroke:#000000;stroke-width:1;stroke-linecap:square;stroke-linejoin:bevel;stroke-opacity:1" />
    <g
       transform="matrix(1.00104,0,0,1.00104,1487.55,895.933)"
       font-size="11"
       font-weight="400"
       font-style="normal"
       id="g444"
       style="font-style:normal;font-weight:400;font-size:11px;font-family:Ubuntu;fill:none;stroke:#000000;stroke-width:1;stroke-linecap:square;stroke-linejoin:bevel;stroke-opacity:1" />
    <g
       transform="matrix(1.5224567,0,0,1.5224567,1471.7706,913.24748)"
       font-size="28"
       font-weight="400"
       font-style="normal"
       id="g448"
       style="font-style:normal;font-weight:400;font-size:28px;font-family:Sans;fill:none;stroke:#000000;stroke-width:1;stroke-linecap:square;stroke-linejoin:bevel;stroke-opacity:1">
      <text
         xml:space="preserve"
         x="0"
         y="0"
         font-size="28"
         font-weight="400"
         font-style="normal"
         id="text446"
         style="font-style:normal;font-weight:400;font-size:28px;font-family:Sans;fill:#000000;fill-opacity:1;stroke:none"> 800</text>
    </g>
    <g
       transform="matrix(1.00104,0,0,1.00104,1487.55,895.933)"
       font-size="11"
       font-weight="400"
       font-style="normal"
       id="g450"
       style="font-style:normal;font-weight:400;font-size:11px;font-family:Ubuntu;fill:none;stroke:#000000;stroke-width:1;stroke-linecap:square;stroke-linejoin:bevel;stroke-opacity:1" />
    <g
       transform="scale(1.00104)"
       font-size="11"
       font-weight="400"
       font-style="normal"
       id="g452"
       style="font-style:normal;font-weight:400;font-size:11px;font-family:Ubuntu;fill:none;stroke:#000000;stroke-width:1;stroke-linecap:square;stroke-linejoin:bevel;stroke-opacity:1" />
    <g
       transform="scale(1.00104)"
       font-size="11"
       font-weight="400"
       font-style="normal"
       id="g458"
       style="font-style:normal;font-weight:400;font-size:11px;font-family:Ubuntu;fill:none;stroke:#000000;stroke-width:1;stroke-linecap:round;stroke-linejoin:round;stroke-opacity:1">
      <polyline
         points="1711.5,867.5 1711.5,861.5 "
         id="polyline454"
         style="vector-effect:none;fill:none" />
      <polyline
         points="1711.5,15.5 1711.5,21.5 "
         id="polyline456"
         style="vector-effect:none;fill:none" />
    </g>
    <g
       transform="scale(1.00104)"
       font-size="11"
       font-weight="400"
       font-style="normal"
       id="g460"
       style="font-style:normal;font-weight:400;font-size:11px;font-family:Ubuntu;fill:none;stroke:#000000;stroke-width:1;stroke-linecap:square;stroke-linejoin:bevel;stroke-opacity:1" />
    <g
       transform="matrix(1.00104,0,0,1.00104,1672.74,895.933)"
       font-size="11"
       font-weight="400"
       font-style="normal"
       id="g462"
       style="font-style:normal;font-weight:400;font-size:11px;font-family:Ubuntu;fill:none;stroke:#000000;stroke-width:1;stroke-linecap:square;stroke-linejoin:bevel;stroke-opacity:1" />
    <g
       transform="matrix(1.00104,0,0,1.00104,1672.74,895.933)"
       font-size="11"
       font-weight="400"
       font-style="normal"
       id="g464"
       style="font-style:normal;font-weight:400;font-size:11px;font-family:Ubuntu;fill:none;stroke:#000000;stroke-width:1;stroke-linecap:square;stroke-linejoin:bevel;stroke-opacity:1" />
    <g
       transform="matrix(1.00104,0,0,1.00104,1672.74,895.933)"
       font-size="11"
       font-weight="400"
       font-style="normal"
       id="g466"
       style="font-style:normal;font-weight:400;font-size:11px;font-family:Ubuntu;fill:none;stroke:#000000;stroke-width:1;stroke-linecap:square;stroke-linejoin:bevel;stroke-opacity:1" />
    <g
       transform="matrix(1.00104,0,0,1.00104,1672.74,895.933)"
       font-size="11"
       font-weight="400"
       font-style="normal"
       id="g468"
       style="font-style:normal;font-weight:400;font-size:11px;font-family:Ubuntu;fill:none;stroke:#000000;stroke-width:1;stroke-linecap:square;stroke-linejoin:bevel;stroke-opacity:1" />
    <g
       transform="matrix(1.00104,0,0,1.00104,1672.74,895.933)"
       font-size="11"
       font-weight="400"
       font-style="normal"
       id="g470"
       style="font-style:normal;font-weight:400;font-size:11px;font-family:Ubuntu;fill:none;stroke:#000000;stroke-width:1;stroke-linecap:square;stroke-linejoin:bevel;stroke-opacity:1" />
    <g
       transform="matrix(1.5224567,0,0,1.5224567,1656.9606,913.24748)"
       font-size="28"
       font-weight="400"
       font-style="normal"
       id="g474"
       style="font-style:normal;font-weight:400;font-size:28px;font-family:Sans;fill:none;stroke:#000000;stroke-width:1;stroke-linecap:square;stroke-linejoin:bevel;stroke-opacity:1">
      <text
         xml:space="preserve"
         x="0"
         y="0"
         font-size="28"
         font-weight="400"
         font-style="normal"
         id="text472"
         style="font-style:normal;font-weight:400;font-size:28px;font-family:Sans;fill:#000000;fill-opacity:1;stroke:none"> 900</text>
    </g>
    <g
       transform="matrix(1.00104,0,0,1.00104,1672.74,895.933)"
       font-size="11"
       font-weight="400"
       font-style="normal"
       id="g476"
       style="font-style:normal;font-weight:400;font-size:11px;font-family:Ubuntu;fill:none;stroke:#000000;stroke-width:1;stroke-linecap:square;stroke-linejoin:bevel;stroke-opacity:1" />
    <g
       transform="scale(1.00104)"
       font-size="11"
       font-weight="400"
       font-style="normal"
       id="g478"
       style="font-style:normal;font-weight:400;font-size:11px;font-family:Ubuntu;fill:none;stroke:#000000;stroke-width:1;stroke-linecap:square;stroke-linejoin:bevel;stroke-opacity:1" />
    <g
       transform="scale(1.00104)"
       font-size="11"
       font-weight="400"
       font-style="normal"
       id="g484"
       style="font-style:normal;font-weight:400;font-size:11px;font-family:Ubuntu;fill:none;stroke:#000000;stroke-width:1;stroke-linecap:round;stroke-linejoin:round;stroke-opacity:1">
      <polyline
         points="1896.5,867.5 1896.5,861.5 "
         id="polyline480"
         style="vector-effect:none;fill:none" />
      <polyline
         points="1896.5,15.5 1896.5,21.5 "
         id="polyline482"
         style="vector-effect:none;fill:none" />
    </g>
    <g
       transform="scale(1.00104)"
       font-size="11"
       font-weight="400"
       font-style="normal"
       id="g486"
       style="font-style:normal;font-weight:400;font-size:11px;font-family:Ubuntu;fill:none;stroke:#000000;stroke-width:1;stroke-linecap:square;stroke-linejoin:bevel;stroke-opacity:1" />
    <g
       transform="matrix(1.00104,0,0,1.00104,1845.92,895.933)"
       font-size="11"
       font-weight="400"
       font-style="normal"
       id="g488"
       style="font-style:normal;font-weight:400;font-size:11px;font-family:Ubuntu;fill:none;stroke:#000000;stroke-width:1;stroke-linecap:square;stroke-linejoin:bevel;stroke-opacity:1" />
    <g
       transform="matrix(1.00104,0,0,1.00104,1845.92,895.933)"
       font-size="11"
       font-weight="400"
       font-style="normal"
       id="g490"
       style="font-style:normal;font-weight:400;font-size:11px;font-family:Ubuntu;fill:none;stroke:#000000;stroke-width:1;stroke-linecap:square;stroke-linejoin:bevel;stroke-opacity:1" />
    <g
       transform="matrix(1.00104,0,0,1.00104,1845.92,895.933)"
       font-size="11"
       font-weight="400"
       font-style="normal"
       id="g492"
       style="font-style:normal;font-weight:400;font-size:11px;font-family:Ubuntu;fill:none;stroke:#000000;stroke-width:1;stroke-linecap:square;stroke-linejoin:bevel;stroke-opacity:1" />
    <g
       transform="matrix(1.00104,0,0,1.00104,1845.92,895.933)"
       font-size="11"
       font-weight="400"
       font-style="normal"
       id="g494"
       style="font-style:normal;font-weight:400;font-size:11px;font-family:Ubuntu;fill:none;stroke:#000000;stroke-width:1;stroke-linecap:square;stroke-linejoin:bevel;stroke-opacity:1" />
    <g
       transform="matrix(1.00104,0,0,1.00104,1845.92,895.933)"
       font-size="11"
       font-weight="400"
       font-style="normal"
       id="g496"
       style="font-style:normal;font-weight:400;font-size:11px;font-family:Ubuntu;fill:none;stroke:#000000;stroke-width:1;stroke-linecap:square;stroke-linejoin:bevel;stroke-opacity:1" />
    <g
       transform="matrix(1.5224567,0,0,1.5224567,1825.4926,913.24748)"
       font-size="28"
       font-weight="400"
       font-style="normal"
       id="g500"
       style="font-style:normal;font-weight:400;font-size:28px;font-family:Sans;fill:none;stroke:#000000;stroke-width:1;stroke-linecap:square;stroke-linejoin:bevel;stroke-opacity:1">
      <text
         xml:space="preserve"
         x="0"
         y="0"
         font-size="28"
         font-weight="400"
         font-style="normal"
         id="text498"
         style="font-style:normal;font-weight:400;font-size:28px;font-family:Sans;fill:#000000;fill-opacity:1;stroke:none"> 1000</text>
    </g>
    <g
       transform="matrix(1.00104,0,0,1.00104,1845.92,895.933)"
       font-size="11"
       font-weight="400"
       font-style="normal"
       id="g502"
       style="font-style:normal;font-weight:400;font-size:11px;font-family:Ubuntu;fill:none;stroke:#000000;stroke-width:1;stroke-linecap:square;stroke-linejoin:bevel;stroke-opacity:1" />
    <g
       transform="scale(1.00104)"
       font-size="11"
       font-weight="400"
       font-style="normal"
       id="g504"
       style="font-style:normal;font-weight:400;font-size:11px;font-family:Ubuntu;fill:none;stroke:#000000;stroke-width:1;stroke-linecap:square;stroke-linejoin:bevel;stroke-opacity:1" />
    <g
       transform="scale(1.00104)"
       font-size="11"
       font-weight="400"
       font-style="normal"
       id="g508"
       style="font-style:normal;font-weight:400;font-size:11px;font-family:Ubuntu;fill:none;stroke:#000000;stroke-width:1;stroke-linecap:round;stroke-linejoin:round;stroke-opacity:1">
      <polyline
         points="45.5,15.5 45.5,867.5 1896.5,867.5 1896.5,15.5 45.5,15.5 "
         id="polyline506"
         style="vector-effect:none;fill:none" />
    </g>
    <g
       transform="scale(1.00104)"
       font-size="11"
       font-weight="400"
       font-style="normal"
       id="g510"
       style="font-style:normal;font-weight:400;font-size:11px;font-family:Ubuntu;fill:none;stroke:#000000;stroke-width:1;stroke-linecap:square;stroke-linejoin:bevel;stroke-opacity:1" />
    <g
       transform="scale(1.00104)"
       font-size="11"
       font-weight="400"
       font-style="normal"
       id="g512"
       style="font-style:normal;font-weight:400;font-size:11px;font-family:Ubuntu;fill:none;stroke:#000000;stroke-width:1;stroke-linecap:square;stroke-linejoin:bevel;stroke-opacity:1" />
    <g
       transform="scale(1.00104)"
       font-size="11"
       font-weight="400"
       font-style="normal"
       id="g514"
       style="font-style:normal;font-weight:400;font-size:11px;font-family:Ubuntu;fill:none;stroke:#000000;stroke-width:1;stroke-linecap:square;stroke-linejoin:bevel;stroke-opacity:1" />
    <g
       transform="scale(1.00104)"
       font-size="11"
       font-weight="400"
       font-style="normal"
       id="g516"
       style="font-style:normal;font-weight:400;font-size:11px;font-family:Ubuntu;fill:none;stroke:#000000;stroke-width:1;stroke-linecap:square;stroke-linejoin:bevel;stroke-opacity:1" />
    <g
       transform="scale(1.00104)"
       font-size="11"
       font-weight="400"
       font-style="normal"
       id="g520"
       style="font-style:normal;font-weight:400;font-size:11px;font-family:Ubuntu;fill:none;stroke:#9400d3;stroke-width:1;stroke-linecap:round;stroke-linejoin:round;stroke-opacity:1">
      <polyline
         points="45.5,814.7 45.5,814.7 47.4,810.2 49.2,805.4 51.1,800.3 52.9,795 54.8,789.5 56.6,783.8 58.5,777.9 60.3,771.7 62.2,765.4 64,758.8 65.9,752.1 67.7,745.1 69.6,738 71.4,730.7 73.3,723.3 75.1,715.7 77,707.9 78.8,700 80.7,691.9 82.5,683.7 84.4,675.4 86.2,666.9 88.1,658.4 89.9,649.7 91.8,640.9 93.6,632 95.5,623 97.3,614 99.2,604.8 101,595.6 102.9,586.4 104.7,577 106.6,567.6 108.4,558.2 110.3,548.7 112.2,539.2 114,529.7 115.9,520.1 117.7,510.6 119.6,501 121.4,491.4 123.3,481.8 125.1,472.3 127,462.7 128.8,453.2 130.7,443.7 132.5,434.2 134.4,424.8 136.2,415.4 138.1,406.1 139.9,396.9 141.8,387.7 143.6,378.5 145.5,369.5 147.3,360.5 149.2,351.6 151,342.8 152.9,334.1 154.7,325.5 156.6,317 158.4,308.6 160.3,300.3 162.1,292.1 164,284.1 165.8,276.1 167.7,268.3 169.5,260.7 171.4,253.2 173.2,245.8 175.1,238.6 176.9,231.5 178.8,224.5 180.7,217.8 182.5,211.2 184.4,204.7 186.2,198.4 188.1,192.3 189.9,186.3 191.8,180.6 193.6,175 195.5,169.5 197.3,164.3 199.2,159.2 201,154.3 202.9,149.6 204.7,145.1 206.6,140.8 208.4,136.7 210.3,132.7 212.1,129 214,125.4 215.8,122 217.7,118.8 219.5,115.9 221.4,113.1 223.2,110.5 225.1,108.1 226.9,105.9 228.8,103.9 230.6,102 232.5,100.4 234.3,99 236.2,97.7 238,96.7 239.9,95.9 241.7,95.2 243.6,94.7 245.5,94.4 247.3,94.3 249.2,94.4 251,94.7 252.9,95.1 254.7,95.8 256.6,96.6 258.4,97.6 260.3,98.7 262.1,100.1 264,101.6 265.8,103.2 267.7,105.1 269.5,107.1 271.4,109.2 273.2,111.5 275.1,114 276.9,116.6 278.8,119.4 280.6,122.3 282.5,125.4 284.3,128.6 286.2,131.9 288,135.4 289.9,139 291.7,142.7 293.6,146.6 295.4,150.6 297.3,154.7 299.1,158.9 301,163.2 302.8,167.6 304.7,172.1 306.5,176.7 308.4,181.4 310.3,186.2 312.1,191.1 314,196.1 315.8,201.2 317.7,206.3 319.5,211.5 321.4,216.7 323.2,222.1 325.1,227.5 326.9,232.9 328.8,238.4 330.6,243.9 332.5,249.5 334.3,255.2 336.2,260.8 338,266.5 339.9,272.2 341.7,278 343.6,283.8 345.4,289.5 347.3,295.3 349.1,301.1 351,306.9 352.8,312.8 354.7,318.6 356.5,324.4 358.4,330.2 360.2,335.9 362.1,341.7 363.9,347.4 365.8,353.1 367.6,358.8 369.5,364.5 371.3,370.1 373.2,375.7 375,381.2 376.9,386.7 378.8,392.2 380.6,397.6 382.5,402.9 384.3,408.2 386.2,413.4 388,418.6 389.9,423.7 391.7,428.7 393.6,433.6 395.4,438.5 397.3,443.3 399.1,448 401,452.7 402.8,457.3 404.7,461.7 406.5,466.1 408.4,470.4 410.2,474.6 412.1,478.7 413.9,482.7 415.8,486.6 417.6,490.5 419.5,494.2 421.3,497.8 423.2,501.3 425,504.7 426.9,508 428.7,511.2 430.6,514.2 432.4,517.2 434.3,520 436.1,522.8 438,525.4 439.8,527.9 441.7,530.3 443.6,532.6 445.4,534.8 447.3,536.8 449.1,538.7 451,540.5 452.8,542.2 454.7,543.8 456.5,545.3 458.4,546.6 460.2,547.8 462.1,548.9 463.9,549.9 465.8,550.8 467.6,551.5 469.5,552.1 471.3,552.7 473.2,553.1 475,553.4 476.9,553.5 478.7,553.6 480.6,553.5 482.4,553.4 484.3,553.1 486.1,552.7 488,552.2 489.8,551.6 491.7,550.9 493.5,550.1 495.4,549.2 497.2,548.2 499.1,547.1 500.9,545.9 502.8,544.6 504.6,543.1 506.5,541.6 508.4,540.1 510.2,538.4 512.1,536.6 513.9,534.7 515.8,532.8 517.6,530.8 519.5,528.7 521.3,526.5 523.2,524.2 525,521.9 526.9,519.5 528.7,517 530.6,514.5 532.4,511.8 534.3,509.2 536.1,506.4 538,503.6 539.8,500.8 541.7,497.8 543.5,494.9 545.4,491.9 547.2,488.8 549.1,485.7 550.9,482.5 552.8,479.3 554.6,476.1 556.5,472.8 558.3,469.5 560.2,466.2 562,462.8 563.9,459.5 565.7,456 567.6,452.6 569.4,449.2 571.3,445.7 573.1,442.2 575,438.7 576.9,435.2 578.7,431.7 580.6,428.2 582.4,424.6 584.3,421.1 586.1,417.6 588,414.1 589.8,410.6 591.7,407.1 593.5,403.6 595.4,400.1 597.2,396.6 599.1,393.2 600.9,389.7 602.8,386.3 604.6,382.9 606.5,379.6 608.3,376.3 610.2,372.9 612,369.7 613.9,366.4 615.7,363.2 617.6,360.1 619.4,356.9 621.3,353.8 623.1,350.8 625,347.8 626.8,344.8 628.7,341.9 630.5,339 632.4,336.2 634.2,333.5 636.1,330.8 637.9,328.1 639.8,325.5 641.7,322.9 643.5,320.4 645.4,318 647.2,315.6 649.1,313.3 650.9,311.1 652.8,308.9 654.6,306.8 656.5,304.7 658.3,302.7 660.2,300.8 662,298.9 663.9,297.1 665.7,295.4 667.6,293.7 669.4,292.1 671.3,290.6 673.1,289.2 675,287.8 676.8,286.5 678.7,285.2 680.5,284.1 682.4,283 684.2,281.9 686.1,281 687.9,280.1 689.8,279.3 691.6,278.5 693.5,277.9 695.3,277.3 697.2,276.7 699,276.3 700.9,275.9 702.7,275.6 704.6,275.3 706.4,275.2 708.3,275.1 710.2,275 712,275.1 713.9,275.2 715.7,275.3 717.6,275.6 719.4,275.9 721.3,276.2 723.1,276.7 725,277.1 726.8,277.7 728.7,278.3 730.5,279 732.4,279.7 734.2,280.5 736.1,281.4 737.9,282.3 739.8,283.2 741.6,284.3 743.5,285.3 745.3,286.5 747.2,287.6 749,288.9 750.9,290.1 752.7,291.5 754.6,292.8 756.4,294.3 758.3,295.7 760.1,297.2 762,298.8 763.8,300.4 765.7,302 767.5,303.6 769.4,305.3 771.2,307.1 773.1,308.8 775,310.6 776.8,312.5 778.7,314.3 780.5,316.2 782.4,318.1 784.2,320.1 786.1,322 787.9,324 789.8,326 791.6,328 793.5,330.1 795.3,332.1 797.2,334.2 799,336.3 800.9,338.4 802.7,340.5 804.6,342.6 806.4,344.7 808.3,346.8 810.1,349 812,351.1 813.8,353.3 815.7,355.4 817.5,357.5 819.4,359.7 821.2,361.8 823.1,363.9 824.9,366 826.8,368.1 828.6,370.2 830.5,372.3 832.3,374.4 834.2,376.5 836,378.5 837.9,380.6 839.8,382.6 841.6,384.6 843.5,386.6 845.3,388.5 847.2,390.5 849,392.4 850.9,394.3 852.7,396.2 854.6,398 856.4,399.9 858.3,401.7 860.1,403.4 862,405.2 863.8,406.9 865.7,408.5 867.5,410.2 869.4,411.8 871.2,413.4 873.1,414.9 874.9,416.4 876.8,417.9 878.6,419.4 880.5,420.8 882.3,422.1 884.2,423.5 886,424.7 887.9,426 889.7,427.2 891.6,428.4 893.4,429.5 895.3,430.6 897.1,431.6 899,432.7 900.8,433.6 902.7,434.5 904.5,435.4 906.4,436.3 908.3,437.1 910.1,437.8 912,438.5 913.8,439.2 915.7,439.8 917.5,440.4 919.4,440.9 921.2,441.4 923.1,441.9 924.9,442.3 926.8,442.6 928.6,442.9 930.5,443.2 932.3,443.5 934.2,443.6 936,443.8 937.9,443.9 939.7,444 941.6,444 943.4,444 945.3,443.9 947.1,443.8 949,443.7 950.8,443.5 952.7,443.3 954.5,443 956.4,442.7 958.2,442.4 960.1,442 961.9,441.6 963.8,441.1 965.6,440.7 967.5,440.1 969.3,439.6 971.2,439 973.1,438.4 974.9,437.7 976.8,437.1 978.6,436.3 980.5,435.6 982.3,434.8 984.2,434 986,433.2 987.9,432.3 989.7,431.4 991.6,430.5 993.4,429.6 995.3,428.6 997.1,427.6 999,426.6 1000.8,425.6 1002.7,424.6 1004.5,423.5 1006.4,422.4 1008.2,421.3 1010.1,420.2 1011.9,419 1013.8,417.8 1015.6,416.7 1017.5,415.5 1019.3,414.3 1021.2,413.1 1023,411.8 1024.9,410.6 1026.7,409.4 1028.6,408.1 1030.4,406.8 1032.3,405.6 1034.1,404.3 1036,403 1037.9,401.7 1039.7,400.4 1041.6,399.1 1043.4,397.8 1045.3,396.5 1047.1,395.2 1049,394 1050.8,392.7 1052.7,391.4 1054.5,390.1 1056.4,388.8 1058.2,387.5 1060.1,386.2 1061.9,385 1063.8,383.7 1065.6,382.5 1067.5,381.2 1069.3,380 1071.2,378.7 1073,377.5 1074.9,376.3 1076.7,375.1 1078.6,374 1080.4,372.8 1082.3,371.6 1084.1,370.5 1086,369.4 1087.8,368.3 1089.7,367.2 1091.5,366.1 1093.4,365.1 1095.2,364 1097.1,363 1098.9,362 1100.8,361 1102.6,360.1 1104.5,359.1 1106.4,358.2 1108.2,357.3 1110.1,356.4 1111.9,355.6 1113.8,354.8 1115.6,354 1117.5,353.2 1119.3,352.4 1121.2,351.7 1123,351 1124.9,350.3 1126.7,349.6 1128.6,349 1130.4,348.4 1132.3,347.8 1134.1,347.2 1136,346.7 1137.8,346.2 1139.7,345.7 1141.5,345.3 1143.4,344.8 1145.2,344.4 1147.1,344 1148.9,343.7 1150.8,343.4 1152.6,343.1 1154.5,342.8 1156.3,342.6 1158.2,342.3 1160,342.1 1161.9,342 1163.7,341.8 1165.6,341.7 1167.4,341.6 1169.3,341.6 1171.2,341.5 1173,341.5 1174.9,341.5 1176.7,341.6 1178.6,341.6 1180.4,341.7 1182.3,341.8 1184.1,341.9 1186,342.1 1187.8,342.3 1189.7,342.5 1191.5,342.7 1193.4,343 1195.2,343.2 1197.1,343.5 1198.9,343.8 1200.8,344.2 1202.6,344.5 1204.5,344.9 1206.3,345.3 1208.2,345.7 1210,346.1 1211.9,346.6 1213.7,347.1 1215.6,347.6 1217.4,348.1 1219.3,348.6 1221.1,349.1 1223,349.7 1224.8,350.2 1226.7,350.8 1228.5,351.4 1230.4,352 1232.2,352.7 1234.1,353.3 1236,354 1237.8,354.6 1239.7,355.3 1241.5,356 1243.4,356.7 1245.2,357.4 1247.1,358.1 1248.9,358.8 1250.8,359.5 1252.6,360.3 1254.5,361 1256.3,361.8 1258.2,362.5 1260,363.3 1261.9,364 1263.7,364.8 1265.6,365.6 1267.4,366.4 1269.3,367.1 1271.1,367.9 1273,368.7 1274.8,369.5 1276.7,370.3 1278.5,371.1 1280.4,371.9 1282.2,372.6 1284.1,373.4 1285.9,374.2 1287.8,375 1289.6,375.8 1291.5,376.5 1293.3,377.3 1295.2,378.1 1297,378.8 1298.9,379.6 1300.7,380.3 1302.6,381.1 1304.5,381.8 1306.3,382.5 1308.2,383.3 1310,384 1311.9,384.7 1313.7,385.4 1315.6,386.1 1317.4,386.8 1319.3,387.4 1321.1,388.1 1323,388.7 1324.8,389.4 1326.7,390 1328.5,390.6 1330.4,391.2 1332.2,391.8 1334.1,392.4 1335.9,393 1337.8,393.5 1339.6,394.1 1341.5,394.6 1343.3,395.1 1345.2,395.6 1347,396.1 1348.9,396.6 1350.7,397 1352.6,397.5 1354.4,397.9 1356.3,398.3 1358.1,398.7 1360,399.1 1361.8,399.5 1363.7,399.9 1365.5,400.2 1367.4,400.5 1369.3,400.8 1371.1,401.1 1373,401.4 1374.8,401.7 1376.7,401.9 1378.5,402.1 1380.4,402.3 1382.2,402.5 1384.1,402.7 1385.9,402.9 1387.8,403 1389.6,403.2 1391.5,403.3 1393.3,403.4 1395.2,403.5 1397,403.5 1398.9,403.6 1400.7,403.6 1402.6,403.7 1404.4,403.7 1406.3,403.7 1408.1,403.6 1410,403.6 1411.8,403.5 1413.7,403.5 1415.5,403.4 1417.4,403.3 1419.2,403.2 1421.1,403.1 1422.9,402.9 1424.8,402.8 1426.6,402.6 1428.5,402.4 1430.3,402.3 1432.2,402 1434.1,401.8 1435.9,401.6 1437.8,401.4 1439.6,401.1 1441.5,400.9 1443.3,400.6 1445.2,400.3 1447,400 1448.9,399.7 1450.7,399.4 1452.6,399 1454.4,398.7 1456.3,398.4 1458.1,398 1460,397.7 1461.8,397.3 1463.7,396.9 1465.5,396.5 1467.4,396.1 1469.2,395.7 1471.1,395.3 1472.9,394.9 1474.8,394.5 1476.6,394 1478.5,393.6 1480.3,393.2 1482.2,392.7 1484,392.3 1485.9,391.8 1487.7,391.4 1489.6,390.9 1491.4,390.5 1493.3,390 1495.1,389.5 1497,389.1 1498.8,388.6 1500.7,388.1 1502.6,387.6 1504.4,387.2 1506.3,386.7 1508.1,386.2 1510,385.7 1511.8,385.3 1513.7,384.8 1515.5,384.3 1517.4,383.8 1519.2,383.4 1521.1,382.9 1522.9,382.4 1524.8,382 1526.6,381.5 1528.5,381 1530.3,380.6 1532.2,380.1 1534,379.7 1535.9,379.2 1537.7,378.8 1539.6,378.3 1541.4,377.9 1543.3,377.5 1545.1,377.1 1547,376.6 1548.8,376.2 1550.7,375.8 1552.5,375.4 1554.4,375 1556.2,374.6 1558.1,374.2 1559.9,373.9 1561.8,373.5 1563.6,373.1 1565.5,372.8 1567.4,372.5 1569.2,372.1 1571.1,371.8 1572.9,371.5 1574.8,371.1 1576.6,370.8 1578.5,370.5 1580.3,370.3 1582.2,370 1584,369.7 1585.9,369.4 1587.7,369.2 1589.6,369 1591.4,368.7 1593.3,368.5 1595.1,368.3 1597,368.1 1598.8,367.9 1600.7,367.7 1602.5,367.5 1604.4,367.3 1606.2,367.2 1608.1,367 1609.9,366.9 1611.8,366.8 1613.6,366.7 1615.5,366.5 1617.3,366.4 1619.2,366.4 1621,366.3 1622.9,366.2 1624.7,366.1 1626.6,366.1 1628.4,366 1630.3,366 1632.1,366 1634,366 1635.9,366 1637.7,366 1639.6,366 1641.4,366 1643.3,366 1645.1,366.1 1647,366.1 1648.8,366.2 1650.7,366.3 1652.5,366.3 1654.4,366.4 1656.2,366.5 1658.1,366.6 1659.9,366.7 1661.8,366.8 1663.6,366.9 1665.5,367.1 1667.3,367.2 1669.2,367.4 1671,367.5 1672.9,367.7 1674.7,367.8 1676.6,368 1678.4,368.2 1680.3,368.4 1682.1,368.6 1684,368.8 1685.8,369 1687.7,369.2 1689.5,369.4 1691.4,369.6 1693.2,369.8 1695.1,370.1 1696.9,370.3 1698.8,370.5 1700.7,370.8 1702.5,371 1704.4,371.3 1706.2,371.5 1708.1,371.8 1709.9,372.1 1711.8,372.3 1713.6,372.6 1715.5,372.9 1717.3,373.1 1719.2,373.4 1721,373.7 1722.9,374 1724.7,374.3 1726.6,374.5 1728.4,374.8 1730.3,375.1 1732.1,375.4 1734,375.7 1735.8,376 1737.7,376.3 1739.5,376.6 1741.4,376.8 1743.2,377.1 1745.1,377.4 1746.9,377.7 1748.8,378 1750.6,378.3 1752.5,378.6 1754.3,378.9 1756.2,379.1 1758,379.4 1759.9,379.7 1761.7,380 1763.6,380.3 1765.5,380.5 1767.3,380.8 1769.2,381.1 1771,381.3 1772.9,381.6 1774.7,381.9 1776.6,382.1 1778.4,382.4 1780.3,382.6 1782.1,382.9 1784,383.1 1785.8,383.3 1787.7,383.6 1789.5,383.8 1791.4,384 1793.2,384.3 1795.1,384.5 1796.9,384.7 1798.8,384.9 1800.6,385.1 1802.5,385.3 1804.3,385.5 1806.2,385.7 1808,385.9 1809.9,386.1 1811.7,386.2 1813.6,386.4 1815.4,386.6 1817.3,386.7 1819.1,386.9 1821,387 1822.8,387.2 1824.7,387.3 1826.5,387.4 1828.4,387.6 1830.2,387.7 1832.1,387.8 1834,387.9 1835.8,388 1837.7,388.1 1839.5,388.2 1841.4,388.3 1843.2,388.3 1845.1,388.4 1846.9,388.5 1848.8,388.5 1850.6,388.6 1852.5,388.6 1854.3,388.7 1856.2,388.7 1858,388.8 1859.9,388.8 1861.7,388.8 1863.6,388.8 1865.4,388.8 1867.3,388.8 1869.1,388.8 1871,388.8 1872.8,388.8 1874.7,388.8 1876.5,388.8 1878.4,388.7 1880.2,388.7 1882.1,388.7 1883.9,388.6 1885.8,388.6 1887.6,388.5 1889.5,388.4 1891.3,388.4 1893.2,388.3 1895,388.2 "
         id="polyline518"
         style="vector-effect:none;fill:none;stroke:#000000;stroke-width:5.99377012;stroke-miterlimit:4;stroke-dasharray:none;stroke-opacity:1" />
    </g>
    <g
       transform="scale(1.00104)"
       font-size="11"
       font-weight="400"
       font-style="normal"
       id="g522"
       style="font-style:normal;font-weight:400;font-size:11px;font-family:Ubuntu;fill:none;stroke:#000000;stroke-width:1;stroke-linecap:square;stroke-linejoin:bevel;stroke-opacity:1" />
    <g
       transform="scale(1.00104)"
       font-size="11"
       font-weight="400"
       font-style="normal"
       id="g524"
       style="font-style:normal;font-weight:400;font-size:11px;font-family:Ubuntu;fill:none;stroke:#000000;stroke-width:1;stroke-linecap:square;stroke-linejoin:bevel;stroke-opacity:1" />
    <g
       transform="scale(1.00104)"
       font-size="11"
       font-weight="400"
       font-style="normal"
       id="g528"
       style="font-style:normal;font-weight:400;font-size:11px;font-family:Ubuntu;fill:none;stroke:#000000;stroke-width:1.49844253;stroke-linecap:round;stroke-linejoin:round;stroke-miterlimit:4;stroke-dasharray:none;stroke-opacity:1">
      <polyline
         points="45.5,15.5 45.5,867.5 1896.5,867.5 1896.5,15.5 45.5,15.5 "
         id="polyline526"
         style="vector-effect:none;fill:none;stroke-width:1.49844253;stroke-miterlimit:4;stroke-dasharray:none" />
    </g>
    <g
       transform="scale(1.00104)"
       font-size="11"
       font-weight="400"
       font-style="normal"
       id="g530"
       style="font-style:normal;font-weight:400;font-size:11px;font-family:Ubuntu;fill:none;stroke:#000000;stroke-width:1;stroke-linecap:square;stroke-linejoin:bevel;stroke-opacity:1" />
    <g
       font-size="11"
       font-weight="400"
       font-style="normal"
       id="g532"
       style="font-style:normal;font-weight:400;font-size:11px;font-family:Ubuntu;fill:none;stroke:#000000;stroke-width:1;stroke-linecap:square;stroke-linejoin:bevel;stroke-opacity:1" />
    <text
       style="font-style:normal;font-weight:400;font-size:42.62878799px;font-family:Sans;fill:#000000;fill-opacity:1;fill-rule:evenodd;stroke:none;stroke-width:1.52245677;stroke-linecap:square;stroke-linejoin:bevel;stroke-opacity:1"
       id="text134-6"
       font-style="normal"
       font-weight="400"
       font-size="28"
       y="457.09592"
       x="168.03848"
       xml:space="preserve">p1</text>
    <path
       style="fill:none;fill-rule:evenodd;stroke:#000000;stroke-width:2.25000143;stroke-linecap:butt;stroke-linejoin:miter;stroke-miterlimit:4;stroke-dasharray:18.00001147, 18.00001147;stroke-dashoffset:0;stroke-opacity:1;marker-start:url(#Arrow1Lstart);marker-end:url(#Arrow1Lend)"
       d="M 343.642,549.59339 V 279.59322"
       id="path3980"
       inkscape:connector-curvature="0" />
    <text
       style="font-style:normal;font-weight:400;font-size:42.62878799px;font-family:Sans;fill:#000000;fill-opacity:1;fill-rule:evenodd;stroke:none;stroke-width:1.52245677;stroke-linecap:square;stroke-linejoin:bevel;stroke-opacity:1"
       id="text134-6-0"
       font-style="normal"
       font-weight="400"
       font-size="28"
       y="386.70663"
       x="-502.98608"
       xml:space="preserve"
       transform="rotate(-90)">p2</text>
    <path
       style="fill:none;stroke:#000000;stroke-width:2.25000143;stroke-linecap:butt;stroke-linejoin:miter;stroke-miterlimit:4;stroke-dasharray:18.00001147, 18.00001147;stroke-dashoffset:0;stroke-opacity:1"
       d="M 339.22133,272.17326 H 1899.2224"
       id="path1131"
       inkscape:connector-curvature="0" />
    <path
       style="fill:none;fill-rule:evenodd;stroke:#000000;stroke-width:2.25000143;stroke-linecap:butt;stroke-linejoin:miter;stroke-miterlimit:4;stroke-dasharray:18.00001191, 18.00001191;stroke-dashoffset:0;stroke-opacity:1"
       d="M 339.22151,557.01332 H 1899.2226"
       id="path1131-3-6"
       inkscape:connector-curvature="0" />
    <path
       style="fill:none;stroke:#000000;stroke-width:2.25000143;stroke-linecap:butt;stroke-linejoin:miter;stroke-miterlimit:4;stroke-dasharray:18.00001147, 18.00001147;stroke-dashoffset:0;stroke-opacity:1;marker-start:url(#marker1353);marker-end:url(#marker1219)"
       d="M 341.34787,414.5933 H 48.847684"
       id="path1209"
       inkscape:connector-curvature="0" />
  </g>
</svg>
